%!PS-Adobe-3.0 EPSF-3.0
%%Title: /home/david/Documents/Research_Report/gfx/avoidance_ga_late.eps
%%Creator: matplotlib version 1.3.1, http://matplotlib.org/
%%CreationDate: Tue Aug 11 20:55:49 2015
%%Orientation: portrait
%%BoundingBox: -202 31 814 760
%%EndComments
%%BeginProlog
/mpldict 8 dict def
mpldict begin
/m { moveto } bind def
/l { lineto } bind def
/r { rlineto } bind def
/c { curveto } bind def
/cl { closepath } bind def
/box {
m
1 index 0 r
0 exch r
neg 0 r
cl
} bind def
/clipbox {
box
clip
newpath
} bind def
%!PS-Adobe-3.0 Resource-Font
%%Title: DejaVu Sans
%%Copyright: Copyright (c) 2003 by Bitstream, Inc. All Rights Reserved. Copyright (c) 2006 by Tavmjong Bah. All Rights Reserved. DejaVu changes are in public domain 
%%Creator: Converted from TrueType to type 3 by PPR
25 dict begin
/_d{bind def}bind def
/_m{moveto}_d
/_l{lineto}_d
/_cl{closepath eofill}_d
/_c{curveto}_d
/_sc{7 -1 roll{setcachedevice}{pop pop pop pop pop pop}ifelse}_d
/_e{exec}_d
/FontName /DejaVuSans def
/PaintType 0 def
/FontMatrix[.001 0 0 .001 0 0]def
/FontBBox[-1021 -415 1681 1167]def
/FontType 3 def
/Encoding [ /zero /one /two /three /four /five /six /seven /eight /nine /F /G /a /e /g /i /m /n /o /r /s /t /u /v /x ] def
/FontInfo 10 dict dup begin
/FamilyName (DejaVu Sans) def
/FullName (DejaVu Sans) def
/Notice (Copyright (c) 2003 by Bitstream, Inc. All Rights Reserved. Copyright (c) 2006 by Tavmjong Bah. All Rights Reserved. DejaVu changes are in public domain ) def
/Weight (Book) def
/Version (Version 2.34) def
/ItalicAngle 0.0 def
/isFixedPitch false def
/UnderlinePosition -130 def
/UnderlineThickness 90 def
end readonly def
/CharStrings 25 dict dup begin
/zero{636 0 66 -13 570 742 _sc
318 664 _m
267 664 229 639 203 589 _c
177 539 165 464 165 364 _c
165 264 177 189 203 139 _c
229 89 267 64 318 64 _c
369 64 407 89 433 139 _c
458 189 471 264 471 364 _c
471 464 458 539 433 589 _c
407 639 369 664 318 664 _c
318 742 _m
399 742 461 709 505 645 _c
548 580 570 486 570 364 _c
570 241 548 147 505 83 _c
461 19 399 -13 318 -13 _c
236 -13 173 19 130 83 _c
87 147 66 241 66 364 _c
66 486 87 580 130 645 _c
173 709 236 742 318 742 _c
_cl}_d
/one{636 0 110 0 544 729 _sc
124 83 _m
285 83 _l
285 639 _l
110 604 _l
110 694 _l
284 729 _l
383 729 _l
383 83 _l
544 83 _l
544 0 _l
124 0 _l
124 83 _l
_cl}_d
/two{{636 0 73 0 536 742 _sc
192 83 _m
536 83 _l
536 0 _l
73 0 _l
73 83 _l
110 121 161 173 226 239 _c
290 304 331 346 348 365 _c
380 400 402 430 414 455 _c
426 479 433 504 433 528 _c
433 566 419 598 392 622 _c
365 646 330 659 286 659 _c
255 659 222 653 188 643 _c
154 632 117 616 78 594 _c
78 694 _l
118 710 155 722 189 730 _c
223 738 255 742 284 742 _c
}_e{359 742 419 723 464 685 _c
509 647 532 597 532 534 _c
532 504 526 475 515 449 _c
504 422 484 390 454 354 _c
446 344 420 317 376 272 _c
332 227 271 164 192 83 _c
_cl}_e}_d
/three{{636 0 76 -13 556 742 _sc
406 393 _m
453 383 490 362 516 330 _c
542 298 556 258 556 212 _c
556 140 531 84 482 45 _c
432 6 362 -13 271 -13 _c
240 -13 208 -10 176 -4 _c
144 1 110 10 76 22 _c
76 117 _l
103 101 133 89 166 81 _c
198 73 232 69 268 69 _c
330 69 377 81 409 105 _c
441 129 458 165 458 212 _c
458 254 443 288 413 312 _c
383 336 341 349 287 349 _c
}_e{202 349 _l
202 430 _l
291 430 _l
339 430 376 439 402 459 _c
428 478 441 506 441 543 _c
441 580 427 609 401 629 _c
374 649 336 659 287 659 _c
260 659 231 656 200 650 _c
169 644 135 635 98 623 _c
98 711 _l
135 721 170 729 203 734 _c
235 739 266 742 296 742 _c
370 742 429 725 473 691 _c
517 657 539 611 539 553 _c
539 513 527 479 504 451 _c
481 423 448 403 406 393 _c
_cl}_e}_d
/four{636 0 49 0 580 729 _sc
378 643 _m
129 254 _l
378 254 _l
378 643 _l
352 729 _m
476 729 _l
476 254 _l
580 254 _l
580 172 _l
476 172 _l
476 0 _l
378 0 _l
378 172 _l
49 172 _l
49 267 _l
352 729 _l
_cl}_d
/five{{636 0 77 -13 549 729 _sc
108 729 _m
495 729 _l
495 646 _l
198 646 _l
198 467 _l
212 472 227 476 241 478 _c
255 480 270 482 284 482 _c
365 482 429 459 477 415 _c
525 370 549 310 549 234 _c
549 155 524 94 475 51 _c
426 8 357 -13 269 -13 _c
238 -13 207 -10 175 -6 _c
143 -1 111 6 77 17 _c
77 116 _l
106 100 136 88 168 80 _c
199 72 232 69 267 69 _c
}_e{323 69 368 83 401 113 _c
433 143 450 183 450 234 _c
450 284 433 324 401 354 _c
368 384 323 399 267 399 _c
241 399 214 396 188 390 _c
162 384 135 375 108 363 _c
108 729 _l
_cl}_e}_d
/six{{636 0 70 -13 573 742 _sc
330 404 _m
286 404 251 388 225 358 _c
199 328 186 286 186 234 _c
186 181 199 139 225 109 _c
251 79 286 64 330 64 _c
374 64 409 79 435 109 _c
461 139 474 181 474 234 _c
474 286 461 328 435 358 _c
409 388 374 404 330 404 _c
526 713 _m
526 623 _l
501 635 476 644 451 650 _c
425 656 400 659 376 659 _c
310 659 260 637 226 593 _c
}_e{192 549 172 482 168 394 _c
187 422 211 444 240 459 _c
269 474 301 482 336 482 _c
409 482 467 459 509 415 _c
551 371 573 310 573 234 _c
573 159 550 99 506 54 _c
462 9 403 -13 330 -13 _c
246 -13 181 19 137 83 _c
92 147 70 241 70 364 _c
70 479 97 571 152 639 _c
206 707 280 742 372 742 _c
396 742 421 739 447 735 _c
472 730 498 723 526 713 _c
_cl}_e}_d
/seven{636 0 82 0 551 729 _sc
82 729 _m
551 729 _l
551 687 _l
286 0 _l
183 0 _l
432 646 _l
82 646 _l
82 729 _l
_cl}_d
/eight{{636 0 68 -13 568 742 _sc
318 346 _m
271 346 234 333 207 308 _c
180 283 167 249 167 205 _c
167 161 180 126 207 101 _c
234 76 271 64 318 64 _c
364 64 401 76 428 102 _c
455 127 469 161 469 205 _c
469 249 455 283 429 308 _c
402 333 365 346 318 346 _c
219 388 _m
177 398 144 418 120 447 _c
96 476 85 511 85 553 _c
85 611 105 657 147 691 _c
188 725 245 742 318 742 _c
}_e{390 742 447 725 489 691 _c
530 657 551 611 551 553 _c
551 511 539 476 515 447 _c
491 418 459 398 417 388 _c
464 377 501 355 528 323 _c
554 291 568 251 568 205 _c
568 134 546 80 503 43 _c
459 5 398 -13 318 -13 _c
237 -13 175 5 132 43 _c
89 80 68 134 68 205 _c
68 251 81 291 108 323 _c
134 355 171 377 219 388 _c
183 544 _m
183 506 194 476 218 455 _c
}_e{242 434 275 424 318 424 _c
360 424 393 434 417 455 _c
441 476 453 506 453 544 _c
453 582 441 611 417 632 _c
393 653 360 664 318 664 _c
275 664 242 653 218 632 _c
194 611 183 582 183 544 _c
_cl}_e}_d
/nine{{636 0 63 -13 566 742 _sc
110 15 _m
110 105 _l
134 93 159 84 185 78 _c
210 72 235 69 260 69 _c
324 69 374 90 408 134 _c
442 178 462 244 468 334 _c
448 306 424 284 396 269 _c
367 254 335 247 300 247 _c
226 247 168 269 126 313 _c
84 357 63 417 63 494 _c
63 568 85 628 129 674 _c
173 719 232 742 306 742 _c
390 742 455 709 499 645 _c
543 580 566 486 566 364 _c
}_e{566 248 538 157 484 89 _c
429 21 356 -13 264 -13 _c
239 -13 214 -10 189 -6 _c
163 -2 137 5 110 15 _c
306 324 _m
350 324 385 339 411 369 _c
437 399 450 441 450 494 _c
450 546 437 588 411 618 _c
385 648 350 664 306 664 _c
262 664 227 648 201 618 _c
175 588 162 546 162 494 _c
162 441 175 399 201 369 _c
227 339 262 324 306 324 _c
_cl}_e}_d
/F{575 0 98 0 517 729 _sc
98 729 _m
517 729 _l
517 646 _l
197 646 _l
197 431 _l
486 431 _l
486 348 _l
197 348 _l
197 0 _l
98 0 _l
98 729 _l
_cl}_d
/G{{775 0 56 -13 693 742 _sc
595 104 _m
595 300 _l
434 300 _l
434 381 _l
693 381 _l
693 68 _l
655 40 613 20 567 7 _c
521 -6 472 -13 420 -13 _c
306 -13 216 20 152 86 _c
88 152 56 245 56 364 _c
56 482 88 575 152 642 _c
216 708 306 742 420 742 _c
467 742 512 736 555 724 _c
598 712 638 695 674 673 _c
674 568 _l
637 598 598 621 557 637 _c
516 653 473 661 428 661 _c
}_e{338 661 271 636 227 586 _c
182 536 160 462 160 364 _c
160 265 182 191 227 141 _c
271 91 338 67 428 67 _c
462 67 493 70 521 76 _c
549 82 573 91 595 104 _c
_cl}_e}_d
/a{{613 0 60 -13 522 560 _sc
343 275 _m
270 275 220 266 192 250 _c
164 233 150 205 150 165 _c
150 133 160 107 181 89 _c
202 70 231 61 267 61 _c
317 61 357 78 387 114 _c
417 149 432 196 432 255 _c
432 275 _l
343 275 _l
522 312 _m
522 0 _l
432 0 _l
432 83 _l
411 49 385 25 355 10 _c
325 -5 287 -13 243 -13 _c
187 -13 142 2 109 33 _c
76 64 60 106 60 159 _c
}_e{60 220 80 266 122 298 _c
163 329 224 345 306 345 _c
432 345 _l
432 354 _l
432 395 418 427 391 450 _c
364 472 326 484 277 484 _c
245 484 215 480 185 472 _c
155 464 127 453 100 439 _c
100 522 _l
132 534 164 544 195 550 _c
226 556 256 560 286 560 _c
365 560 424 539 463 498 _c
502 457 522 395 522 312 _c
_cl}_e}_d
/e{{615 0 55 -13 562 560 _sc
562 296 _m
562 252 _l
149 252 _l
153 190 171 142 205 110 _c
238 78 284 62 344 62 _c
378 62 412 66 444 74 _c
476 82 509 95 541 113 _c
541 28 _l
509 14 476 3 442 -3 _c
408 -9 373 -13 339 -13 _c
251 -13 182 12 131 62 _c
80 112 55 181 55 268 _c
55 357 79 428 127 481 _c
175 533 241 560 323 560 _c
397 560 455 536 498 489 _c
}_e{540 441 562 377 562 296 _c
472 322 _m
471 371 457 410 431 440 _c
404 469 368 484 324 484 _c
274 484 234 469 204 441 _c
174 413 156 373 152 322 _c
472 322 _l
_cl}_e}_d
/g{{635 0 55 -207 544 560 _sc
454 280 _m
454 344 440 395 414 431 _c
387 467 349 485 301 485 _c
253 485 215 467 188 431 _c
161 395 148 344 148 280 _c
148 215 161 165 188 129 _c
215 93 253 75 301 75 _c
349 75 387 93 414 129 _c
440 165 454 215 454 280 _c
544 68 _m
544 -24 523 -93 482 -139 _c
440 -184 377 -207 292 -207 _c
260 -207 231 -204 203 -200 _c
175 -195 147 -188 121 -178 _c
}_e{121 -91 _l
147 -105 173 -115 199 -122 _c
225 -129 251 -133 278 -133 _c
336 -133 380 -117 410 -87 _c
439 -56 454 -10 454 52 _c
454 96 _l
435 64 411 40 382 24 _c
353 8 319 0 279 0 _c
211 0 157 25 116 76 _c
75 127 55 195 55 280 _c
55 364 75 432 116 483 _c
157 534 211 560 279 560 _c
319 560 353 552 382 536 _c
411 520 435 496 454 464 _c
454 547 _l
544 547 _l
}_e{544 68 _l
_cl}_e}_d
/i{278 0 94 0 184 760 _sc
94 547 _m
184 547 _l
184 0 _l
94 0 _l
94 547 _l
94 760 _m
184 760 _l
184 646 _l
94 646 _l
94 760 _l
_cl}_d
/m{{974 0 91 0 889 560 _sc
520 442 _m
542 482 569 511 600 531 _c
631 550 668 560 711 560 _c
767 560 811 540 842 500 _c
873 460 889 403 889 330 _c
889 0 _l
799 0 _l
799 327 _l
799 379 789 418 771 444 _c
752 469 724 482 686 482 _c
639 482 602 466 575 435 _c
548 404 535 362 535 309 _c
535 0 _l
445 0 _l
445 327 _l
445 379 435 418 417 444 _c
398 469 369 482 331 482 _c
}_e{285 482 248 466 221 435 _c
194 404 181 362 181 309 _c
181 0 _l
91 0 _l
91 547 _l
181 547 _l
181 462 _l
201 495 226 520 255 536 _c
283 552 317 560 357 560 _c
397 560 430 550 458 530 _c
486 510 506 480 520 442 _c
_cl}_e}_d
/n{634 0 91 0 549 560 _sc
549 330 _m
549 0 _l
459 0 _l
459 327 _l
459 379 448 417 428 443 _c
408 469 378 482 338 482 _c
289 482 251 466 223 435 _c
195 404 181 362 181 309 _c
181 0 _l
91 0 _l
91 547 _l
181 547 _l
181 462 _l
202 494 227 519 257 535 _c
286 551 320 560 358 560 _c
420 560 468 540 500 501 _c
532 462 549 405 549 330 _c
_cl}_d
/o{612 0 55 -13 557 560 _sc
306 484 _m
258 484 220 465 192 427 _c
164 389 150 338 150 273 _c
150 207 163 156 191 118 _c
219 80 257 62 306 62 _c
354 62 392 80 420 118 _c
448 156 462 207 462 273 _c
462 337 448 389 420 427 _c
392 465 354 484 306 484 _c
306 560 _m
384 560 445 534 490 484 _c
534 433 557 363 557 273 _c
557 183 534 113 490 63 _c
445 12 384 -13 306 -13 _c
227 -13 165 12 121 63 _c
77 113 55 183 55 273 _c
55 363 77 433 121 484 _c
165 534 227 560 306 560 _c
_cl}_d
/r{411 0 91 0 411 560 _sc
411 463 _m
401 469 390 473 378 476 _c
366 478 353 480 339 480 _c
288 480 249 463 222 430 _c
194 397 181 350 181 288 _c
181 0 _l
91 0 _l
91 547 _l
181 547 _l
181 462 _l
199 495 224 520 254 536 _c
284 552 321 560 365 560 _c
371 560 378 559 386 559 _c
393 558 401 557 411 555 _c
411 463 _l
_cl}_d
/s{{521 0 54 -13 472 560 _sc
443 531 _m
443 446 _l
417 458 391 468 364 475 _c
336 481 308 485 279 485 _c
234 485 200 478 178 464 _c
156 450 145 430 145 403 _c
145 382 153 366 169 354 _c
185 342 217 330 265 320 _c
296 313 _l
360 299 405 279 432 255 _c
458 230 472 195 472 151 _c
472 100 452 60 412 31 _c
372 1 316 -13 246 -13 _c
216 -13 186 -10 154 -5 _c
}_e{122 0 89 8 54 20 _c
54 113 _l
87 95 120 82 152 74 _c
184 65 216 61 248 61 _c
290 61 323 68 346 82 _c
368 96 380 117 380 144 _c
380 168 371 187 355 200 _c
339 213 303 226 247 238 _c
216 245 _l
160 257 119 275 95 299 _c
70 323 58 356 58 399 _c
58 450 76 490 112 518 _c
148 546 200 560 268 560 _c
301 560 332 557 362 552 _c
391 547 418 540 443 531 _c
}_e{_cl}_e}_d
/t{392 0 27 0 368 702 _sc
183 702 _m
183 547 _l
368 547 _l
368 477 _l
183 477 _l
183 180 _l
183 135 189 106 201 94 _c
213 81 238 75 276 75 _c
368 75 _l
368 0 _l
276 0 _l
206 0 158 13 132 39 _c
106 65 93 112 93 180 _c
93 477 _l
27 477 _l
27 547 _l
93 547 _l
93 702 _l
183 702 _l
_cl}_d
/u{634 0 85 -13 543 560 _sc
85 216 _m
85 547 _l
175 547 _l
175 219 _l
175 167 185 129 205 103 _c
225 77 255 64 296 64 _c
344 64 383 79 411 110 _c
439 141 453 183 453 237 _c
453 547 _l
543 547 _l
543 0 _l
453 0 _l
453 84 _l
431 50 405 26 377 10 _c
348 -5 315 -13 277 -13 _c
214 -13 166 6 134 45 _c
101 83 85 140 85 216 _c
311 560 _m
311 560 _l
_cl}_d
/v{592 0 30 0 562 547 _sc
30 547 _m
125 547 _l
296 88 _l
467 547 _l
562 547 _l
357 0 _l
235 0 _l
30 547 _l
_cl}_d
/x{592 0 29 0 559 547 _sc
549 547 _m
351 281 _l
559 0 _l
453 0 _l
294 215 _l
135 0 _l
29 0 _l
241 286 _l
47 547 _l
153 547 _l
298 352 _l
443 547 _l
549 547 _l
_cl}_d
end readonly def

/BuildGlyph
 {exch begin
 CharStrings exch
 2 copy known not{pop /.notdef}if
 true 3 1 roll get exec
 end}_d

/BuildChar {
 1 index /Encoding get exch get
 1 index /BuildGlyph get exec
}_d

FontName currentdict end definefont pop
end
%%EndProlog
mpldict begin
-202.5 31.5 translate
1017 729 0 0 clipbox
gsave
0 0 m
1017 0 l
1017 729 l
0 729 l
cl
1.000 setgray
fill
grestore
gsave
127.125 72.9 m
915.3 72.9 l
915.3 656.1 l
127.125 656.1 l
cl
1.000 setgray
fill
grestore
1.000 setlinewidth
1 setlinejoin
2 setlinecap
[] 0 setdash
0.000 setgray
gsave
788.2 583.2 127.1 72.9 clipbox
126.14 587.127 m
127.125 354.397 l
128.11 357.193 l
129.095 358.265 l
130.081 358.688 l
131.066 360.275 l
132.051 360.858 l
133.036 361.289 l
134.022 361.861 l
135.007 362.263 l
136.977 363.297 l
137.962 363.687 l
138.948 364.205 l
143.874 365.601 l
144.859 365.699 l
146.829 366.318 l
152.741 367.371 l
156.682 367.887 l
162.593 368.727 l
176.386 369.994 l
180.327 370.236 l
185.253 370.461 l
193.135 370.841 l
202.987 371.336 l
206.928 371.441 l
213.824 371.607 l
214.809 371.738 l
222.691 371.901 l
236.484 372.264 l
272.937 372.748 l
274.908 372.823 l
302.494 373.245 l
323.184 373.359 l
324.169 579.178 l
325.154 579.763 l
326.139 580.772 l
328.11 581.488 l
330.08 582.367 l
332.051 582.762 l
333.036 583.034 l
335.006 583.316 l
337.962 583.885 l
344.858 584.643 l
345.844 584.886 l
346.829 584.912 l
348.799 585.12 l
352.74 585.375 l
368.504 586.177 l
396.09 586.943 l
421.705 587.219 l
425.646 587.302 l
444.365 587.401 l
520.227 587.487 l
521.213 357.714 l
522.198 358.778 l
523.183 359.657 l
525.153 360.353 l
528.109 361.922 l
529.094 362.72 l
530.079 363.011 l
531.065 363.094 l
532.05 363.322 l
534.02 364.25 l
535.991 364.678 l
536.976 364.958 l
538.946 365.254 l
540.917 365.744 l
541.902 365.84 l
544.858 366.777 l
545.843 366.886 l
546.828 367.175 l
548.799 367.382 l
553.725 368.121 l
555.695 368.238 l
559.636 368.998 l
563.577 369.211 l
569.488 369.644 l
572.444 369.84 l
607.912 371.382 l
615.793 371.483 l
616.779 371.605 l
622.69 371.703 l
628.601 371.866 l
652.247 372.284 l
655.202 372.34 l
666.04 372.43 l
668.995 372.516 l
684.759 372.661 l
689.685 372.765 l
711.36 372.996 l
717.271 373.01 l
718.256 578.977 l
719.241 579.406 l
720.227 580.2 l
721.212 580.758 l
723.182 581.415 l
726.138 582.178 l
729.094 582.88 l
730.079 583.18 l
733.035 583.486 l
734.02 583.546 l
736.975 584.024 l
748.798 585.019 l
755.695 585.481 l
756.68 585.746 l
775.399 586.318 l
788.207 586.557 l
790.177 586.694 l
800.029 586.8 l
853.231 586.986 l
856.187 586.993 l
857.172 587.144 l
914.315 587.272 l
914.315 587.272 l
stroke
grestore
0 setlinecap
[6 6] 0 setdash
gsave
788.2 583.2 127.1 72.9 clipbox
126.14 545.464 m
127.125 111.159 l
128.11 113.565 l
129.095 116.47 l
130.081 119.898 l
131.066 124.129 l
132.051 129.289 l
133.036 135.067 l
134.022 141.779 l
135.007 149.399 l
136.977 167.534 l
138.948 188.777 l
141.903 224.581 l
144.859 259.388 l
146.829 279.387 l
147.815 288.004 l
149.785 302.009 l
150.77 307.831 l
151.755 312.859 l
152.741 317.034 l
154.711 323.802 l
155.696 326.481 l
156.682 328.686 l
157.667 330.597 l
159.637 333.862 l
163.578 338.246 l
166.534 340.02 l
168.504 341.379 l
170.475 342.186 l
172.445 342.809 l
173.43 343.269 l
175.401 343.868 l
176.386 344.319 l
179.342 345.321 l
182.297 345.461 l
183.282 345.671 l
185.253 346.252 l
187.223 346.529 l
190.179 347.279 l
191.164 347.366 l
192.149 347.314 l
193.135 347.795 l
195.105 347.73 l
196.09 347.977 l
197.076 347.924 l
198.061 348.099 l
199.046 348.529 l
202.002 348.552 l
202.987 348.879 l
206.928 348.756 l
213.824 349.124 l
214.809 349.348 l
215.795 349.19 l
216.78 349.277 l
217.765 349.486 l
220.721 349.532 l
223.676 350.203 l
224.662 349.937 l
226.632 350.039 l
227.617 350.194 l
228.603 350.206 l
229.588 350.5 l
230.573 350.387 l
231.558 350.418 l
232.543 350.742 l
233.529 350.542 l
235.499 350.558 l
236.484 350.772 l
237.47 350.816 l
239.44 350.515 l
240.425 350.85 l
241.41 350.988 l
242.396 350.935 l
243.381 351.002 l
244.366 350.685 l
245.351 350.51 l
247.322 350.729 l
248.307 350.847 l
249.292 350.823 l
251.263 351.078 l
252.248 351.081 l
254.218 350.864 l
255.203 350.781 l
256.189 351.059 l
257.174 351.106 l
258.159 351.296 l
259.144 351.286 l
260.13 351.144 l
262.1 351.217 l
263.085 351.104 l
265.056 351.308 l
266.041 351.143 l
267.026 351.215 l
268.011 351.504 l
268.997 351.638 l
269.982 351.632 l
270.967 351.768 l
271.952 351.531 l
273.923 351.711 l
277.863 351.52 l
278.849 351.252 l
280.819 351.756 l
281.804 351.871 l
282.79 351.73 l
285.745 351.95 l
287.716 351.916 l
288.701 351.538 l
289.686 351.38 l
290.671 351.677 l
293.627 351.894 l
294.612 351.745 l
295.597 352.048 l
297.568 351.97 l
298.553 352.092 l
301.509 351.698 l
302.494 351.907 l
306.435 352.119 l
307.42 351.879 l
310.376 352.188 l
311.361 352.153 l
313.331 352.309 l
314.317 352.661 l
315.302 352.186 l
316.287 352.199 l
317.272 352.443 l
319.243 352.266 l
320.228 352.342 l
321.213 352.668 l
322.198 352.678 l
323.184 352.31 l
324.169 140.132 l
325.154 146.994 l
326.139 155.082 l
327.124 164.745 l
328.11 175.998 l
329.095 189.342 l
330.08 204.399 l
332.051 239.998 l
334.021 280.826 l
339.932 409.708 l
341.903 444.155 l
342.888 459.119 l
343.873 472.23 l
344.858 483.535 l
345.844 493.348 l
346.829 501.454 l
347.814 508.614 l
348.799 514.791 l
349.784 519.925 l
350.77 523.95 l
352.74 530.107 l
354.711 533.914 l
355.696 535.45 l
356.681 536.578 l
357.666 537.9 l
358.651 538.644 l
359.637 539.669 l
360.622 540.215 l
361.607 540.28 l
362.592 540.942 l
364.563 541.279 l
365.548 541.81 l
366.533 542.497 l
367.518 542.165 l
369.489 542.584 l
370.474 542.748 l
372.444 543.32 l
373.43 543.049 l
374.415 543.338 l
375.4 543.313 l
376.385 543.6 l
377.371 544.113 l
378.356 544.106 l
379.341 544.72 l
380.326 544.606 l
381.311 544.211 l
384.267 544.054 l
385.252 544.216 l
386.238 544.547 l
387.223 545.049 l
388.208 544.728 l
389.193 545.011 l
390.178 544.864 l
392.149 544.941 l
393.134 544.132 l
394.119 544.776 l
395.105 544.731 l
396.09 544.974 l
397.075 544.632 l
398.06 545.387 l
400.031 545.936 l
401.016 545.983 l
403.971 545.198 l
404.957 544.598 l
405.942 544.677 l
406.927 544.53 l
411.853 546.063 l
412.838 545.796 l
413.824 545.99 l
415.794 545.852 l
416.779 546.076 l
417.765 545.993 l
418.75 546.13 l
419.735 546.051 l
420.72 545.5 l
421.705 545.18 l
423.676 545.121 l
424.661 545.007 l
425.646 545.383 l
427.617 545.358 l
428.602 545.939 l
429.587 545.727 l
430.572 545.73 l
431.558 545.408 l
432.543 545.497 l
433.528 545.38 l
434.513 545.053 l
435.498 545.215 l
436.484 545.534 l
439.439 545.483 l
440.425 545.705 l
443.38 545.884 l
444.365 545.722 l
445.351 545.274 l
446.336 545.325 l
447.321 545.254 l
448.306 545.321 l
449.292 545.057 l
450.277 545.152 l
451.262 545.101 l
452.247 545.404 l
453.232 545.532 l
454.218 545.532 l
455.203 545.662 l
456.188 545.617 l
458.159 545.27 l
459.144 545.77 l
460.129 545.678 l
461.114 545.993 l
462.099 546.091 l
463.085 546.463 l
464.07 545.929 l
465.055 546.005 l
466.04 545.417 l
467.025 545.373 l
468.011 545.132 l
468.996 545.196 l
470.966 544.986 l
471.952 545.508 l
472.937 545.423 l
473.922 545.732 l
474.907 545.497 l
475.892 545.987 l
476.878 546.169 l
477.863 546.639 l
479.833 546.006 l
480.819 546.065 l
481.804 545.868 l
482.789 546.183 l
484.759 545.542 l
485.745 545.64 l
486.73 545.41 l
487.715 544.936 l
488.7 545.109 l
489.686 545.442 l
490.671 545.337 l
491.656 545.661 l
492.641 545.735 l
493.626 545.947 l
496.582 546.086 l
497.567 545.961 l
499.538 546.118 l
501.508 545.364 l
503.479 545.682 l
504.464 545.491 l
505.449 545.721 l
506.434 544.989 l
509.39 545.068 l
510.375 544.902 l
511.36 544.504 l
512.346 544.76 l
513.331 544.563 l
514.316 544.582 l
515.301 545.057 l
516.286 545.172 l
517.272 545.476 l
518.257 545.449 l
519.242 545.571 l
520.227 545.416 l
521.213 114.139 l
522.198 116.715 l
523.183 119.724 l
524.168 123.336 l
525.153 127.619 l
526.139 132.692 l
527.124 138.694 l
528.109 145.499 l
530.079 161.983 l
532.05 182.008 l
535.991 228.492 l
537.961 251.777 l
539.932 272.634 l
540.917 281.866 l
542.887 297.205 l
543.873 303.727 l
545.843 314.145 l
547.813 321.814 l
548.799 324.917 l
550.769 329.4 l
551.754 331.414 l
552.74 332.713 l
553.725 334.453 l
554.71 335.891 l
555.695 336.789 l
556.68 337.477 l
557.666 338.427 l
559.636 339.831 l
560.621 340.418 l
568.503 343.732 l
570.473 344.106 l
571.459 344.365 l
573.429 344.695 l
574.414 344.851 l
575.4 345.258 l
577.37 345.515 l
578.355 346.058 l
579.34 345.952 l
580.326 346.054 l
581.311 346.393 l
583.281 346.667 l
584.267 346.983 l
585.252 347.114 l
586.237 346.87 l
588.207 347.324 l
589.193 347.611 l
590.178 348.049 l
591.163 347.962 l
592.148 347.762 l
595.104 347.82 l
596.089 348.054 l
597.074 347.999 l
598.06 348.359 l
599.045 348.37 l
600.03 348.53 l
601.015 348.522 l
602 348.322 l
602.986 348.364 l
604.956 348.854 l
605.941 348.689 l
606.927 348.842 l
607.912 348.691 l
608.897 348.987 l
610.867 349.098 l
611.853 348.992 l
612.838 349.305 l
613.823 349.374 l
614.808 349.225 l
615.793 349.303 l
617.764 349.716 l
619.734 349.663 l
620.72 349.621 l
621.705 349.776 l
623.675 349.55 l
624.66 349.703 l
627.616 349.63 l
628.601 349.841 l
629.587 350.306 l
631.557 350.178 l
632.542 350.213 l
633.527 349.938 l
634.513 350.115 l
635.498 350.031 l
638.454 350.349 l
639.439 350.656 l
640.424 350.619 l
643.38 350.988 l
646.335 350.837 l
650.276 350.481 l
651.261 350.75 l
652.247 350.612 l
654.217 350.795 l
655.202 350.965 l
656.187 350.893 l
657.173 351.125 l
658.158 351.131 l
659.143 350.804 l
660.128 350.762 l
661.114 350.884 l
662.099 350.842 l
663.084 350.976 l
665.054 350.888 l
666.04 351.119 l
667.025 351.042 l
668.01 350.843 l
670.966 350.773 l
671.951 351.091 l
674.907 350.89 l
681.803 351.314 l
682.788 351.372 l
683.774 351.547 l
685.744 351.566 l
687.714 351.591 l
688.7 351.493 l
689.685 351.523 l
691.655 351.45 l
692.641 351.647 l
693.626 351.603 l
694.611 351.742 l
696.581 351.543 l
697.567 351.51 l
698.552 351.65 l
699.537 351.396 l
702.493 351.454 l
703.478 351.4 l
704.463 351.52 l
707.419 351.079 l
708.404 351.427 l
710.374 351.525 l
711.36 351.309 l
713.33 351.548 l
714.315 351.178 l
715.301 351.21 l
716.286 351.06 l
717.271 351.196 l
718.256 140.116 l
719.241 146.721 l
720.227 154.814 l
721.212 164.352 l
722.197 175.579 l
723.182 188.821 l
725.153 220.411 l
727.123 258.309 l
731.064 345.302 l
733.035 387.576 l
735.005 425.23 l
736.975 456.5 l
737.961 469.91 l
738.946 481.487 l
739.931 491.439 l
740.916 500.136 l
741.901 507.457 l
742.887 513.433 l
744.857 522.758 l
745.842 526.39 l
746.828 529.285 l
747.813 531.591 l
748.798 533.47 l
749.783 535.064 l
751.754 537.415 l
752.739 538.287 l
753.724 538.843 l
754.709 539.861 l
756.68 541.058 l
757.665 541.702 l
759.635 542.539 l
761.606 542.335 l
762.591 542.538 l
763.576 542.453 l
764.562 542.525 l
767.517 543.26 l
768.502 543.385 l
769.488 543.267 l
772.443 543.559 l
773.428 543.317 l
777.369 544.6 l
778.355 544.511 l
781.31 544.79 l
782.295 544.747 l
783.281 545.272 l
784.266 545.001 l
787.222 545.652 l
788.207 545.961 l
789.192 545.504 l
790.177 545.705 l
791.162 545.586 l
792.148 545.216 l
793.133 545.005 l
794.118 545.474 l
795.103 545.511 l
796.089 545.664 l
797.074 545.624 l
799.044 545.762 l
800.029 546.053 l
801.015 545.643 l
802 545.662 l
803.97 545.403 l
804.956 545.789 l
807.911 545.632 l
808.896 545.77 l
809.882 546.178 l
810.867 545.858 l
811.852 545.672 l
812.837 544.902 l
813.822 545.232 l
814.808 545.274 l
815.793 546.151 l
817.763 546.784 l
818.749 546.4 l
819.734 546.364 l
820.719 546.568 l
821.704 546.637 l
823.675 546.179 l
824.66 545.762 l
825.645 545.939 l
826.63 545.613 l
827.616 545.793 l
830.571 545.927 l
831.556 545.593 l
832.542 546.247 l
833.527 546.313 l
834.512 546.019 l
835.497 545.88 l
836.483 546.013 l
837.468 545.68 l
838.453 545.521 l
839.438 545.851 l
840.423 545.804 l
841.409 545.998 l
842.394 545.891 l
843.379 545.974 l
844.364 545.822 l
845.349 545.466 l
846.335 545.347 l
847.32 545.546 l
848.305 545.421 l
849.29 545.742 l
850.276 545.762 l
851.261 545.088 l
852.246 544.716 l
855.202 544.691 l
856.187 544.573 l
858.157 545.061 l
860.128 544.829 l
861.113 545.327 l
862.098 545.384 l
863.083 545.622 l
864.069 545.719 l
865.054 546.192 l
866.039 545.612 l
867.024 545.38 l
868.01 545.31 l
868.995 545.399 l
869.98 545.251 l
870.965 545.48 l
871.95 546.113 l
872.936 546.043 l
873.921 545.488 l
874.906 545.324 l
875.891 545.648 l
876.876 545.472 l
878.847 545.627 l
879.832 545.177 l
881.803 545.324 l
882.788 545.299 l
883.773 545.626 l
884.758 545.031 l
885.743 545.198 l
887.714 544.871 l
888.699 544.695 l
889.684 545.001 l
890.67 545.567 l
891.655 545.458 l
894.61 545.554 l
895.596 545.51 l
896.581 545.743 l
898.551 545.386 l
899.537 545.596 l
900.522 545.495 l
902.492 545.754 l
903.477 545.396 l
904.463 545.644 l
905.448 545.589 l
906.433 545.894 l
907.418 545.985 l
910.374 545.456 l
911.359 545.544 l
912.344 545.392 l
913.33 544.712 l
914.315 544.952 l
914.315 544.952 l
stroke
grestore
0.500 setlinewidth
[] 0 setdash
gsave
/o {
gsave
newpath
translate
0.5 setlinewidth
1 setlinejoin
0 setlinecap
0 0 m
0 4 l
gsave
0.000 setgray
fill
grestore
stroke
grestore
} bind def
127.125 72.9 o
grestore
gsave
/o {
gsave
newpath
translate
0.5 setlinewidth
1 setlinejoin
0 setlinecap
0 0 m
0 -4 l
gsave
0.000 setgray
fill
grestore
stroke
grestore
} bind def
127.125 656.1 o
grestore
/DejaVuSans findfont
20.000 scalefont
setfont
gsave
102.984375 53.696875 translate
0.000000 rotate
0.000000 0.000000 m /nine glyphshow
12.724609 0.000000 m /two glyphshow
25.449219 0.000000 m /zero glyphshow
38.173828 0.000000 m /zero glyphshow
grestore
gsave
/o {
gsave
newpath
translate
0.5 setlinewidth
1 setlinejoin
0 setlinecap
0 0 m
0 4 l
gsave
0.000 setgray
fill
grestore
stroke
grestore
} bind def
225.647 72.9 o
grestore
gsave
/o {
gsave
newpath
translate
0.5 setlinewidth
1 setlinejoin
0 setlinecap
0 0 m
0 -4 l
gsave
0.000 setgray
fill
grestore
stroke
grestore
} bind def
225.647 656.1 o
grestore
gsave
201.506250 53.696875 translate
0.000000 rotate
0.000000 0.000000 m /nine glyphshow
12.724609 0.000000 m /three glyphshow
25.449219 0.000000 m /zero glyphshow
38.173828 0.000000 m /zero glyphshow
grestore
gsave
/o {
gsave
newpath
translate
0.5 setlinewidth
1 setlinejoin
0 setlinecap
0 0 m
0 4 l
gsave
0.000 setgray
fill
grestore
stroke
grestore
} bind def
324.169 72.9 o
grestore
gsave
/o {
gsave
newpath
translate
0.5 setlinewidth
1 setlinejoin
0 setlinecap
0 0 m
0 -4 l
gsave
0.000 setgray
fill
grestore
stroke
grestore
} bind def
324.169 656.1 o
grestore
gsave
300.028125 53.696875 translate
0.000000 rotate
0.000000 0.000000 m /nine glyphshow
12.724609 0.000000 m /four glyphshow
25.449219 0.000000 m /zero glyphshow
38.173828 0.000000 m /zero glyphshow
grestore
gsave
/o {
gsave
newpath
translate
0.5 setlinewidth
1 setlinejoin
0 setlinecap
0 0 m
0 4 l
gsave
0.000 setgray
fill
grestore
stroke
grestore
} bind def
422.691 72.9 o
grestore
gsave
/o {
gsave
newpath
translate
0.5 setlinewidth
1 setlinejoin
0 setlinecap
0 0 m
0 -4 l
gsave
0.000 setgray
fill
grestore
stroke
grestore
} bind def
422.691 656.1 o
grestore
gsave
398.550000 53.696875 translate
0.000000 rotate
0.000000 0.000000 m /nine glyphshow
12.724609 0.000000 m /five glyphshow
25.449219 0.000000 m /zero glyphshow
38.173828 0.000000 m /zero glyphshow
grestore
gsave
/o {
gsave
newpath
translate
0.5 setlinewidth
1 setlinejoin
0 setlinecap
0 0 m
0 4 l
gsave
0.000 setgray
fill
grestore
stroke
grestore
} bind def
521.213 72.9 o
grestore
gsave
/o {
gsave
newpath
translate
0.5 setlinewidth
1 setlinejoin
0 setlinecap
0 0 m
0 -4 l
gsave
0.000 setgray
fill
grestore
stroke
grestore
} bind def
521.213 656.1 o
grestore
gsave
497.071875 53.696875 translate
0.000000 rotate
0.000000 0.000000 m /nine glyphshow
12.724609 0.000000 m /six glyphshow
25.449219 0.000000 m /zero glyphshow
38.173828 0.000000 m /zero glyphshow
grestore
gsave
/o {
gsave
newpath
translate
0.5 setlinewidth
1 setlinejoin
0 setlinecap
0 0 m
0 4 l
gsave
0.000 setgray
fill
grestore
stroke
grestore
} bind def
619.734 72.9 o
grestore
gsave
/o {
gsave
newpath
translate
0.5 setlinewidth
1 setlinejoin
0 setlinecap
0 0 m
0 -4 l
gsave
0.000 setgray
fill
grestore
stroke
grestore
} bind def
619.734 656.1 o
grestore
gsave
595.593750 53.696875 translate
0.000000 rotate
0.000000 0.000000 m /nine glyphshow
12.724609 0.000000 m /seven glyphshow
25.449219 0.000000 m /zero glyphshow
38.173828 0.000000 m /zero glyphshow
grestore
gsave
/o {
gsave
newpath
translate
0.5 setlinewidth
1 setlinejoin
0 setlinecap
0 0 m
0 4 l
gsave
0.000 setgray
fill
grestore
stroke
grestore
} bind def
718.256 72.9 o
grestore
gsave
/o {
gsave
newpath
translate
0.5 setlinewidth
1 setlinejoin
0 setlinecap
0 0 m
0 -4 l
gsave
0.000 setgray
fill
grestore
stroke
grestore
} bind def
718.256 656.1 o
grestore
gsave
694.115625 53.696875 translate
0.000000 rotate
0.000000 0.000000 m /nine glyphshow
12.724609 0.000000 m /eight glyphshow
25.449219 0.000000 m /zero glyphshow
38.173828 0.000000 m /zero glyphshow
grestore
gsave
/o {
gsave
newpath
translate
0.5 setlinewidth
1 setlinejoin
0 setlinecap
0 0 m
0 4 l
gsave
0.000 setgray
fill
grestore
stroke
grestore
} bind def
816.778 72.9 o
grestore
gsave
/o {
gsave
newpath
translate
0.5 setlinewidth
1 setlinejoin
0 setlinecap
0 0 m
0 -4 l
gsave
0.000 setgray
fill
grestore
stroke
grestore
} bind def
816.778 656.1 o
grestore
gsave
792.637500 53.696875 translate
0.000000 rotate
0.000000 0.000000 m /nine glyphshow
12.724609 0.000000 m /nine glyphshow
25.449219 0.000000 m /zero glyphshow
38.173828 0.000000 m /zero glyphshow
grestore
gsave
/o {
gsave
newpath
translate
0.5 setlinewidth
1 setlinejoin
0 setlinecap
0 0 m
0 4 l
gsave
0.000 setgray
fill
grestore
stroke
grestore
} bind def
915.3 72.9 o
grestore
gsave
/o {
gsave
newpath
translate
0.5 setlinewidth
1 setlinejoin
0 setlinecap
0 0 m
0 -4 l
gsave
0.000 setgray
fill
grestore
stroke
grestore
} bind def
915.3 656.1 o
grestore
gsave
885.268750 53.696875 translate
0.000000 rotate
0.000000 0.000000 m /one glyphshow
12.724609 0.000000 m /zero glyphshow
25.449219 0.000000 m /zero glyphshow
38.173828 0.000000 m /zero glyphshow
50.898438 0.000000 m /zero glyphshow
grestore
gsave
466.829688 29.337500 translate
0.000000 rotate
0.000000 0.000000 m /G glyphshow
15.498047 0.000000 m /e glyphshow
27.802734 0.000000 m /n glyphshow
40.478516 0.000000 m /e glyphshow
52.783203 0.000000 m /r glyphshow
61.005859 0.000000 m /a glyphshow
73.261719 0.000000 m /t glyphshow
81.103516 0.000000 m /i glyphshow
86.660156 0.000000 m /o glyphshow
98.896484 0.000000 m /n glyphshow
grestore
gsave
/o {
gsave
newpath
translate
0.5 setlinewidth
1 setlinejoin
0 setlinecap
0 0 m
4 0 l
gsave
0.000 setgray
fill
grestore
stroke
grestore
} bind def
127.125 72.9 o
grestore
gsave
/o {
gsave
newpath
translate
0.5 setlinewidth
1 setlinejoin
0 setlinecap
0 0 m
-4 0 l
gsave
0.000 setgray
fill
grestore
stroke
grestore
} bind def
915.3 72.9 o
grestore
gsave
113.046875 67.376562 translate
0.000000 rotate
0.000000 0.000000 m /zero glyphshow
grestore
gsave
/o {
gsave
newpath
translate
0.5 setlinewidth
1 setlinejoin
0 setlinecap
0 0 m
4 0 l
gsave
0.000 setgray
fill
grestore
stroke
grestore
} bind def
127.125 164.025 o
grestore
gsave
/o {
gsave
newpath
translate
0.5 setlinewidth
1 setlinejoin
0 setlinecap
0 0 m
-4 0 l
gsave
0.000 setgray
fill
grestore
stroke
grestore
} bind def
915.3 164.025 o
grestore
gsave
113.687500 158.501562 translate
0.000000 rotate
0.000000 0.000000 m /five glyphshow
grestore
gsave
/o {
gsave
newpath
translate
0.5 setlinewidth
1 setlinejoin
0 setlinecap
0 0 m
4 0 l
gsave
0.000 setgray
fill
grestore
stroke
grestore
} bind def
127.125 255.15 o
grestore
gsave
/o {
gsave
newpath
translate
0.5 setlinewidth
1 setlinejoin
0 setlinecap
0 0 m
-4 0 l
gsave
0.000 setgray
fill
grestore
stroke
grestore
} bind def
915.3 255.15 o
grestore
gsave
101.218750 249.626562 translate
0.000000 rotate
0.000000 0.000000 m /one glyphshow
12.724609 0.000000 m /zero glyphshow
grestore
gsave
/o {
gsave
newpath
translate
0.5 setlinewidth
1 setlinejoin
0 setlinecap
0 0 m
4 0 l
gsave
0.000 setgray
fill
grestore
stroke
grestore
} bind def
127.125 346.275 o
grestore
gsave
/o {
gsave
newpath
translate
0.5 setlinewidth
1 setlinejoin
0 setlinecap
0 0 m
-4 0 l
gsave
0.000 setgray
fill
grestore
stroke
grestore
} bind def
915.3 346.275 o
grestore
gsave
101.625000 340.751562 translate
0.000000 rotate
0.000000 0.000000 m /one glyphshow
12.724609 0.000000 m /five glyphshow
grestore
gsave
/o {
gsave
newpath
translate
0.5 setlinewidth
1 setlinejoin
0 setlinecap
0 0 m
4 0 l
gsave
0.000 setgray
fill
grestore
stroke
grestore
} bind def
127.125 437.4 o
grestore
gsave
/o {
gsave
newpath
translate
0.5 setlinewidth
1 setlinejoin
0 setlinecap
0 0 m
-4 0 l
gsave
0.000 setgray
fill
grestore
stroke
grestore
} bind def
915.3 437.4 o
grestore
gsave
100.484375 431.876562 translate
0.000000 rotate
0.000000 0.000000 m /two glyphshow
12.724609 0.000000 m /zero glyphshow
grestore
gsave
/o {
gsave
newpath
translate
0.5 setlinewidth
1 setlinejoin
0 setlinecap
0 0 m
4 0 l
gsave
0.000 setgray
fill
grestore
stroke
grestore
} bind def
127.125 528.525 o
grestore
gsave
/o {
gsave
newpath
translate
0.5 setlinewidth
1 setlinejoin
0 setlinecap
0 0 m
-4 0 l
gsave
0.000 setgray
fill
grestore
stroke
grestore
} bind def
915.3 528.525 o
grestore
gsave
100.890625 523.001563 translate
0.000000 rotate
0.000000 0.000000 m /two glyphshow
12.724609 0.000000 m /five glyphshow
grestore
gsave
/o {
gsave
newpath
translate
0.5 setlinewidth
1 setlinejoin
0 setlinecap
0 0 m
4 0 l
gsave
0.000 setgray
fill
grestore
stroke
grestore
} bind def
127.125 619.65 o
grestore
gsave
/o {
gsave
newpath
translate
0.5 setlinewidth
1 setlinejoin
0 setlinecap
0 0 m
-4 0 l
gsave
0.000 setgray
fill
grestore
stroke
grestore
} bind def
915.3 619.65 o
grestore
gsave
100.546875 614.126562 translate
0.000000 rotate
0.000000 0.000000 m /three glyphshow
12.724609 0.000000 m /zero glyphshow
grestore
gsave
91.328125 331.359375 translate
90.000000 rotate
0.000000 0.000000 m /F glyphshow
10.003906 0.000000 m /i glyphshow
15.560547 0.000000 m /t glyphshow
23.402344 0.000000 m /n glyphshow
36.078125 0.000000 m /e glyphshow
48.382812 0.000000 m /s glyphshow
58.802734 0.000000 m /s glyphshow
grestore
1.000 setlinewidth
gsave
127.125 656.1 m
915.3 656.1 l
stroke
grestore
gsave
915.3 72.9 m
915.3 656.1 l
stroke
grestore
gsave
127.125 72.9 m
915.3 72.9 l
stroke
grestore
gsave
127.125 72.9 m
127.125 656.1 l
stroke
grestore
gsave
700.197 84.9 m
903.3 84.9 l
903.3 162.569 l
700.197 162.569 l
700.197 84.9 l
cl
gsave
1.000 setgray
fill
grestore
stroke
grestore
2 setlinecap
gsave
716.997 143.134 m
750.597 143.134 l
stroke
grestore
/DejaVuSans findfont
24.000 scalefont
setfont
gsave
776.996875 134.734375 translate
0.000000 rotate
0.000000 0.000000 m /m glyphshow
23.378906 0.000000 m /a glyphshow
38.085938 0.000000 m /x glyphshow
52.289062 0.000000 m /i glyphshow
58.957031 0.000000 m /m glyphshow
82.335938 0.000000 m /u glyphshow
97.546875 0.000000 m /m glyphshow
grestore
0 setlinecap
[6 6] 0 setdash
gsave
716.997 107.9 m
750.597 107.9 l
stroke
grestore
gsave
776.996875 99.500000 translate
0.000000 rotate
0.000000 0.000000 m /a glyphshow
14.707031 0.000000 m /v glyphshow
28.910156 0.000000 m /e glyphshow
43.675781 0.000000 m /r glyphshow
53.542969 0.000000 m /a glyphshow
68.250000 0.000000 m /g glyphshow
83.484375 0.000000 m /e glyphshow
grestore

end
showpage
