%!PS-Adobe-3.0 EPSF-3.0
%%Title: /home/david/Documents/Research_Report/gfx/avoidance_grn_late.eps
%%Creator: matplotlib version 1.3.1, http://matplotlib.org/
%%CreationDate: Tue Aug 11 20:53:26 2015
%%Orientation: portrait
%%BoundingBox: -202 31 814 760
%%EndComments
%%BeginProlog
/mpldict 8 dict def
mpldict begin
/m { moveto } bind def
/l { lineto } bind def
/r { rlineto } bind def
/c { curveto } bind def
/cl { closepath } bind def
/box {
m
1 index 0 r
0 exch r
neg 0 r
cl
} bind def
/clipbox {
box
clip
newpath
} bind def
%!PS-Adobe-3.0 Resource-Font
%%Title: DejaVu Sans
%%Copyright: Copyright (c) 2003 by Bitstream, Inc. All Rights Reserved. Copyright (c) 2006 by Tavmjong Bah. All Rights Reserved. DejaVu changes are in public domain 
%%Creator: Converted from TrueType to type 3 by PPR
25 dict begin
/_d{bind def}bind def
/_m{moveto}_d
/_l{lineto}_d
/_cl{closepath eofill}_d
/_c{curveto}_d
/_sc{7 -1 roll{setcachedevice}{pop pop pop pop pop pop}ifelse}_d
/_e{exec}_d
/FontName /DejaVuSans def
/PaintType 0 def
/FontMatrix[.001 0 0 .001 0 0]def
/FontBBox[-1021 -415 1681 1167]def
/FontType 3 def
/Encoding [ /zero /one /two /three /four /five /six /seven /eight /nine /F /G /a /e /g /i /m /n /o /r /s /t /u /v /x ] def
/FontInfo 10 dict dup begin
/FamilyName (DejaVu Sans) def
/FullName (DejaVu Sans) def
/Notice (Copyright (c) 2003 by Bitstream, Inc. All Rights Reserved. Copyright (c) 2006 by Tavmjong Bah. All Rights Reserved. DejaVu changes are in public domain ) def
/Weight (Book) def
/Version (Version 2.34) def
/ItalicAngle 0.0 def
/isFixedPitch false def
/UnderlinePosition -130 def
/UnderlineThickness 90 def
end readonly def
/CharStrings 25 dict dup begin
/zero{636 0 66 -13 570 742 _sc
318 664 _m
267 664 229 639 203 589 _c
177 539 165 464 165 364 _c
165 264 177 189 203 139 _c
229 89 267 64 318 64 _c
369 64 407 89 433 139 _c
458 189 471 264 471 364 _c
471 464 458 539 433 589 _c
407 639 369 664 318 664 _c
318 742 _m
399 742 461 709 505 645 _c
548 580 570 486 570 364 _c
570 241 548 147 505 83 _c
461 19 399 -13 318 -13 _c
236 -13 173 19 130 83 _c
87 147 66 241 66 364 _c
66 486 87 580 130 645 _c
173 709 236 742 318 742 _c
_cl}_d
/one{636 0 110 0 544 729 _sc
124 83 _m
285 83 _l
285 639 _l
110 604 _l
110 694 _l
284 729 _l
383 729 _l
383 83 _l
544 83 _l
544 0 _l
124 0 _l
124 83 _l
_cl}_d
/two{{636 0 73 0 536 742 _sc
192 83 _m
536 83 _l
536 0 _l
73 0 _l
73 83 _l
110 121 161 173 226 239 _c
290 304 331 346 348 365 _c
380 400 402 430 414 455 _c
426 479 433 504 433 528 _c
433 566 419 598 392 622 _c
365 646 330 659 286 659 _c
255 659 222 653 188 643 _c
154 632 117 616 78 594 _c
78 694 _l
118 710 155 722 189 730 _c
223 738 255 742 284 742 _c
}_e{359 742 419 723 464 685 _c
509 647 532 597 532 534 _c
532 504 526 475 515 449 _c
504 422 484 390 454 354 _c
446 344 420 317 376 272 _c
332 227 271 164 192 83 _c
_cl}_e}_d
/three{{636 0 76 -13 556 742 _sc
406 393 _m
453 383 490 362 516 330 _c
542 298 556 258 556 212 _c
556 140 531 84 482 45 _c
432 6 362 -13 271 -13 _c
240 -13 208 -10 176 -4 _c
144 1 110 10 76 22 _c
76 117 _l
103 101 133 89 166 81 _c
198 73 232 69 268 69 _c
330 69 377 81 409 105 _c
441 129 458 165 458 212 _c
458 254 443 288 413 312 _c
383 336 341 349 287 349 _c
}_e{202 349 _l
202 430 _l
291 430 _l
339 430 376 439 402 459 _c
428 478 441 506 441 543 _c
441 580 427 609 401 629 _c
374 649 336 659 287 659 _c
260 659 231 656 200 650 _c
169 644 135 635 98 623 _c
98 711 _l
135 721 170 729 203 734 _c
235 739 266 742 296 742 _c
370 742 429 725 473 691 _c
517 657 539 611 539 553 _c
539 513 527 479 504 451 _c
481 423 448 403 406 393 _c
_cl}_e}_d
/four{636 0 49 0 580 729 _sc
378 643 _m
129 254 _l
378 254 _l
378 643 _l
352 729 _m
476 729 _l
476 254 _l
580 254 _l
580 172 _l
476 172 _l
476 0 _l
378 0 _l
378 172 _l
49 172 _l
49 267 _l
352 729 _l
_cl}_d
/five{{636 0 77 -13 549 729 _sc
108 729 _m
495 729 _l
495 646 _l
198 646 _l
198 467 _l
212 472 227 476 241 478 _c
255 480 270 482 284 482 _c
365 482 429 459 477 415 _c
525 370 549 310 549 234 _c
549 155 524 94 475 51 _c
426 8 357 -13 269 -13 _c
238 -13 207 -10 175 -6 _c
143 -1 111 6 77 17 _c
77 116 _l
106 100 136 88 168 80 _c
199 72 232 69 267 69 _c
}_e{323 69 368 83 401 113 _c
433 143 450 183 450 234 _c
450 284 433 324 401 354 _c
368 384 323 399 267 399 _c
241 399 214 396 188 390 _c
162 384 135 375 108 363 _c
108 729 _l
_cl}_e}_d
/six{{636 0 70 -13 573 742 _sc
330 404 _m
286 404 251 388 225 358 _c
199 328 186 286 186 234 _c
186 181 199 139 225 109 _c
251 79 286 64 330 64 _c
374 64 409 79 435 109 _c
461 139 474 181 474 234 _c
474 286 461 328 435 358 _c
409 388 374 404 330 404 _c
526 713 _m
526 623 _l
501 635 476 644 451 650 _c
425 656 400 659 376 659 _c
310 659 260 637 226 593 _c
}_e{192 549 172 482 168 394 _c
187 422 211 444 240 459 _c
269 474 301 482 336 482 _c
409 482 467 459 509 415 _c
551 371 573 310 573 234 _c
573 159 550 99 506 54 _c
462 9 403 -13 330 -13 _c
246 -13 181 19 137 83 _c
92 147 70 241 70 364 _c
70 479 97 571 152 639 _c
206 707 280 742 372 742 _c
396 742 421 739 447 735 _c
472 730 498 723 526 713 _c
_cl}_e}_d
/seven{636 0 82 0 551 729 _sc
82 729 _m
551 729 _l
551 687 _l
286 0 _l
183 0 _l
432 646 _l
82 646 _l
82 729 _l
_cl}_d
/eight{{636 0 68 -13 568 742 _sc
318 346 _m
271 346 234 333 207 308 _c
180 283 167 249 167 205 _c
167 161 180 126 207 101 _c
234 76 271 64 318 64 _c
364 64 401 76 428 102 _c
455 127 469 161 469 205 _c
469 249 455 283 429 308 _c
402 333 365 346 318 346 _c
219 388 _m
177 398 144 418 120 447 _c
96 476 85 511 85 553 _c
85 611 105 657 147 691 _c
188 725 245 742 318 742 _c
}_e{390 742 447 725 489 691 _c
530 657 551 611 551 553 _c
551 511 539 476 515 447 _c
491 418 459 398 417 388 _c
464 377 501 355 528 323 _c
554 291 568 251 568 205 _c
568 134 546 80 503 43 _c
459 5 398 -13 318 -13 _c
237 -13 175 5 132 43 _c
89 80 68 134 68 205 _c
68 251 81 291 108 323 _c
134 355 171 377 219 388 _c
183 544 _m
183 506 194 476 218 455 _c
}_e{242 434 275 424 318 424 _c
360 424 393 434 417 455 _c
441 476 453 506 453 544 _c
453 582 441 611 417 632 _c
393 653 360 664 318 664 _c
275 664 242 653 218 632 _c
194 611 183 582 183 544 _c
_cl}_e}_d
/nine{{636 0 63 -13 566 742 _sc
110 15 _m
110 105 _l
134 93 159 84 185 78 _c
210 72 235 69 260 69 _c
324 69 374 90 408 134 _c
442 178 462 244 468 334 _c
448 306 424 284 396 269 _c
367 254 335 247 300 247 _c
226 247 168 269 126 313 _c
84 357 63 417 63 494 _c
63 568 85 628 129 674 _c
173 719 232 742 306 742 _c
390 742 455 709 499 645 _c
543 580 566 486 566 364 _c
}_e{566 248 538 157 484 89 _c
429 21 356 -13 264 -13 _c
239 -13 214 -10 189 -6 _c
163 -2 137 5 110 15 _c
306 324 _m
350 324 385 339 411 369 _c
437 399 450 441 450 494 _c
450 546 437 588 411 618 _c
385 648 350 664 306 664 _c
262 664 227 648 201 618 _c
175 588 162 546 162 494 _c
162 441 175 399 201 369 _c
227 339 262 324 306 324 _c
_cl}_e}_d
/F{575 0 98 0 517 729 _sc
98 729 _m
517 729 _l
517 646 _l
197 646 _l
197 431 _l
486 431 _l
486 348 _l
197 348 _l
197 0 _l
98 0 _l
98 729 _l
_cl}_d
/G{{775 0 56 -13 693 742 _sc
595 104 _m
595 300 _l
434 300 _l
434 381 _l
693 381 _l
693 68 _l
655 40 613 20 567 7 _c
521 -6 472 -13 420 -13 _c
306 -13 216 20 152 86 _c
88 152 56 245 56 364 _c
56 482 88 575 152 642 _c
216 708 306 742 420 742 _c
467 742 512 736 555 724 _c
598 712 638 695 674 673 _c
674 568 _l
637 598 598 621 557 637 _c
516 653 473 661 428 661 _c
}_e{338 661 271 636 227 586 _c
182 536 160 462 160 364 _c
160 265 182 191 227 141 _c
271 91 338 67 428 67 _c
462 67 493 70 521 76 _c
549 82 573 91 595 104 _c
_cl}_e}_d
/a{{613 0 60 -13 522 560 _sc
343 275 _m
270 275 220 266 192 250 _c
164 233 150 205 150 165 _c
150 133 160 107 181 89 _c
202 70 231 61 267 61 _c
317 61 357 78 387 114 _c
417 149 432 196 432 255 _c
432 275 _l
343 275 _l
522 312 _m
522 0 _l
432 0 _l
432 83 _l
411 49 385 25 355 10 _c
325 -5 287 -13 243 -13 _c
187 -13 142 2 109 33 _c
76 64 60 106 60 159 _c
}_e{60 220 80 266 122 298 _c
163 329 224 345 306 345 _c
432 345 _l
432 354 _l
432 395 418 427 391 450 _c
364 472 326 484 277 484 _c
245 484 215 480 185 472 _c
155 464 127 453 100 439 _c
100 522 _l
132 534 164 544 195 550 _c
226 556 256 560 286 560 _c
365 560 424 539 463 498 _c
502 457 522 395 522 312 _c
_cl}_e}_d
/e{{615 0 55 -13 562 560 _sc
562 296 _m
562 252 _l
149 252 _l
153 190 171 142 205 110 _c
238 78 284 62 344 62 _c
378 62 412 66 444 74 _c
476 82 509 95 541 113 _c
541 28 _l
509 14 476 3 442 -3 _c
408 -9 373 -13 339 -13 _c
251 -13 182 12 131 62 _c
80 112 55 181 55 268 _c
55 357 79 428 127 481 _c
175 533 241 560 323 560 _c
397 560 455 536 498 489 _c
}_e{540 441 562 377 562 296 _c
472 322 _m
471 371 457 410 431 440 _c
404 469 368 484 324 484 _c
274 484 234 469 204 441 _c
174 413 156 373 152 322 _c
472 322 _l
_cl}_e}_d
/g{{635 0 55 -207 544 560 _sc
454 280 _m
454 344 440 395 414 431 _c
387 467 349 485 301 485 _c
253 485 215 467 188 431 _c
161 395 148 344 148 280 _c
148 215 161 165 188 129 _c
215 93 253 75 301 75 _c
349 75 387 93 414 129 _c
440 165 454 215 454 280 _c
544 68 _m
544 -24 523 -93 482 -139 _c
440 -184 377 -207 292 -207 _c
260 -207 231 -204 203 -200 _c
175 -195 147 -188 121 -178 _c
}_e{121 -91 _l
147 -105 173 -115 199 -122 _c
225 -129 251 -133 278 -133 _c
336 -133 380 -117 410 -87 _c
439 -56 454 -10 454 52 _c
454 96 _l
435 64 411 40 382 24 _c
353 8 319 0 279 0 _c
211 0 157 25 116 76 _c
75 127 55 195 55 280 _c
55 364 75 432 116 483 _c
157 534 211 560 279 560 _c
319 560 353 552 382 536 _c
411 520 435 496 454 464 _c
454 547 _l
544 547 _l
}_e{544 68 _l
_cl}_e}_d
/i{278 0 94 0 184 760 _sc
94 547 _m
184 547 _l
184 0 _l
94 0 _l
94 547 _l
94 760 _m
184 760 _l
184 646 _l
94 646 _l
94 760 _l
_cl}_d
/m{{974 0 91 0 889 560 _sc
520 442 _m
542 482 569 511 600 531 _c
631 550 668 560 711 560 _c
767 560 811 540 842 500 _c
873 460 889 403 889 330 _c
889 0 _l
799 0 _l
799 327 _l
799 379 789 418 771 444 _c
752 469 724 482 686 482 _c
639 482 602 466 575 435 _c
548 404 535 362 535 309 _c
535 0 _l
445 0 _l
445 327 _l
445 379 435 418 417 444 _c
398 469 369 482 331 482 _c
}_e{285 482 248 466 221 435 _c
194 404 181 362 181 309 _c
181 0 _l
91 0 _l
91 547 _l
181 547 _l
181 462 _l
201 495 226 520 255 536 _c
283 552 317 560 357 560 _c
397 560 430 550 458 530 _c
486 510 506 480 520 442 _c
_cl}_e}_d
/n{634 0 91 0 549 560 _sc
549 330 _m
549 0 _l
459 0 _l
459 327 _l
459 379 448 417 428 443 _c
408 469 378 482 338 482 _c
289 482 251 466 223 435 _c
195 404 181 362 181 309 _c
181 0 _l
91 0 _l
91 547 _l
181 547 _l
181 462 _l
202 494 227 519 257 535 _c
286 551 320 560 358 560 _c
420 560 468 540 500 501 _c
532 462 549 405 549 330 _c
_cl}_d
/o{612 0 55 -13 557 560 _sc
306 484 _m
258 484 220 465 192 427 _c
164 389 150 338 150 273 _c
150 207 163 156 191 118 _c
219 80 257 62 306 62 _c
354 62 392 80 420 118 _c
448 156 462 207 462 273 _c
462 337 448 389 420 427 _c
392 465 354 484 306 484 _c
306 560 _m
384 560 445 534 490 484 _c
534 433 557 363 557 273 _c
557 183 534 113 490 63 _c
445 12 384 -13 306 -13 _c
227 -13 165 12 121 63 _c
77 113 55 183 55 273 _c
55 363 77 433 121 484 _c
165 534 227 560 306 560 _c
_cl}_d
/r{411 0 91 0 411 560 _sc
411 463 _m
401 469 390 473 378 476 _c
366 478 353 480 339 480 _c
288 480 249 463 222 430 _c
194 397 181 350 181 288 _c
181 0 _l
91 0 _l
91 547 _l
181 547 _l
181 462 _l
199 495 224 520 254 536 _c
284 552 321 560 365 560 _c
371 560 378 559 386 559 _c
393 558 401 557 411 555 _c
411 463 _l
_cl}_d
/s{{521 0 54 -13 472 560 _sc
443 531 _m
443 446 _l
417 458 391 468 364 475 _c
336 481 308 485 279 485 _c
234 485 200 478 178 464 _c
156 450 145 430 145 403 _c
145 382 153 366 169 354 _c
185 342 217 330 265 320 _c
296 313 _l
360 299 405 279 432 255 _c
458 230 472 195 472 151 _c
472 100 452 60 412 31 _c
372 1 316 -13 246 -13 _c
216 -13 186 -10 154 -5 _c
}_e{122 0 89 8 54 20 _c
54 113 _l
87 95 120 82 152 74 _c
184 65 216 61 248 61 _c
290 61 323 68 346 82 _c
368 96 380 117 380 144 _c
380 168 371 187 355 200 _c
339 213 303 226 247 238 _c
216 245 _l
160 257 119 275 95 299 _c
70 323 58 356 58 399 _c
58 450 76 490 112 518 _c
148 546 200 560 268 560 _c
301 560 332 557 362 552 _c
391 547 418 540 443 531 _c
}_e{_cl}_e}_d
/t{392 0 27 0 368 702 _sc
183 702 _m
183 547 _l
368 547 _l
368 477 _l
183 477 _l
183 180 _l
183 135 189 106 201 94 _c
213 81 238 75 276 75 _c
368 75 _l
368 0 _l
276 0 _l
206 0 158 13 132 39 _c
106 65 93 112 93 180 _c
93 477 _l
27 477 _l
27 547 _l
93 547 _l
93 702 _l
183 702 _l
_cl}_d
/u{634 0 85 -13 543 560 _sc
85 216 _m
85 547 _l
175 547 _l
175 219 _l
175 167 185 129 205 103 _c
225 77 255 64 296 64 _c
344 64 383 79 411 110 _c
439 141 453 183 453 237 _c
453 547 _l
543 547 _l
543 0 _l
453 0 _l
453 84 _l
431 50 405 26 377 10 _c
348 -5 315 -13 277 -13 _c
214 -13 166 6 134 45 _c
101 83 85 140 85 216 _c
311 560 _m
311 560 _l
_cl}_d
/v{592 0 30 0 562 547 _sc
30 547 _m
125 547 _l
296 88 _l
467 547 _l
562 547 _l
357 0 _l
235 0 _l
30 547 _l
_cl}_d
/x{592 0 29 0 559 547 _sc
549 547 _m
351 281 _l
559 0 _l
453 0 _l
294 215 _l
135 0 _l
29 0 _l
241 286 _l
47 547 _l
153 547 _l
298 352 _l
443 547 _l
549 547 _l
_cl}_d
end readonly def

/BuildGlyph
 {exch begin
 CharStrings exch
 2 copy known not{pop /.notdef}if
 true 3 1 roll get exec
 end}_d

/BuildChar {
 1 index /Encoding get exch get
 1 index /BuildGlyph get exec
}_d

FontName currentdict end definefont pop
end
%%EndProlog
mpldict begin
-202.5 31.5 translate
1017 729 0 0 clipbox
gsave
0 0 m
1017 0 l
1017 729 l
0 729 l
cl
1.000 setgray
fill
grestore
gsave
127.125 72.9 m
915.3 72.9 l
915.3 656.1 l
127.125 656.1 l
cl
1.000 setgray
fill
grestore
1.000 setlinewidth
1 setlinejoin
2 setlinecap
[] 0 setdash
0.000 setgray
gsave
788.2 583.2 127.1 72.9 clipbox
126.14 590.264 m
127.125 355.896 l
128.11 357.305 l
129.095 359.208 l
130.081 359.933 l
131.066 360.504 l
132.051 361.532 l
134.022 363.213 l
135.992 364.038 l
137.962 364.845 l
139.933 365.886 l
154.711 368.26 l
156.682 368.449 l
157.667 368.717 l
162.593 369.152 l
163.578 369.212 l
165.549 369.534 l
170.475 369.709 l
173.43 369.872 l
191.164 370.45 l
195.105 370.549 l
198.061 370.616 l
209.883 370.833 l
214.809 370.865 l
227.617 371.009 l
233.529 371.099 l
237.47 371.201 l
242.396 371.243 l
257.174 371.351 l
267.026 371.454 l
276.878 371.562 l
298.553 371.718 l
311.361 371.805 l
313.331 371.959 l
323.184 372.006 l
324.169 581.038 l
325.154 582.02 l
326.139 583.677 l
327.124 584.452 l
328.11 585.034 l
330.08 585.653 l
331.065 585.749 l
332.051 586.014 l
334.021 586.215 l
336.977 586.589 l
339.932 586.927 l
343.873 587.256 l
344.858 587.387 l
345.844 587.663 l
351.755 588.356 l
353.725 588.558 l
364.563 588.977 l
375.4 589.332 l
385.252 589.529 l
398.06 589.623 l
404.957 589.683 l
490.671 589.869 l
520.227 589.914 l
521.213 358.594 l
522.198 359.293 l
523.183 360.235 l
524.168 361.427 l
525.153 362.346 l
526.139 362.697 l
527.124 363.28 l
529.094 363.83 l
532.05 364.57 l
533.035 365.095 l
535.006 365.75 l
535.991 366.116 l
539.932 366.974 l
540.917 367.397 l
542.887 367.784 l
545.843 368.093 l
547.813 368.565 l
552.74 368.963 l
556.68 369.324 l
558.651 369.488 l
564.562 369.825 l
584.267 370.522 l
589.193 370.657 l
621.705 371.379 l
696.581 371.884 l
717.271 371.963 l
718.256 582.318 l
719.241 582.597 l
724.168 585.239 l
730.079 586.468 l
735.99 587.413 l
736.975 587.45 l
738.946 587.754 l
741.901 587.987 l
746.828 588.308 l
748.798 588.484 l
752.739 588.596 l
758.65 588.886 l
762.591 588.965 l
766.532 589.036 l
770.473 589.176 l
805.941 589.609 l
827.616 589.698 l
831.556 589.747 l
863.083 589.866 l
902.492 590.041 l
914.315 590.131 l
914.315 590.131 l
stroke
grestore
0 setlinecap
[6 6] 0 setdash
gsave
788.2 583.2 127.1 72.9 clipbox
126.14 550.647 m
127.125 119.251 l
128.11 122.005 l
129.095 125.201 l
130.081 129.18 l
131.066 134.017 l
132.051 139.706 l
133.036 146.209 l
134.022 153.732 l
135.992 171.608 l
137.962 193.064 l
143.874 263.017 l
145.844 282.739 l
147.815 298.826 l
148.8 305.581 l
149.785 311.214 l
151.755 320.466 l
152.741 324.31 l
153.726 327.316 l
155.696 332.033 l
156.682 334.066 l
157.667 335.594 l
160.622 339.22 l
163.578 341.98 l
164.563 342.474 l
165.549 343.188 l
167.519 344.217 l
169.489 345.093 l
172.445 346.328 l
177.371 347.079 l
179.342 347.196 l
181.312 347.645 l
184.268 348.131 l
185.253 347.995 l
188.209 348.43 l
190.179 348.621 l
191.164 348.623 l
193.135 349.059 l
196.09 349.36 l
197.076 349.261 l
198.061 349.413 l
199.046 349.746 l
200.031 349.765 l
202.002 349.667 l
205.943 350.158 l
206.928 350.367 l
207.913 350.419 l
209.883 350.244 l
210.869 350.025 l
212.839 350.364 l
214.809 350.238 l
216.78 350.403 l
217.765 350.18 l
218.75 350.241 l
220.721 350.155 l
221.706 350.205 l
223.676 350.576 l
225.647 350.806 l
227.617 351.263 l
228.603 351.266 l
229.588 350.912 l
232.543 351.195 l
235.499 350.892 l
236.484 350.982 l
237.47 350.787 l
239.44 351.298 l
240.425 351.215 l
241.41 351.478 l
244.366 351.155 l
245.351 351.204 l
246.336 351.432 l
247.322 351.301 l
248.307 351.283 l
249.292 350.993 l
252.248 351.509 l
254.218 351.19 l
255.203 351.209 l
256.189 351.514 l
257.174 351.181 l
259.144 350.835 l
260.13 350.936 l
261.115 350.905 l
265.056 351.311 l
266.041 351.373 l
267.026 351.257 l
268.997 351.361 l
270.967 351.189 l
271.952 351.649 l
272.937 351.312 l
273.923 351.176 l
274.908 351.45 l
275.893 351.339 l
277.863 351.707 l
278.849 351.656 l
279.834 351.378 l
280.819 351.287 l
284.76 351.456 l
286.73 351.34 l
287.716 351.106 l
289.686 351.379 l
293.627 351.497 l
294.612 351.691 l
295.597 351.734 l
296.583 351.659 l
300.524 352.04 l
301.509 351.963 l
302.494 352.24 l
303.479 352.041 l
306.435 351.946 l
307.42 351.992 l
308.405 351.918 l
311.361 352.076 l
312.346 352.062 l
313.331 351.805 l
318.257 351.726 l
320.228 351.936 l
321.213 351.73 l
322.198 352.092 l
323.184 352.152 l
324.169 149.98 l
325.154 156.141 l
326.139 163.465 l
327.124 172.171 l
328.11 182.544 l
329.095 194.906 l
330.08 208.708 l
332.051 242.461 l
334.021 281.574 l
336.977 346.791 l
338.947 389.576 l
340.917 427.793 l
342.888 459.267 l
344.858 484.577 l
345.844 494.538 l
346.829 503.285 l
347.814 510.73 l
348.799 517.03 l
349.784 522.553 l
350.77 527.246 l
351.755 530.517 l
354.711 538.781 l
356.681 541.714 l
357.666 542.758 l
358.651 543.476 l
359.637 544.829 l
361.607 546.159 l
362.592 546.338 l
363.578 546.812 l
365.548 547.298 l
366.533 548.16 l
367.518 547.738 l
368.504 548.144 l
369.489 547.917 l
372.444 548.651 l
373.43 549.004 l
374.415 548.991 l
375.4 549.121 l
376.385 548.933 l
377.371 549.387 l
378.356 549.695 l
379.341 549.511 l
380.326 549.627 l
381.311 549.461 l
384.267 550.127 l
385.252 549.881 l
387.223 550.298 l
388.208 550.563 l
389.193 550.376 l
390.178 550.49 l
391.164 550.374 l
393.134 551.093 l
394.119 550.874 l
397.075 551.116 l
398.06 551.239 l
399.045 551.073 l
400.031 551.285 l
401.016 551.382 l
402.001 551.109 l
402.986 551.011 l
403.971 551.245 l
404.957 551.192 l
406.927 550.744 l
407.912 550.796 l
408.898 550.526 l
409.883 550.583 l
410.868 550.932 l
411.853 551.116 l
412.838 551.748 l
413.824 551.787 l
414.809 551.55 l
415.794 551.935 l
417.765 551.556 l
420.72 550.816 l
422.691 550.621 l
423.676 550.203 l
424.661 550.692 l
425.646 550.527 l
426.632 550.852 l
427.617 551.581 l
428.602 551.5 l
429.587 551.127 l
430.572 551.236 l
431.558 550.916 l
432.543 550.924 l
433.528 550.788 l
434.513 551.292 l
435.498 551.361 l
436.484 551.046 l
437.469 551.217 l
438.454 550.958 l
439.439 550.962 l
440.425 551.567 l
441.41 551.671 l
446.336 551.552 l
447.321 551.623 l
448.306 551.536 l
449.292 551.656 l
451.262 551.423 l
452.247 551.198 l
453.232 551.246 l
454.218 551.427 l
455.203 551.476 l
456.188 551.746 l
457.173 551.421 l
459.144 551.397 l
461.114 551.599 l
462.099 551.536 l
463.085 551.28 l
465.055 551.974 l
466.04 551.608 l
467.025 551.829 l
468.011 551.521 l
468.996 550.996 l
469.981 550.69 l
470.966 550.596 l
471.952 551.077 l
472.937 551.041 l
473.922 551.33 l
475.892 551.121 l
476.878 550.969 l
477.863 551.029 l
480.819 550.366 l
482.789 550.631 l
483.774 550.457 l
484.759 550.439 l
485.745 550.831 l
486.73 550.963 l
487.715 551.233 l
488.7 551.76 l
489.686 551.828 l
490.671 552.086 l
493.626 551.692 l
494.612 551.853 l
495.597 551.868 l
496.582 551.692 l
497.567 551.886 l
498.552 551.864 l
499.538 551.463 l
500.523 551.358 l
501.508 551.675 l
504.464 551.218 l
505.449 551.462 l
506.434 550.903 l
507.419 550.897 l
508.405 550.755 l
509.39 550.982 l
510.375 550.618 l
512.346 550.998 l
513.331 551.167 l
514.316 551.18 l
515.301 551.59 l
517.272 551.091 l
518.257 551.46 l
520.227 551.531 l
521.213 115.72 l
522.198 118.507 l
523.183 121.754 l
524.168 125.865 l
525.153 130.609 l
526.139 136.222 l
527.124 142.704 l
528.109 150.096 l
529.094 158.501 l
531.065 178.347 l
533.035 201.068 l
537.961 260.87 l
539.932 281.49 l
540.917 290.394 l
541.902 298.217 l
543.873 311.564 l
545.843 321.206 l
547.813 328.058 l
548.799 331.028 l
549.784 333.299 l
551.754 336.847 l
553.725 339.533 l
555.695 341.301 l
556.68 342.126 l
557.666 342.724 l
558.651 343.544 l
559.636 344.049 l
560.621 344.72 l
563.577 345.759 l
564.562 346.072 l
565.547 346.241 l
566.533 346.643 l
568.503 347.012 l
569.488 347.361 l
573.429 347.759 l
574.414 348.08 l
576.385 348.174 l
577.37 348.549 l
578.355 348.608 l
579.34 348.792 l
581.311 348.875 l
583.281 349.464 l
587.222 350.096 l
588.207 350.083 l
590.178 350.474 l
591.163 350.494 l
594.119 350.957 l
597.074 350.684 l
599.045 350.825 l
600.03 350.636 l
601.015 350.617 l
602 350.756 l
602.986 350.651 l
603.971 350.841 l
604.956 350.63 l
605.941 350.831 l
606.927 350.837 l
607.912 351.177 l
608.897 351.136 l
610.867 351.251 l
611.853 351.234 l
613.823 351.497 l
614.808 351.351 l
616.779 351.845 l
617.764 351.653 l
620.72 351.923 l
622.69 351.618 l
623.675 351.504 l
624.66 351.703 l
626.631 351.636 l
632.542 351.633 l
633.527 351.331 l
634.513 351.462 l
635.498 351.795 l
636.483 351.681 l
640.424 352.062 l
641.409 352.145 l
642.394 351.971 l
643.38 352.138 l
644.365 352.153 l
646.335 351.916 l
649.291 352.208 l
650.276 352.09 l
653.232 352.131 l
654.217 352.344 l
655.202 352.268 l
656.187 352.329 l
657.173 352.561 l
658.158 352.665 l
659.143 352.433 l
660.128 352.611 l
661.114 352.537 l
662.099 352.611 l
663.084 352.36 l
664.069 352.495 l
667.025 352.267 l
668.01 352.42 l
669.981 352.228 l
671.951 352.354 l
672.936 352.552 l
673.921 352.403 l
674.907 352.648 l
676.877 352.511 l
677.862 352.805 l
678.847 352.887 l
679.833 352.716 l
684.759 353.094 l
687.714 352.523 l
688.7 352.69 l
690.67 352.543 l
691.655 352.761 l
692.641 352.71 l
693.626 352.953 l
694.611 353.019 l
695.596 352.857 l
698.552 352.776 l
699.537 352.897 l
700.522 352.725 l
703.478 352.725 l
704.463 352.518 l
705.448 352.521 l
706.434 352.308 l
707.419 352.355 l
708.404 352.593 l
709.389 352.6 l
711.36 352.952 l
712.345 352.929 l
713.33 353.119 l
714.315 353.189 l
715.301 353.046 l
717.271 353.147 l
718.256 149.558 l
719.241 155.211 l
720.227 162.516 l
721.212 171.098 l
722.197 181.332 l
723.182 193.297 l
724.168 207.275 l
726.138 240.885 l
728.108 280.418 l
734.02 409.406 l
735.99 444.851 l
737.961 473.873 l
738.946 485.975 l
740.916 504.87 l
741.901 512.587 l
742.887 519.247 l
744.857 529.071 l
745.842 532.711 l
746.828 535.777 l
747.813 538.208 l
748.798 540.293 l
749.783 541.988 l
750.768 543.282 l
752.739 545.328 l
753.724 545.682 l
754.709 546.605 l
755.695 546.694 l
756.68 547.417 l
757.665 547.969 l
758.65 548.343 l
759.635 548.96 l
760.621 548.926 l
761.606 549.066 l
762.591 548.978 l
763.576 549.18 l
764.562 549.187 l
767.517 549.936 l
768.502 550.236 l
769.488 550.167 l
770.473 550.34 l
772.443 550.404 l
775.399 550.075 l
776.384 550.346 l
777.369 550.471 l
779.34 550.37 l
780.325 550.825 l
781.31 551.144 l
782.295 551.123 l
783.281 551.435 l
784.266 551.299 l
786.236 551.392 l
787.222 551.339 l
788.207 551.094 l
789.192 551.345 l
794.118 551.308 l
795.103 551.612 l
797.074 551.92 l
798.059 551.874 l
799.044 551.574 l
800.029 551.726 l
802 551.701 l
802.985 551.67 l
803.97 551.364 l
804.956 551.844 l
805.941 551.724 l
806.926 551.855 l
808.896 551.681 l
809.882 551.723 l
810.867 551.571 l
811.852 551.71 l
812.837 551.495 l
813.822 551.475 l
814.808 551.643 l
815.793 551.685 l
817.763 552.133 l
818.749 551.87 l
819.734 551.886 l
820.719 552.124 l
821.704 552.043 l
822.689 551.657 l
823.675 551.807 l
824.66 551.271 l
825.645 550.963 l
828.601 551.701 l
829.586 551.257 l
830.571 551.676 l
836.483 551.942 l
837.468 551.676 l
838.453 551.693 l
839.438 552.025 l
840.423 552.193 l
841.409 551.806 l
842.394 551.549 l
843.379 551.567 l
844.364 551.801 l
845.349 551.443 l
846.335 551.42 l
847.32 551.869 l
849.29 552.083 l
850.276 551.902 l
852.246 552.269 l
855.202 552.024 l
856.187 551.555 l
857.172 551.495 l
858.157 551.322 l
859.143 551.667 l
860.128 552.237 l
861.113 551.764 l
862.098 551.765 l
864.069 552.025 l
865.054 551.671 l
867.024 552.26 l
868.01 551.986 l
868.995 551.866 l
869.98 552.073 l
870.965 551.691 l
871.95 551.586 l
872.936 551.226 l
873.921 550.99 l
874.906 551.425 l
875.891 551.408 l
877.862 551.201 l
882.788 552.028 l
883.773 552.353 l
885.743 552.052 l
886.729 552.228 l
887.714 551.992 l
888.699 552.18 l
889.684 552.11 l
890.67 552.597 l
891.655 552.275 l
892.64 552.164 l
893.625 551.809 l
894.61 551.855 l
895.596 551.661 l
896.581 551.677 l
897.566 551.505 l
898.551 552.224 l
899.537 551.81 l
900.522 551.78 l
901.507 552.212 l
902.492 552.142 l
904.463 552.78 l
905.448 552.926 l
907.418 552.454 l
908.403 552.697 l
909.389 552.348 l
910.374 552.505 l
912.344 552.456 l
913.33 552.234 l
914.315 552.469 l
914.315 552.469 l
stroke
grestore
0.500 setlinewidth
[] 0 setdash
gsave
/o {
gsave
newpath
translate
0.5 setlinewidth
1 setlinejoin
0 setlinecap
0 0 m
0 4 l
gsave
0.000 setgray
fill
grestore
stroke
grestore
} bind def
127.125 72.9 o
grestore
gsave
/o {
gsave
newpath
translate
0.5 setlinewidth
1 setlinejoin
0 setlinecap
0 0 m
0 -4 l
gsave
0.000 setgray
fill
grestore
stroke
grestore
} bind def
127.125 656.1 o
grestore
/DejaVuSans findfont
20.000 scalefont
setfont
gsave
102.984375 53.696875 translate
0.000000 rotate
0.000000 0.000000 m /nine glyphshow
12.724609 0.000000 m /two glyphshow
25.449219 0.000000 m /zero glyphshow
38.173828 0.000000 m /zero glyphshow
grestore
gsave
/o {
gsave
newpath
translate
0.5 setlinewidth
1 setlinejoin
0 setlinecap
0 0 m
0 4 l
gsave
0.000 setgray
fill
grestore
stroke
grestore
} bind def
225.647 72.9 o
grestore
gsave
/o {
gsave
newpath
translate
0.5 setlinewidth
1 setlinejoin
0 setlinecap
0 0 m
0 -4 l
gsave
0.000 setgray
fill
grestore
stroke
grestore
} bind def
225.647 656.1 o
grestore
gsave
201.506250 53.696875 translate
0.000000 rotate
0.000000 0.000000 m /nine glyphshow
12.724609 0.000000 m /three glyphshow
25.449219 0.000000 m /zero glyphshow
38.173828 0.000000 m /zero glyphshow
grestore
gsave
/o {
gsave
newpath
translate
0.5 setlinewidth
1 setlinejoin
0 setlinecap
0 0 m
0 4 l
gsave
0.000 setgray
fill
grestore
stroke
grestore
} bind def
324.169 72.9 o
grestore
gsave
/o {
gsave
newpath
translate
0.5 setlinewidth
1 setlinejoin
0 setlinecap
0 0 m
0 -4 l
gsave
0.000 setgray
fill
grestore
stroke
grestore
} bind def
324.169 656.1 o
grestore
gsave
300.028125 53.696875 translate
0.000000 rotate
0.000000 0.000000 m /nine glyphshow
12.724609 0.000000 m /four glyphshow
25.449219 0.000000 m /zero glyphshow
38.173828 0.000000 m /zero glyphshow
grestore
gsave
/o {
gsave
newpath
translate
0.5 setlinewidth
1 setlinejoin
0 setlinecap
0 0 m
0 4 l
gsave
0.000 setgray
fill
grestore
stroke
grestore
} bind def
422.691 72.9 o
grestore
gsave
/o {
gsave
newpath
translate
0.5 setlinewidth
1 setlinejoin
0 setlinecap
0 0 m
0 -4 l
gsave
0.000 setgray
fill
grestore
stroke
grestore
} bind def
422.691 656.1 o
grestore
gsave
398.550000 53.696875 translate
0.000000 rotate
0.000000 0.000000 m /nine glyphshow
12.724609 0.000000 m /five glyphshow
25.449219 0.000000 m /zero glyphshow
38.173828 0.000000 m /zero glyphshow
grestore
gsave
/o {
gsave
newpath
translate
0.5 setlinewidth
1 setlinejoin
0 setlinecap
0 0 m
0 4 l
gsave
0.000 setgray
fill
grestore
stroke
grestore
} bind def
521.213 72.9 o
grestore
gsave
/o {
gsave
newpath
translate
0.5 setlinewidth
1 setlinejoin
0 setlinecap
0 0 m
0 -4 l
gsave
0.000 setgray
fill
grestore
stroke
grestore
} bind def
521.213 656.1 o
grestore
gsave
497.071875 53.696875 translate
0.000000 rotate
0.000000 0.000000 m /nine glyphshow
12.724609 0.000000 m /six glyphshow
25.449219 0.000000 m /zero glyphshow
38.173828 0.000000 m /zero glyphshow
grestore
gsave
/o {
gsave
newpath
translate
0.5 setlinewidth
1 setlinejoin
0 setlinecap
0 0 m
0 4 l
gsave
0.000 setgray
fill
grestore
stroke
grestore
} bind def
619.734 72.9 o
grestore
gsave
/o {
gsave
newpath
translate
0.5 setlinewidth
1 setlinejoin
0 setlinecap
0 0 m
0 -4 l
gsave
0.000 setgray
fill
grestore
stroke
grestore
} bind def
619.734 656.1 o
grestore
gsave
595.593750 53.696875 translate
0.000000 rotate
0.000000 0.000000 m /nine glyphshow
12.724609 0.000000 m /seven glyphshow
25.449219 0.000000 m /zero glyphshow
38.173828 0.000000 m /zero glyphshow
grestore
gsave
/o {
gsave
newpath
translate
0.5 setlinewidth
1 setlinejoin
0 setlinecap
0 0 m
0 4 l
gsave
0.000 setgray
fill
grestore
stroke
grestore
} bind def
718.256 72.9 o
grestore
gsave
/o {
gsave
newpath
translate
0.5 setlinewidth
1 setlinejoin
0 setlinecap
0 0 m
0 -4 l
gsave
0.000 setgray
fill
grestore
stroke
grestore
} bind def
718.256 656.1 o
grestore
gsave
694.115625 53.696875 translate
0.000000 rotate
0.000000 0.000000 m /nine glyphshow
12.724609 0.000000 m /eight glyphshow
25.449219 0.000000 m /zero glyphshow
38.173828 0.000000 m /zero glyphshow
grestore
gsave
/o {
gsave
newpath
translate
0.5 setlinewidth
1 setlinejoin
0 setlinecap
0 0 m
0 4 l
gsave
0.000 setgray
fill
grestore
stroke
grestore
} bind def
816.778 72.9 o
grestore
gsave
/o {
gsave
newpath
translate
0.5 setlinewidth
1 setlinejoin
0 setlinecap
0 0 m
0 -4 l
gsave
0.000 setgray
fill
grestore
stroke
grestore
} bind def
816.778 656.1 o
grestore
gsave
792.637500 53.696875 translate
0.000000 rotate
0.000000 0.000000 m /nine glyphshow
12.724609 0.000000 m /nine glyphshow
25.449219 0.000000 m /zero glyphshow
38.173828 0.000000 m /zero glyphshow
grestore
gsave
/o {
gsave
newpath
translate
0.5 setlinewidth
1 setlinejoin
0 setlinecap
0 0 m
0 4 l
gsave
0.000 setgray
fill
grestore
stroke
grestore
} bind def
915.3 72.9 o
grestore
gsave
/o {
gsave
newpath
translate
0.5 setlinewidth
1 setlinejoin
0 setlinecap
0 0 m
0 -4 l
gsave
0.000 setgray
fill
grestore
stroke
grestore
} bind def
915.3 656.1 o
grestore
gsave
885.268750 53.696875 translate
0.000000 rotate
0.000000 0.000000 m /one glyphshow
12.724609 0.000000 m /zero glyphshow
25.449219 0.000000 m /zero glyphshow
38.173828 0.000000 m /zero glyphshow
50.898438 0.000000 m /zero glyphshow
grestore
gsave
466.829688 29.337500 translate
0.000000 rotate
0.000000 0.000000 m /G glyphshow
15.498047 0.000000 m /e glyphshow
27.802734 0.000000 m /n glyphshow
40.478516 0.000000 m /e glyphshow
52.783203 0.000000 m /r glyphshow
61.005859 0.000000 m /a glyphshow
73.261719 0.000000 m /t glyphshow
81.103516 0.000000 m /i glyphshow
86.660156 0.000000 m /o glyphshow
98.896484 0.000000 m /n glyphshow
grestore
gsave
/o {
gsave
newpath
translate
0.5 setlinewidth
1 setlinejoin
0 setlinecap
0 0 m
4 0 l
gsave
0.000 setgray
fill
grestore
stroke
grestore
} bind def
127.125 72.9 o
grestore
gsave
/o {
gsave
newpath
translate
0.5 setlinewidth
1 setlinejoin
0 setlinecap
0 0 m
-4 0 l
gsave
0.000 setgray
fill
grestore
stroke
grestore
} bind def
915.3 72.9 o
grestore
gsave
113.046875 67.376562 translate
0.000000 rotate
0.000000 0.000000 m /zero glyphshow
grestore
gsave
/o {
gsave
newpath
translate
0.5 setlinewidth
1 setlinejoin
0 setlinecap
0 0 m
4 0 l
gsave
0.000 setgray
fill
grestore
stroke
grestore
} bind def
127.125 164.025 o
grestore
gsave
/o {
gsave
newpath
translate
0.5 setlinewidth
1 setlinejoin
0 setlinecap
0 0 m
-4 0 l
gsave
0.000 setgray
fill
grestore
stroke
grestore
} bind def
915.3 164.025 o
grestore
gsave
113.687500 158.501562 translate
0.000000 rotate
0.000000 0.000000 m /five glyphshow
grestore
gsave
/o {
gsave
newpath
translate
0.5 setlinewidth
1 setlinejoin
0 setlinecap
0 0 m
4 0 l
gsave
0.000 setgray
fill
grestore
stroke
grestore
} bind def
127.125 255.15 o
grestore
gsave
/o {
gsave
newpath
translate
0.5 setlinewidth
1 setlinejoin
0 setlinecap
0 0 m
-4 0 l
gsave
0.000 setgray
fill
grestore
stroke
grestore
} bind def
915.3 255.15 o
grestore
gsave
101.218750 249.626562 translate
0.000000 rotate
0.000000 0.000000 m /one glyphshow
12.724609 0.000000 m /zero glyphshow
grestore
gsave
/o {
gsave
newpath
translate
0.5 setlinewidth
1 setlinejoin
0 setlinecap
0 0 m
4 0 l
gsave
0.000 setgray
fill
grestore
stroke
grestore
} bind def
127.125 346.275 o
grestore
gsave
/o {
gsave
newpath
translate
0.5 setlinewidth
1 setlinejoin
0 setlinecap
0 0 m
-4 0 l
gsave
0.000 setgray
fill
grestore
stroke
grestore
} bind def
915.3 346.275 o
grestore
gsave
101.625000 340.751562 translate
0.000000 rotate
0.000000 0.000000 m /one glyphshow
12.724609 0.000000 m /five glyphshow
grestore
gsave
/o {
gsave
newpath
translate
0.5 setlinewidth
1 setlinejoin
0 setlinecap
0 0 m
4 0 l
gsave
0.000 setgray
fill
grestore
stroke
grestore
} bind def
127.125 437.4 o
grestore
gsave
/o {
gsave
newpath
translate
0.5 setlinewidth
1 setlinejoin
0 setlinecap
0 0 m
-4 0 l
gsave
0.000 setgray
fill
grestore
stroke
grestore
} bind def
915.3 437.4 o
grestore
gsave
100.484375 431.876562 translate
0.000000 rotate
0.000000 0.000000 m /two glyphshow
12.724609 0.000000 m /zero glyphshow
grestore
gsave
/o {
gsave
newpath
translate
0.5 setlinewidth
1 setlinejoin
0 setlinecap
0 0 m
4 0 l
gsave
0.000 setgray
fill
grestore
stroke
grestore
} bind def
127.125 528.525 o
grestore
gsave
/o {
gsave
newpath
translate
0.5 setlinewidth
1 setlinejoin
0 setlinecap
0 0 m
-4 0 l
gsave
0.000 setgray
fill
grestore
stroke
grestore
} bind def
915.3 528.525 o
grestore
gsave
100.890625 523.001563 translate
0.000000 rotate
0.000000 0.000000 m /two glyphshow
12.724609 0.000000 m /five glyphshow
grestore
gsave
/o {
gsave
newpath
translate
0.5 setlinewidth
1 setlinejoin
0 setlinecap
0 0 m
4 0 l
gsave
0.000 setgray
fill
grestore
stroke
grestore
} bind def
127.125 619.65 o
grestore
gsave
/o {
gsave
newpath
translate
0.5 setlinewidth
1 setlinejoin
0 setlinecap
0 0 m
-4 0 l
gsave
0.000 setgray
fill
grestore
stroke
grestore
} bind def
915.3 619.65 o
grestore
gsave
100.546875 614.126562 translate
0.000000 rotate
0.000000 0.000000 m /three glyphshow
12.724609 0.000000 m /zero glyphshow
grestore
gsave
91.328125 331.359375 translate
90.000000 rotate
0.000000 0.000000 m /F glyphshow
10.003906 0.000000 m /i glyphshow
15.560547 0.000000 m /t glyphshow
23.402344 0.000000 m /n glyphshow
36.078125 0.000000 m /e glyphshow
48.382812 0.000000 m /s glyphshow
58.802734 0.000000 m /s glyphshow
grestore
1.000 setlinewidth
gsave
127.125 656.1 m
915.3 656.1 l
stroke
grestore
gsave
915.3 72.9 m
915.3 656.1 l
stroke
grestore
gsave
127.125 72.9 m
915.3 72.9 l
stroke
grestore
gsave
127.125 72.9 m
127.125 656.1 l
stroke
grestore
gsave
700.197 84.9 m
903.3 84.9 l
903.3 162.569 l
700.197 162.569 l
700.197 84.9 l
cl
gsave
1.000 setgray
fill
grestore
stroke
grestore
2 setlinecap
gsave
716.997 143.134 m
750.597 143.134 l
stroke
grestore
/DejaVuSans findfont
24.000 scalefont
setfont
gsave
776.996875 134.734375 translate
0.000000 rotate
0.000000 0.000000 m /m glyphshow
23.378906 0.000000 m /a glyphshow
38.085938 0.000000 m /x glyphshow
52.289062 0.000000 m /i glyphshow
58.957031 0.000000 m /m glyphshow
82.335938 0.000000 m /u glyphshow
97.546875 0.000000 m /m glyphshow
grestore
0 setlinecap
[6 6] 0 setdash
gsave
716.997 107.9 m
750.597 107.9 l
stroke
grestore
gsave
776.996875 99.500000 translate
0.000000 rotate
0.000000 0.000000 m /a glyphshow
14.707031 0.000000 m /v glyphshow
28.910156 0.000000 m /e glyphshow
43.675781 0.000000 m /r glyphshow
53.542969 0.000000 m /a glyphshow
68.250000 0.000000 m /g glyphshow
83.484375 0.000000 m /e glyphshow
grestore

end
showpage
