%!PS-Adobe-3.0 EPSF-3.0
%%Title: /home/david/Documents/Research_Report/gfx/avoidance_ga_early.eps
%%Creator: matplotlib version 1.3.1, http://matplotlib.org/
%%CreationDate: Tue Aug 11 20:54:50 2015
%%Orientation: portrait
%%BoundingBox: -202 31 814 760
%%EndComments
%%BeginProlog
/mpldict 8 dict def
mpldict begin
/m { moveto } bind def
/l { lineto } bind def
/r { rlineto } bind def
/c { curveto } bind def
/cl { closepath } bind def
/box {
m
1 index 0 r
0 exch r
neg 0 r
cl
} bind def
/clipbox {
box
clip
newpath
} bind def
%!PS-Adobe-3.0 Resource-Font
%%Title: DejaVu Sans
%%Copyright: Copyright (c) 2003 by Bitstream, Inc. All Rights Reserved. Copyright (c) 2006 by Tavmjong Bah. All Rights Reserved. DejaVu changes are in public domain 
%%Creator: Converted from TrueType to type 3 by PPR
25 dict begin
/_d{bind def}bind def
/_m{moveto}_d
/_l{lineto}_d
/_cl{closepath eofill}_d
/_c{curveto}_d
/_sc{7 -1 roll{setcachedevice}{pop pop pop pop pop pop}ifelse}_d
/_e{exec}_d
/FontName /DejaVuSans def
/PaintType 0 def
/FontMatrix[.001 0 0 .001 0 0]def
/FontBBox[-1021 -415 1681 1167]def
/FontType 3 def
/Encoding [ /zero /one /two /three /four /five /six /seven /eight /F /G /a /e /g /i /m /n /o /r /s /t /u /v /x ] def
/FontInfo 10 dict dup begin
/FamilyName (DejaVu Sans) def
/FullName (DejaVu Sans) def
/Notice (Copyright (c) 2003 by Bitstream, Inc. All Rights Reserved. Copyright (c) 2006 by Tavmjong Bah. All Rights Reserved. DejaVu changes are in public domain ) def
/Weight (Book) def
/Version (Version 2.34) def
/ItalicAngle 0.0 def
/isFixedPitch false def
/UnderlinePosition -130 def
/UnderlineThickness 90 def
end readonly def
/CharStrings 24 dict dup begin
/zero{636 0 66 -13 570 742 _sc
318 664 _m
267 664 229 639 203 589 _c
177 539 165 464 165 364 _c
165 264 177 189 203 139 _c
229 89 267 64 318 64 _c
369 64 407 89 433 139 _c
458 189 471 264 471 364 _c
471 464 458 539 433 589 _c
407 639 369 664 318 664 _c
318 742 _m
399 742 461 709 505 645 _c
548 580 570 486 570 364 _c
570 241 548 147 505 83 _c
461 19 399 -13 318 -13 _c
236 -13 173 19 130 83 _c
87 147 66 241 66 364 _c
66 486 87 580 130 645 _c
173 709 236 742 318 742 _c
_cl}_d
/one{636 0 110 0 544 729 _sc
124 83 _m
285 83 _l
285 639 _l
110 604 _l
110 694 _l
284 729 _l
383 729 _l
383 83 _l
544 83 _l
544 0 _l
124 0 _l
124 83 _l
_cl}_d
/two{{636 0 73 0 536 742 _sc
192 83 _m
536 83 _l
536 0 _l
73 0 _l
73 83 _l
110 121 161 173 226 239 _c
290 304 331 346 348 365 _c
380 400 402 430 414 455 _c
426 479 433 504 433 528 _c
433 566 419 598 392 622 _c
365 646 330 659 286 659 _c
255 659 222 653 188 643 _c
154 632 117 616 78 594 _c
78 694 _l
118 710 155 722 189 730 _c
223 738 255 742 284 742 _c
}_e{359 742 419 723 464 685 _c
509 647 532 597 532 534 _c
532 504 526 475 515 449 _c
504 422 484 390 454 354 _c
446 344 420 317 376 272 _c
332 227 271 164 192 83 _c
_cl}_e}_d
/three{{636 0 76 -13 556 742 _sc
406 393 _m
453 383 490 362 516 330 _c
542 298 556 258 556 212 _c
556 140 531 84 482 45 _c
432 6 362 -13 271 -13 _c
240 -13 208 -10 176 -4 _c
144 1 110 10 76 22 _c
76 117 _l
103 101 133 89 166 81 _c
198 73 232 69 268 69 _c
330 69 377 81 409 105 _c
441 129 458 165 458 212 _c
458 254 443 288 413 312 _c
383 336 341 349 287 349 _c
}_e{202 349 _l
202 430 _l
291 430 _l
339 430 376 439 402 459 _c
428 478 441 506 441 543 _c
441 580 427 609 401 629 _c
374 649 336 659 287 659 _c
260 659 231 656 200 650 _c
169 644 135 635 98 623 _c
98 711 _l
135 721 170 729 203 734 _c
235 739 266 742 296 742 _c
370 742 429 725 473 691 _c
517 657 539 611 539 553 _c
539 513 527 479 504 451 _c
481 423 448 403 406 393 _c
_cl}_e}_d
/four{636 0 49 0 580 729 _sc
378 643 _m
129 254 _l
378 254 _l
378 643 _l
352 729 _m
476 729 _l
476 254 _l
580 254 _l
580 172 _l
476 172 _l
476 0 _l
378 0 _l
378 172 _l
49 172 _l
49 267 _l
352 729 _l
_cl}_d
/five{{636 0 77 -13 549 729 _sc
108 729 _m
495 729 _l
495 646 _l
198 646 _l
198 467 _l
212 472 227 476 241 478 _c
255 480 270 482 284 482 _c
365 482 429 459 477 415 _c
525 370 549 310 549 234 _c
549 155 524 94 475 51 _c
426 8 357 -13 269 -13 _c
238 -13 207 -10 175 -6 _c
143 -1 111 6 77 17 _c
77 116 _l
106 100 136 88 168 80 _c
199 72 232 69 267 69 _c
}_e{323 69 368 83 401 113 _c
433 143 450 183 450 234 _c
450 284 433 324 401 354 _c
368 384 323 399 267 399 _c
241 399 214 396 188 390 _c
162 384 135 375 108 363 _c
108 729 _l
_cl}_e}_d
/six{{636 0 70 -13 573 742 _sc
330 404 _m
286 404 251 388 225 358 _c
199 328 186 286 186 234 _c
186 181 199 139 225 109 _c
251 79 286 64 330 64 _c
374 64 409 79 435 109 _c
461 139 474 181 474 234 _c
474 286 461 328 435 358 _c
409 388 374 404 330 404 _c
526 713 _m
526 623 _l
501 635 476 644 451 650 _c
425 656 400 659 376 659 _c
310 659 260 637 226 593 _c
}_e{192 549 172 482 168 394 _c
187 422 211 444 240 459 _c
269 474 301 482 336 482 _c
409 482 467 459 509 415 _c
551 371 573 310 573 234 _c
573 159 550 99 506 54 _c
462 9 403 -13 330 -13 _c
246 -13 181 19 137 83 _c
92 147 70 241 70 364 _c
70 479 97 571 152 639 _c
206 707 280 742 372 742 _c
396 742 421 739 447 735 _c
472 730 498 723 526 713 _c
_cl}_e}_d
/seven{636 0 82 0 551 729 _sc
82 729 _m
551 729 _l
551 687 _l
286 0 _l
183 0 _l
432 646 _l
82 646 _l
82 729 _l
_cl}_d
/eight{{636 0 68 -13 568 742 _sc
318 346 _m
271 346 234 333 207 308 _c
180 283 167 249 167 205 _c
167 161 180 126 207 101 _c
234 76 271 64 318 64 _c
364 64 401 76 428 102 _c
455 127 469 161 469 205 _c
469 249 455 283 429 308 _c
402 333 365 346 318 346 _c
219 388 _m
177 398 144 418 120 447 _c
96 476 85 511 85 553 _c
85 611 105 657 147 691 _c
188 725 245 742 318 742 _c
}_e{390 742 447 725 489 691 _c
530 657 551 611 551 553 _c
551 511 539 476 515 447 _c
491 418 459 398 417 388 _c
464 377 501 355 528 323 _c
554 291 568 251 568 205 _c
568 134 546 80 503 43 _c
459 5 398 -13 318 -13 _c
237 -13 175 5 132 43 _c
89 80 68 134 68 205 _c
68 251 81 291 108 323 _c
134 355 171 377 219 388 _c
183 544 _m
183 506 194 476 218 455 _c
}_e{242 434 275 424 318 424 _c
360 424 393 434 417 455 _c
441 476 453 506 453 544 _c
453 582 441 611 417 632 _c
393 653 360 664 318 664 _c
275 664 242 653 218 632 _c
194 611 183 582 183 544 _c
_cl}_e}_d
/F{575 0 98 0 517 729 _sc
98 729 _m
517 729 _l
517 646 _l
197 646 _l
197 431 _l
486 431 _l
486 348 _l
197 348 _l
197 0 _l
98 0 _l
98 729 _l
_cl}_d
/G{{775 0 56 -13 693 742 _sc
595 104 _m
595 300 _l
434 300 _l
434 381 _l
693 381 _l
693 68 _l
655 40 613 20 567 7 _c
521 -6 472 -13 420 -13 _c
306 -13 216 20 152 86 _c
88 152 56 245 56 364 _c
56 482 88 575 152 642 _c
216 708 306 742 420 742 _c
467 742 512 736 555 724 _c
598 712 638 695 674 673 _c
674 568 _l
637 598 598 621 557 637 _c
516 653 473 661 428 661 _c
}_e{338 661 271 636 227 586 _c
182 536 160 462 160 364 _c
160 265 182 191 227 141 _c
271 91 338 67 428 67 _c
462 67 493 70 521 76 _c
549 82 573 91 595 104 _c
_cl}_e}_d
/a{{613 0 60 -13 522 560 _sc
343 275 _m
270 275 220 266 192 250 _c
164 233 150 205 150 165 _c
150 133 160 107 181 89 _c
202 70 231 61 267 61 _c
317 61 357 78 387 114 _c
417 149 432 196 432 255 _c
432 275 _l
343 275 _l
522 312 _m
522 0 _l
432 0 _l
432 83 _l
411 49 385 25 355 10 _c
325 -5 287 -13 243 -13 _c
187 -13 142 2 109 33 _c
76 64 60 106 60 159 _c
}_e{60 220 80 266 122 298 _c
163 329 224 345 306 345 _c
432 345 _l
432 354 _l
432 395 418 427 391 450 _c
364 472 326 484 277 484 _c
245 484 215 480 185 472 _c
155 464 127 453 100 439 _c
100 522 _l
132 534 164 544 195 550 _c
226 556 256 560 286 560 _c
365 560 424 539 463 498 _c
502 457 522 395 522 312 _c
_cl}_e}_d
/e{{615 0 55 -13 562 560 _sc
562 296 _m
562 252 _l
149 252 _l
153 190 171 142 205 110 _c
238 78 284 62 344 62 _c
378 62 412 66 444 74 _c
476 82 509 95 541 113 _c
541 28 _l
509 14 476 3 442 -3 _c
408 -9 373 -13 339 -13 _c
251 -13 182 12 131 62 _c
80 112 55 181 55 268 _c
55 357 79 428 127 481 _c
175 533 241 560 323 560 _c
397 560 455 536 498 489 _c
}_e{540 441 562 377 562 296 _c
472 322 _m
471 371 457 410 431 440 _c
404 469 368 484 324 484 _c
274 484 234 469 204 441 _c
174 413 156 373 152 322 _c
472 322 _l
_cl}_e}_d
/g{{635 0 55 -207 544 560 _sc
454 280 _m
454 344 440 395 414 431 _c
387 467 349 485 301 485 _c
253 485 215 467 188 431 _c
161 395 148 344 148 280 _c
148 215 161 165 188 129 _c
215 93 253 75 301 75 _c
349 75 387 93 414 129 _c
440 165 454 215 454 280 _c
544 68 _m
544 -24 523 -93 482 -139 _c
440 -184 377 -207 292 -207 _c
260 -207 231 -204 203 -200 _c
175 -195 147 -188 121 -178 _c
}_e{121 -91 _l
147 -105 173 -115 199 -122 _c
225 -129 251 -133 278 -133 _c
336 -133 380 -117 410 -87 _c
439 -56 454 -10 454 52 _c
454 96 _l
435 64 411 40 382 24 _c
353 8 319 0 279 0 _c
211 0 157 25 116 76 _c
75 127 55 195 55 280 _c
55 364 75 432 116 483 _c
157 534 211 560 279 560 _c
319 560 353 552 382 536 _c
411 520 435 496 454 464 _c
454 547 _l
544 547 _l
}_e{544 68 _l
_cl}_e}_d
/i{278 0 94 0 184 760 _sc
94 547 _m
184 547 _l
184 0 _l
94 0 _l
94 547 _l
94 760 _m
184 760 _l
184 646 _l
94 646 _l
94 760 _l
_cl}_d
/m{{974 0 91 0 889 560 _sc
520 442 _m
542 482 569 511 600 531 _c
631 550 668 560 711 560 _c
767 560 811 540 842 500 _c
873 460 889 403 889 330 _c
889 0 _l
799 0 _l
799 327 _l
799 379 789 418 771 444 _c
752 469 724 482 686 482 _c
639 482 602 466 575 435 _c
548 404 535 362 535 309 _c
535 0 _l
445 0 _l
445 327 _l
445 379 435 418 417 444 _c
398 469 369 482 331 482 _c
}_e{285 482 248 466 221 435 _c
194 404 181 362 181 309 _c
181 0 _l
91 0 _l
91 547 _l
181 547 _l
181 462 _l
201 495 226 520 255 536 _c
283 552 317 560 357 560 _c
397 560 430 550 458 530 _c
486 510 506 480 520 442 _c
_cl}_e}_d
/n{634 0 91 0 549 560 _sc
549 330 _m
549 0 _l
459 0 _l
459 327 _l
459 379 448 417 428 443 _c
408 469 378 482 338 482 _c
289 482 251 466 223 435 _c
195 404 181 362 181 309 _c
181 0 _l
91 0 _l
91 547 _l
181 547 _l
181 462 _l
202 494 227 519 257 535 _c
286 551 320 560 358 560 _c
420 560 468 540 500 501 _c
532 462 549 405 549 330 _c
_cl}_d
/o{612 0 55 -13 557 560 _sc
306 484 _m
258 484 220 465 192 427 _c
164 389 150 338 150 273 _c
150 207 163 156 191 118 _c
219 80 257 62 306 62 _c
354 62 392 80 420 118 _c
448 156 462 207 462 273 _c
462 337 448 389 420 427 _c
392 465 354 484 306 484 _c
306 560 _m
384 560 445 534 490 484 _c
534 433 557 363 557 273 _c
557 183 534 113 490 63 _c
445 12 384 -13 306 -13 _c
227 -13 165 12 121 63 _c
77 113 55 183 55 273 _c
55 363 77 433 121 484 _c
165 534 227 560 306 560 _c
_cl}_d
/r{411 0 91 0 411 560 _sc
411 463 _m
401 469 390 473 378 476 _c
366 478 353 480 339 480 _c
288 480 249 463 222 430 _c
194 397 181 350 181 288 _c
181 0 _l
91 0 _l
91 547 _l
181 547 _l
181 462 _l
199 495 224 520 254 536 _c
284 552 321 560 365 560 _c
371 560 378 559 386 559 _c
393 558 401 557 411 555 _c
411 463 _l
_cl}_d
/s{{521 0 54 -13 472 560 _sc
443 531 _m
443 446 _l
417 458 391 468 364 475 _c
336 481 308 485 279 485 _c
234 485 200 478 178 464 _c
156 450 145 430 145 403 _c
145 382 153 366 169 354 _c
185 342 217 330 265 320 _c
296 313 _l
360 299 405 279 432 255 _c
458 230 472 195 472 151 _c
472 100 452 60 412 31 _c
372 1 316 -13 246 -13 _c
216 -13 186 -10 154 -5 _c
}_e{122 0 89 8 54 20 _c
54 113 _l
87 95 120 82 152 74 _c
184 65 216 61 248 61 _c
290 61 323 68 346 82 _c
368 96 380 117 380 144 _c
380 168 371 187 355 200 _c
339 213 303 226 247 238 _c
216 245 _l
160 257 119 275 95 299 _c
70 323 58 356 58 399 _c
58 450 76 490 112 518 _c
148 546 200 560 268 560 _c
301 560 332 557 362 552 _c
391 547 418 540 443 531 _c
}_e{_cl}_e}_d
/t{392 0 27 0 368 702 _sc
183 702 _m
183 547 _l
368 547 _l
368 477 _l
183 477 _l
183 180 _l
183 135 189 106 201 94 _c
213 81 238 75 276 75 _c
368 75 _l
368 0 _l
276 0 _l
206 0 158 13 132 39 _c
106 65 93 112 93 180 _c
93 477 _l
27 477 _l
27 547 _l
93 547 _l
93 702 _l
183 702 _l
_cl}_d
/u{634 0 85 -13 543 560 _sc
85 216 _m
85 547 _l
175 547 _l
175 219 _l
175 167 185 129 205 103 _c
225 77 255 64 296 64 _c
344 64 383 79 411 110 _c
439 141 453 183 453 237 _c
453 547 _l
543 547 _l
543 0 _l
453 0 _l
453 84 _l
431 50 405 26 377 10 _c
348 -5 315 -13 277 -13 _c
214 -13 166 6 134 45 _c
101 83 85 140 85 216 _c
311 560 _m
311 560 _l
_cl}_d
/v{592 0 30 0 562 547 _sc
30 547 _m
125 547 _l
296 88 _l
467 547 _l
562 547 _l
357 0 _l
235 0 _l
30 547 _l
_cl}_d
/x{592 0 29 0 559 547 _sc
549 547 _m
351 281 _l
559 0 _l
453 0 _l
294 215 _l
135 0 _l
29 0 _l
241 286 _l
47 547 _l
153 547 _l
298 352 _l
443 547 _l
549 547 _l
_cl}_d
end readonly def

/BuildGlyph
 {exch begin
 CharStrings exch
 2 copy known not{pop /.notdef}if
 true 3 1 roll get exec
 end}_d

/BuildChar {
 1 index /Encoding get exch get
 1 index /BuildGlyph get exec
}_d

FontName currentdict end definefont pop
end
%%EndProlog
mpldict begin
-202.5 31.5 translate
1017 729 0 0 clipbox
gsave
0 0 m
1017 0 l
1017 729 l
0 729 l
cl
1.000 setgray
fill
grestore
gsave
127.125 72.9 m
915.3 72.9 l
915.3 656.1 l
127.125 656.1 l
cl
1.000 setgray
fill
grestore
1.000 setlinewidth
1 setlinejoin
2 setlinecap
[] 0 setdash
0.000 setgray
gsave
788.2 583.2 127.1 72.9 clipbox
127.125 331.495 m
128.11 332.58 l
129.095 335.408 l
130.081 336.194 l
131.066 337.976 l
132.051 340.076 l
133.036 340.841 l
134.022 342.509 l
135.992 344.212 l
136.977 344.941 l
137.962 345.97 l
138.948 347.896 l
139.933 349.456 l
140.918 350.341 l
141.903 350.959 l
142.888 351.811 l
145.844 354.857 l
146.829 355.274 l
147.815 356.35 l
148.8 357.257 l
149.785 357.89 l
150.77 358.339 l
151.755 358.482 l
152.741 358.898 l
153.726 359.645 l
154.711 360.053 l
155.696 360.602 l
156.682 360.714 l
157.667 361.216 l
160.622 361.734 l
161.608 362.027 l
162.593 362.117 l
163.578 362.331 l
166.534 363.732 l
168.504 364.155 l
169.489 364.898 l
171.46 365.177 l
172.445 365.595 l
177.371 366.128 l
181.312 366.733 l
182.297 366.765 l
188.209 367.645 l
194.12 367.988 l
197.076 368.363 l
200.031 368.582 l
201.016 368.784 l
203.972 368.906 l
206.928 369.179 l
211.854 369.436 l
213.824 369.587 l
221.706 369.826 l
224.662 369.96 l
228.603 370.14 l
236.484 370.41 l
246.336 370.812 l
249.292 370.975 l
257.174 371.124 l
273.923 371.66 l
279.834 371.703 l
288.701 371.851 l
304.464 372.301 l
311.361 372.405 l
323.184 372.589 l
324.169 578.384 l
325.154 579.529 l
326.139 579.967 l
327.124 580.573 l
328.11 580.779 l
329.095 581.172 l
333.036 582.006 l
334.021 582.085 l
335.991 582.677 l
339.932 583.403 l
342.888 583.777 l
345.844 584.204 l
347.814 584.528 l
353.725 584.938 l
356.681 585.061 l
358.651 585.221 l
362.592 585.465 l
372.444 585.911 l
413.824 586.628 l
439.439 586.795 l
449.292 586.853 l
520.227 586.935 l
521.213 354.626 l
522.198 355.453 l
523.183 357.041 l
524.168 358.098 l
525.153 359.608 l
526.139 360.26 l
527.124 360.73 l
528.109 360.911 l
529.094 361.899 l
530.079 362.5 l
532.05 363.48 l
534.02 364.609 l
535.991 365.176 l
536.976 365.248 l
539.932 365.917 l
540.917 365.995 l
541.902 366.377 l
544.858 366.65 l
547.813 367.283 l
550.769 367.619 l
555.695 368.36 l
557.666 368.479 l
559.636 368.689 l
564.562 369.148 l
567.518 369.488 l
572.444 369.77 l
574.414 369.901 l
576.385 369.933 l
579.34 370.214 l
606.927 371.254 l
615.793 371.487 l
621.705 371.699 l
657.173 372.382 l
670.966 372.57 l
684.759 372.695 l
717.271 373.052 l
718.256 578.476 l
719.241 579.381 l
720.227 580.058 l
721.212 580.542 l
722.197 581.372 l
723.182 581.555 l
724.168 581.946 l
726.138 582.18 l
727.123 582.512 l
730.079 583.077 l
731.064 583.097 l
735.005 583.73 l
735.99 584.03 l
742.887 584.832 l
747.813 585.094 l
750.768 585.297 l
752.739 585.421 l
755.695 585.657 l
758.65 585.804 l
762.591 585.983 l
770.473 586.224 l
788.207 586.527 l
791.162 586.597 l
820.719 586.91 l
914.315 587.092 l
915.3 351.593 l
916.285 352.796 l
916.285 352.796 l
stroke
grestore
0 setlinecap
[6 6] 0 setdash
gsave
788.2 583.2 127.1 72.9 clipbox
127.125 104.977 m
128.11 107.363 l
129.095 110.146 l
130.081 113.38 l
131.066 117.349 l
132.051 121.924 l
133.036 127.126 l
134.022 133.123 l
135.992 147.507 l
137.962 165.235 l
140.918 195.41 l
144.859 236.735 l
146.829 254.978 l
148.8 270.509 l
149.785 277.18 l
150.77 283.046 l
152.741 292.685 l
153.726 296.854 l
155.696 303.695 l
157.667 309.267 l
158.652 311.631 l
161.608 317.37 l
163.578 320.867 l
166.534 324.713 l
169.489 327.85 l
170.475 329.057 l
171.46 329.896 l
172.445 330.565 l
173.43 331.563 l
175.401 333.047 l
177.371 334.237 l
178.356 335.036 l
179.342 335.429 l
181.312 336.727 l
182.297 337.082 l
185.253 338.471 l
190.179 340.417 l
191.164 341.052 l
192.149 341.357 l
193.135 341.461 l
194.12 341.695 l
196.09 342.446 l
199.046 343.354 l
200.031 343.34 l
202.002 343.863 l
202.987 343.885 l
204.957 344.399 l
205.942 344.35 l
206.928 344.5 l
207.913 344.485 l
208.898 344.772 l
209.883 344.907 l
210.869 345.165 l
211.854 345.302 l
212.839 345.073 l
214.809 345.745 l
215.795 346.192 l
216.78 346.025 l
217.765 345.982 l
221.706 347.086 l
222.691 347.047 l
224.662 347.114 l
225.647 347.165 l
226.632 347.37 l
227.617 347.775 l
228.603 347.633 l
229.588 348.059 l
231.558 347.987 l
234.514 347.893 l
235.499 348.083 l
236.484 347.997 l
237.47 348.041 l
238.455 348.268 l
239.44 347.985 l
240.425 347.903 l
242.396 348.091 l
244.366 348.203 l
245.351 348.088 l
247.322 348.263 l
249.292 348.727 l
251.263 349.133 l
252.248 349.122 l
253.233 348.909 l
254.218 348.918 l
255.203 349.294 l
257.174 349.288 l
259.144 349.546 l
260.13 349.516 l
261.115 349.363 l
262.1 349.677 l
263.085 349.509 l
265.056 349.522 l
266.041 349.277 l
267.026 349.4 l
268.997 349.372 l
269.982 349.623 l
270.967 349.741 l
273.923 349.408 l
274.908 349.365 l
275.893 349.672 l
276.878 349.749 l
278.849 350.186 l
279.834 350.308 l
280.819 350.016 l
281.804 349.911 l
282.79 349.668 l
283.775 349.797 l
284.76 349.73 l
286.73 350.158 l
287.716 350.541 l
288.701 350.641 l
289.686 350.286 l
291.657 350.194 l
292.642 349.976 l
293.627 350.15 l
297.568 350.437 l
298.553 350.666 l
299.538 350.666 l
303.479 351.224 l
305.45 351.074 l
307.42 351.272 l
309.39 350.952 l
312.346 351.166 l
313.331 351.021 l
316.287 351.153 l
317.272 350.975 l
318.257 350.913 l
319.243 350.687 l
320.228 351.086 l
321.213 351.316 l
323.184 351.098 l
324.169 140.091 l
325.154 146.675 l
326.139 154.599 l
327.124 163.726 l
328.11 174.484 l
329.095 187.158 l
330.08 201.543 l
332.051 235.839 l
334.021 276.069 l
339.932 404.033 l
341.903 438.722 l
343.873 467.174 l
344.858 478.907 l
345.844 488.941 l
346.829 497.787 l
348.799 512.098 l
350.77 522.622 l
351.755 526.669 l
352.74 529.271 l
353.725 531.347 l
355.696 534.687 l
357.666 537.588 l
358.651 538.304 l
359.637 539.162 l
360.622 539.616 l
361.607 540.203 l
362.592 541.191 l
363.578 541.4 l
364.563 541.886 l
365.548 542.127 l
366.533 541.972 l
367.518 542.107 l
369.489 542.971 l
370.474 543.593 l
371.459 543.481 l
372.444 543.798 l
373.43 543.561 l
374.415 543.482 l
376.385 544.32 l
377.371 544.241 l
378.356 543.915 l
380.326 543.851 l
381.311 544.001 l
382.297 543.709 l
383.282 544.044 l
384.267 543.999 l
386.238 544.627 l
387.223 544.326 l
388.208 544.239 l
390.178 544.935 l
392.149 545.455 l
393.134 545.331 l
394.119 544.922 l
396.09 545.294 l
397.075 545.134 l
398.06 545.362 l
399.045 544.929 l
400.031 545.522 l
401.016 545.347 l
402.001 545.898 l
404.957 546.41 l
405.942 546.34 l
406.927 545.849 l
407.912 545.657 l
408.898 545.777 l
410.868 545.422 l
412.838 545.671 l
413.824 545.213 l
414.809 545.489 l
416.779 545.456 l
417.765 545.82 l
418.75 546.018 l
419.735 545.873 l
421.705 546.22 l
422.691 545.924 l
423.676 546.08 l
424.661 545.792 l
425.646 545.761 l
426.632 545.556 l
428.602 545.386 l
431.558 545.1 l
432.543 545.489 l
433.528 546.103 l
434.513 545.76 l
436.484 545.613 l
437.469 545.196 l
438.454 545.254 l
439.439 544.999 l
440.425 545.581 l
441.41 545.542 l
442.395 545.831 l
443.38 545.75 l
444.365 545.795 l
445.351 546.047 l
446.336 546.032 l
447.321 545.861 l
448.306 545.924 l
449.292 546.418 l
450.277 546.431 l
452.247 546.088 l
453.232 545.735 l
454.218 546.041 l
456.188 546.096 l
457.173 546.352 l
458.159 546.161 l
459.144 546.262 l
461.114 545.913 l
463.085 546.288 l
464.07 545.987 l
465.055 545.987 l
466.04 545.514 l
468.011 545.384 l
469.981 545.05 l
470.966 545.178 l
471.952 545.529 l
472.937 545.112 l
473.922 545.077 l
474.907 545.373 l
478.848 545.198 l
479.833 545.356 l
481.804 544.659 l
482.789 544.992 l
483.774 545.518 l
484.759 545.846 l
485.745 545.348 l
486.73 545.096 l
487.715 544.962 l
489.686 545.827 l
491.656 544.991 l
492.641 545.134 l
493.626 545.62 l
494.612 545.391 l
495.597 545.769 l
496.582 545.743 l
498.552 545.295 l
499.538 545.759 l
500.523 545.447 l
502.493 545.673 l
503.479 545.198 l
504.464 545.209 l
505.449 545.554 l
507.419 545.896 l
508.405 545.891 l
509.39 546.102 l
510.375 545.91 l
511.36 546.276 l
512.346 546.185 l
513.331 546.225 l
517.272 545.726 l
518.257 546.162 l
519.242 545.696 l
520.227 545.999 l
521.213 106.378 l
522.198 108.937 l
523.183 112.093 l
524.168 115.939 l
525.153 120.387 l
526.139 125.527 l
527.124 131.518 l
528.109 138.53 l
529.094 146.479 l
531.065 165.151 l
533.035 187.252 l
538.946 258.132 l
540.917 277.823 l
542.887 294.21 l
544.858 306.914 l
545.843 311.745 l
547.813 319.617 l
548.799 322.791 l
549.784 325.553 l
551.754 330.107 l
552.74 332.131 l
553.725 333.699 l
556.68 336.8 l
557.666 337.76 l
558.651 338.545 l
559.636 339.14 l
560.621 339.981 l
562.592 340.972 l
563.577 341.652 l
565.547 342.284 l
567.518 343.425 l
569.488 344.096 l
570.473 344.055 l
571.459 344.151 l
575.4 345.513 l
576.385 345.764 l
581.311 346.299 l
583.281 346.404 l
586.237 346.997 l
589.193 347.667 l
590.178 347.61 l
591.163 347.422 l
592.148 347.573 l
593.133 348.059 l
594.119 348.13 l
595.104 347.909 l
596.089 347.841 l
597.074 348.108 l
598.06 348.037 l
600.03 348.386 l
601.015 348.383 l
602.986 348.678 l
604.956 348.548 l
607.912 348.5 l
608.897 348.851 l
609.882 349.077 l
610.867 348.987 l
611.853 349.026 l
612.838 349.268 l
613.823 349.14 l
616.779 349.606 l
617.764 349.547 l
620.72 349.905 l
624.66 350.017 l
625.646 349.925 l
630.572 350.222 l
631.557 349.856 l
632.542 350.088 l
633.527 349.97 l
638.454 350.47 l
641.409 350.818 l
642.394 350.548 l
643.38 350.397 l
644.365 350.655 l
645.35 350.447 l
648.306 350.474 l
649.291 350.358 l
650.276 350.521 l
651.261 350.471 l
652.247 350.579 l
653.232 350.539 l
655.202 350.652 l
658.158 350.507 l
659.143 350.596 l
660.128 350.861 l
661.114 350.835 l
662.099 350.975 l
665.054 350.919 l
666.04 351.111 l
668.01 350.929 l
669.981 351.302 l
670.966 351.239 l
671.951 351.361 l
672.936 351.258 l
673.921 351.328 l
674.907 351.275 l
675.892 351.444 l
677.862 351.218 l
679.833 351.83 l
680.818 351.478 l
682.788 351.393 l
683.774 351.56 l
684.759 351.524 l
687.714 351.849 l
688.7 351.646 l
690.67 351.701 l
691.655 351.381 l
692.641 351.574 l
693.626 351.55 l
695.596 351.739 l
696.581 351.565 l
702.493 351.831 l
703.478 351.493 l
704.463 351.482 l
705.448 351.643 l
706.434 351.616 l
707.419 351.475 l
708.404 351.665 l
710.375 351.456 l
711.36 351.551 l
713.33 351.484 l
714.315 351.791 l
715.301 351.769 l
716.286 351.976 l
717.271 351.981 l
718.256 141.643 l
719.241 148.043 l
720.227 155.792 l
721.212 165.315 l
722.197 176.521 l
723.182 189.099 l
725.153 219.93 l
727.123 257.625 l
729.094 300.022 l
733.035 386.171 l
735.005 423.51 l
736.975 455.5 l
737.961 468.995 l
738.946 480.764 l
739.931 491.016 l
740.916 500.063 l
741.902 507.088 l
742.887 513.028 l
743.872 518.039 l
745.842 526.01 l
746.828 528.93 l
747.813 531.386 l
748.798 533.243 l
749.783 534.515 l
750.768 536.057 l
752.739 538.601 l
753.724 539.489 l
755.695 540.73 l
756.68 540.919 l
757.665 540.926 l
758.65 541.364 l
759.635 541.383 l
761.606 542.671 l
762.591 542.966 l
763.576 542.409 l
764.562 542.183 l
765.547 542.401 l
766.532 542.969 l
767.517 543.144 l
768.502 542.989 l
769.488 543.118 l
770.473 543.566 l
771.458 543.336 l
772.443 543.285 l
773.429 543.109 l
774.414 543.509 l
776.384 544.047 l
777.369 543.937 l
778.355 543.705 l
780.325 544.746 l
781.31 544.223 l
782.295 544.428 l
783.281 544.35 l
784.266 544.527 l
785.251 545.047 l
786.236 545.316 l
787.222 545.137 l
788.207 545.305 l
790.177 545.308 l
791.162 545.172 l
792.148 545.728 l
793.133 545.655 l
794.118 545.82 l
796.089 545.801 l
797.074 545.636 l
798.059 545.298 l
799.044 545.323 l
800.029 544.936 l
801.015 545.093 l
802 545.557 l
802.985 545.878 l
804.956 545.583 l
805.941 545.568 l
806.926 545.928 l
807.911 545.835 l
808.896 546.391 l
810.867 546.126 l
811.852 545.797 l
812.837 545.833 l
813.822 545.64 l
815.793 545.611 l
816.778 545.249 l
817.763 545.92 l
819.734 546.019 l
820.719 545.969 l
821.704 546.156 l
822.689 545.791 l
823.675 545.063 l
825.645 545.913 l
826.63 545.689 l
827.616 546.091 l
828.601 545.802 l
830.571 546.297 l
831.556 546.258 l
833.527 545.657 l
834.512 545.503 l
835.497 545.204 l
836.483 545.148 l
837.468 545.499 l
838.453 545.518 l
839.438 545.356 l
840.423 545.606 l
841.409 545.441 l
842.394 545.665 l
843.379 545.342 l
845.349 545.548 l
846.335 546.051 l
847.32 546.269 l
848.305 545.799 l
849.29 545.716 l
850.276 546.144 l
851.261 545.948 l
852.246 546.027 l
854.216 545.914 l
858.157 546.086 l
859.143 545.846 l
860.128 545.482 l
861.113 545.513 l
862.098 545.406 l
863.083 545.67 l
864.069 545.803 l
865.054 545.658 l
866.039 545.692 l
868.01 546.013 l
868.995 545.812 l
869.98 545.819 l
870.965 545.637 l
871.95 545.191 l
872.936 545.289 l
873.921 545.655 l
874.906 545.867 l
875.891 545.467 l
876.876 545.817 l
877.862 545.845 l
880.817 545.521 l
881.803 545.255 l
882.788 545.799 l
883.773 545.139 l
884.758 545.167 l
885.743 545.518 l
886.729 545.525 l
888.699 545.979 l
889.684 546.151 l
890.67 546.185 l
892.64 545.517 l
894.61 545.607 l
896.581 545.533 l
897.566 545.916 l
898.551 545.846 l
899.537 545.519 l
901.507 545.936 l
902.492 545.766 l
903.477 545.833 l
904.463 545.749 l
905.448 545.501 l
906.433 545.694 l
907.418 546.054 l
908.403 546.606 l
909.389 546.159 l
911.359 546.243 l
912.344 545.604 l
913.33 545.401 l
914.315 545.984 l
915.3 109.072 l
916.285 111.471 l
916.285 111.471 l
stroke
grestore
0.500 setlinewidth
[] 0 setdash
gsave
/o {
gsave
newpath
translate
0.5 setlinewidth
1 setlinejoin
0 setlinecap
0 0 m
0 4 l
gsave
0.000 setgray
fill
grestore
stroke
grestore
} bind def
127.125 72.9 o
grestore
gsave
/o {
gsave
newpath
translate
0.5 setlinewidth
1 setlinejoin
0 setlinecap
0 0 m
0 -4 l
gsave
0.000 setgray
fill
grestore
stroke
grestore
} bind def
127.125 656.1 o
grestore
/DejaVuSans findfont
20.000 scalefont
setfont
gsave
122.085938 53.696875 translate
0.000000 rotate
0.000000 0.000000 m /zero glyphshow
grestore
gsave
/o {
gsave
newpath
translate
0.5 setlinewidth
1 setlinejoin
0 setlinecap
0 0 m
0 4 l
gsave
0.000 setgray
fill
grestore
stroke
grestore
} bind def
225.647 72.9 o
grestore
gsave
/o {
gsave
newpath
translate
0.5 setlinewidth
1 setlinejoin
0 setlinecap
0 0 m
0 -4 l
gsave
0.000 setgray
fill
grestore
stroke
grestore
} bind def
225.647 656.1 o
grestore
gsave
208.334375 53.696875 translate
0.000000 rotate
0.000000 0.000000 m /one glyphshow
12.724609 0.000000 m /zero glyphshow
25.449219 0.000000 m /zero glyphshow
grestore
gsave
/o {
gsave
newpath
translate
0.5 setlinewidth
1 setlinejoin
0 setlinecap
0 0 m
0 4 l
gsave
0.000 setgray
fill
grestore
stroke
grestore
} bind def
324.169 72.9 o
grestore
gsave
/o {
gsave
newpath
translate
0.5 setlinewidth
1 setlinejoin
0 setlinecap
0 0 m
0 -4 l
gsave
0.000 setgray
fill
grestore
stroke
grestore
} bind def
324.169 656.1 o
grestore
gsave
306.489063 53.696875 translate
0.000000 rotate
0.000000 0.000000 m /two glyphshow
12.724609 0.000000 m /zero glyphshow
25.449219 0.000000 m /zero glyphshow
grestore
gsave
/o {
gsave
newpath
translate
0.5 setlinewidth
1 setlinejoin
0 setlinecap
0 0 m
0 4 l
gsave
0.000 setgray
fill
grestore
stroke
grestore
} bind def
422.691 72.9 o
grestore
gsave
/o {
gsave
newpath
translate
0.5 setlinewidth
1 setlinejoin
0 setlinecap
0 0 m
0 -4 l
gsave
0.000 setgray
fill
grestore
stroke
grestore
} bind def
422.691 656.1 o
grestore
gsave
405.042188 53.696875 translate
0.000000 rotate
0.000000 0.000000 m /three glyphshow
12.724609 0.000000 m /zero glyphshow
25.449219 0.000000 m /zero glyphshow
grestore
gsave
/o {
gsave
newpath
translate
0.5 setlinewidth
1 setlinejoin
0 setlinecap
0 0 m
0 4 l
gsave
0.000 setgray
fill
grestore
stroke
grestore
} bind def
521.213 72.9 o
grestore
gsave
/o {
gsave
newpath
translate
0.5 setlinewidth
1 setlinejoin
0 setlinecap
0 0 m
0 -4 l
gsave
0.000 setgray
fill
grestore
stroke
grestore
} bind def
521.213 656.1 o
grestore
gsave
503.290625 53.696875 translate
0.000000 rotate
0.000000 0.000000 m /four glyphshow
12.724609 0.000000 m /zero glyphshow
25.449219 0.000000 m /zero glyphshow
grestore
gsave
/o {
gsave
newpath
translate
0.5 setlinewidth
1 setlinejoin
0 setlinecap
0 0 m
0 4 l
gsave
0.000 setgray
fill
grestore
stroke
grestore
} bind def
619.734 72.9 o
grestore
gsave
/o {
gsave
newpath
translate
0.5 setlinewidth
1 setlinejoin
0 setlinecap
0 0 m
0 -4 l
gsave
0.000 setgray
fill
grestore
stroke
grestore
} bind def
619.734 656.1 o
grestore
gsave
602.093750 53.696875 translate
0.000000 rotate
0.000000 0.000000 m /five glyphshow
12.724609 0.000000 m /zero glyphshow
25.449219 0.000000 m /zero glyphshow
grestore
gsave
/o {
gsave
newpath
translate
0.5 setlinewidth
1 setlinejoin
0 setlinecap
0 0 m
0 4 l
gsave
0.000 setgray
fill
grestore
stroke
grestore
} bind def
718.256 72.9 o
grestore
gsave
/o {
gsave
newpath
translate
0.5 setlinewidth
1 setlinejoin
0 setlinecap
0 0 m
0 -4 l
gsave
0.000 setgray
fill
grestore
stroke
grestore
} bind def
718.256 656.1 o
grestore
gsave
700.537500 53.696875 translate
0.000000 rotate
0.000000 0.000000 m /six glyphshow
12.724609 0.000000 m /zero glyphshow
25.449219 0.000000 m /zero glyphshow
grestore
gsave
/o {
gsave
newpath
translate
0.5 setlinewidth
1 setlinejoin
0 setlinecap
0 0 m
0 4 l
gsave
0.000 setgray
fill
grestore
stroke
grestore
} bind def
816.778 72.9 o
grestore
gsave
/o {
gsave
newpath
translate
0.5 setlinewidth
1 setlinejoin
0 setlinecap
0 0 m
0 -4 l
gsave
0.000 setgray
fill
grestore
stroke
grestore
} bind def
816.778 656.1 o
grestore
gsave
799.184375 53.696875 translate
0.000000 rotate
0.000000 0.000000 m /seven glyphshow
12.724609 0.000000 m /zero glyphshow
25.449219 0.000000 m /zero glyphshow
grestore
gsave
/o {
gsave
newpath
translate
0.5 setlinewidth
1 setlinejoin
0 setlinecap
0 0 m
0 4 l
gsave
0.000 setgray
fill
grestore
stroke
grestore
} bind def
915.3 72.9 o
grestore
gsave
/o {
gsave
newpath
translate
0.5 setlinewidth
1 setlinejoin
0 setlinecap
0 0 m
0 -4 l
gsave
0.000 setgray
fill
grestore
stroke
grestore
} bind def
915.3 656.1 o
grestore
gsave
897.565625 53.696875 translate
0.000000 rotate
0.000000 0.000000 m /eight glyphshow
12.724609 0.000000 m /zero glyphshow
25.449219 0.000000 m /zero glyphshow
grestore
gsave
466.829688 29.337500 translate
0.000000 rotate
0.000000 0.000000 m /G glyphshow
15.498047 0.000000 m /e glyphshow
27.802734 0.000000 m /n glyphshow
40.478516 0.000000 m /e glyphshow
52.783203 0.000000 m /r glyphshow
61.005859 0.000000 m /a glyphshow
73.261719 0.000000 m /t glyphshow
81.103516 0.000000 m /i glyphshow
86.660156 0.000000 m /o glyphshow
98.896484 0.000000 m /n glyphshow
grestore
gsave
/o {
gsave
newpath
translate
0.5 setlinewidth
1 setlinejoin
0 setlinecap
0 0 m
4 0 l
gsave
0.000 setgray
fill
grestore
stroke
grestore
} bind def
127.125 72.9 o
grestore
gsave
/o {
gsave
newpath
translate
0.5 setlinewidth
1 setlinejoin
0 setlinecap
0 0 m
-4 0 l
gsave
0.000 setgray
fill
grestore
stroke
grestore
} bind def
915.3 72.9 o
grestore
gsave
113.046875 67.376562 translate
0.000000 rotate
0.000000 0.000000 m /zero glyphshow
grestore
gsave
/o {
gsave
newpath
translate
0.5 setlinewidth
1 setlinejoin
0 setlinecap
0 0 m
4 0 l
gsave
0.000 setgray
fill
grestore
stroke
grestore
} bind def
127.125 164.025 o
grestore
gsave
/o {
gsave
newpath
translate
0.5 setlinewidth
1 setlinejoin
0 setlinecap
0 0 m
-4 0 l
gsave
0.000 setgray
fill
grestore
stroke
grestore
} bind def
915.3 164.025 o
grestore
gsave
113.687500 158.501562 translate
0.000000 rotate
0.000000 0.000000 m /five glyphshow
grestore
gsave
/o {
gsave
newpath
translate
0.5 setlinewidth
1 setlinejoin
0 setlinecap
0 0 m
4 0 l
gsave
0.000 setgray
fill
grestore
stroke
grestore
} bind def
127.125 255.15 o
grestore
gsave
/o {
gsave
newpath
translate
0.5 setlinewidth
1 setlinejoin
0 setlinecap
0 0 m
-4 0 l
gsave
0.000 setgray
fill
grestore
stroke
grestore
} bind def
915.3 255.15 o
grestore
gsave
101.218750 249.626562 translate
0.000000 rotate
0.000000 0.000000 m /one glyphshow
12.724609 0.000000 m /zero glyphshow
grestore
gsave
/o {
gsave
newpath
translate
0.5 setlinewidth
1 setlinejoin
0 setlinecap
0 0 m
4 0 l
gsave
0.000 setgray
fill
grestore
stroke
grestore
} bind def
127.125 346.275 o
grestore
gsave
/o {
gsave
newpath
translate
0.5 setlinewidth
1 setlinejoin
0 setlinecap
0 0 m
-4 0 l
gsave
0.000 setgray
fill
grestore
stroke
grestore
} bind def
915.3 346.275 o
grestore
gsave
101.625000 340.751562 translate
0.000000 rotate
0.000000 0.000000 m /one glyphshow
12.724609 0.000000 m /five glyphshow
grestore
gsave
/o {
gsave
newpath
translate
0.5 setlinewidth
1 setlinejoin
0 setlinecap
0 0 m
4 0 l
gsave
0.000 setgray
fill
grestore
stroke
grestore
} bind def
127.125 437.4 o
grestore
gsave
/o {
gsave
newpath
translate
0.5 setlinewidth
1 setlinejoin
0 setlinecap
0 0 m
-4 0 l
gsave
0.000 setgray
fill
grestore
stroke
grestore
} bind def
915.3 437.4 o
grestore
gsave
100.484375 431.876562 translate
0.000000 rotate
0.000000 0.000000 m /two glyphshow
12.724609 0.000000 m /zero glyphshow
grestore
gsave
/o {
gsave
newpath
translate
0.5 setlinewidth
1 setlinejoin
0 setlinecap
0 0 m
4 0 l
gsave
0.000 setgray
fill
grestore
stroke
grestore
} bind def
127.125 528.525 o
grestore
gsave
/o {
gsave
newpath
translate
0.5 setlinewidth
1 setlinejoin
0 setlinecap
0 0 m
-4 0 l
gsave
0.000 setgray
fill
grestore
stroke
grestore
} bind def
915.3 528.525 o
grestore
gsave
100.890625 523.001563 translate
0.000000 rotate
0.000000 0.000000 m /two glyphshow
12.724609 0.000000 m /five glyphshow
grestore
gsave
/o {
gsave
newpath
translate
0.5 setlinewidth
1 setlinejoin
0 setlinecap
0 0 m
4 0 l
gsave
0.000 setgray
fill
grestore
stroke
grestore
} bind def
127.125 619.65 o
grestore
gsave
/o {
gsave
newpath
translate
0.5 setlinewidth
1 setlinejoin
0 setlinecap
0 0 m
-4 0 l
gsave
0.000 setgray
fill
grestore
stroke
grestore
} bind def
915.3 619.65 o
grestore
gsave
100.546875 614.126562 translate
0.000000 rotate
0.000000 0.000000 m /three glyphshow
12.724609 0.000000 m /zero glyphshow
grestore
gsave
91.328125 331.359375 translate
90.000000 rotate
0.000000 0.000000 m /F glyphshow
10.003906 0.000000 m /i glyphshow
15.560547 0.000000 m /t glyphshow
23.402344 0.000000 m /n glyphshow
36.078125 0.000000 m /e glyphshow
48.382812 0.000000 m /s glyphshow
58.802734 0.000000 m /s glyphshow
grestore
1.000 setlinewidth
gsave
127.125 656.1 m
915.3 656.1 l
stroke
grestore
gsave
915.3 72.9 m
915.3 656.1 l
stroke
grestore
gsave
127.125 72.9 m
915.3 72.9 l
stroke
grestore
gsave
127.125 72.9 m
127.125 656.1 l
stroke
grestore
gsave
700.197 84.9 m
903.3 84.9 l
903.3 162.569 l
700.197 162.569 l
700.197 84.9 l
cl
gsave
1.000 setgray
fill
grestore
stroke
grestore
2 setlinecap
gsave
716.997 143.134 m
750.597 143.134 l
stroke
grestore
/DejaVuSans findfont
24.000 scalefont
setfont
gsave
776.996875 134.734375 translate
0.000000 rotate
0.000000 0.000000 m /m glyphshow
23.378906 0.000000 m /a glyphshow
38.085938 0.000000 m /x glyphshow
52.289062 0.000000 m /i glyphshow
58.957031 0.000000 m /m glyphshow
82.335938 0.000000 m /u glyphshow
97.546875 0.000000 m /m glyphshow
grestore
0 setlinecap
[6 6] 0 setdash
gsave
716.997 107.9 m
750.597 107.9 l
stroke
grestore
gsave
776.996875 99.500000 translate
0.000000 rotate
0.000000 0.000000 m /a glyphshow
14.707031 0.000000 m /v glyphshow
28.910156 0.000000 m /e glyphshow
43.675781 0.000000 m /r glyphshow
53.542969 0.000000 m /a glyphshow
68.250000 0.000000 m /g glyphshow
83.484375 0.000000 m /e glyphshow
grestore

end
showpage
