%!PS-Adobe-3.0 EPSF-3.0
%%Title: /home/david/Documents/Research_Report/gfx/waypoint_ga_early.eps
%%Creator: matplotlib version 1.3.1, http://matplotlib.org/
%%CreationDate: Thu Aug 13 12:43:38 2015
%%Orientation: portrait
%%BoundingBox: -202 31 814 760
%%EndComments
%%BeginProlog
/mpldict 8 dict def
mpldict begin
/m { moveto } bind def
/l { lineto } bind def
/r { rlineto } bind def
/c { curveto } bind def
/cl { closepath } bind def
/box {
m
1 index 0 r
0 exch r
neg 0 r
cl
} bind def
/clipbox {
box
clip
newpath
} bind def
%!PS-Adobe-3.0 Resource-Font
%%Title: DejaVu Sans
%%Copyright: Copyright (c) 2003 by Bitstream, Inc. All Rights Reserved. Copyright (c) 2006 by Tavmjong Bah. All Rights Reserved. DejaVu changes are in public domain 
%%Creator: Converted from TrueType to type 3 by PPR
25 dict begin
/_d{bind def}bind def
/_m{moveto}_d
/_l{lineto}_d
/_cl{closepath eofill}_d
/_c{curveto}_d
/_sc{7 -1 roll{setcachedevice}{pop pop pop pop pop pop}ifelse}_d
/_e{exec}_d
/FontName /DejaVuSans def
/PaintType 0 def
/FontMatrix[.001 0 0 .001 0 0]def
/FontBBox[-1021 -415 1681 1167]def
/FontType 3 def
/Encoding [ /zero /one /two /three /four /five /six /seven /eight /F /G /a /e /g /i /m /n /o /r /s /t /u /v /x ] def
/FontInfo 10 dict dup begin
/FamilyName (DejaVu Sans) def
/FullName (DejaVu Sans) def
/Notice (Copyright (c) 2003 by Bitstream, Inc. All Rights Reserved. Copyright (c) 2006 by Tavmjong Bah. All Rights Reserved. DejaVu changes are in public domain ) def
/Weight (Book) def
/Version (Version 2.34) def
/ItalicAngle 0.0 def
/isFixedPitch false def
/UnderlinePosition -130 def
/UnderlineThickness 90 def
end readonly def
/CharStrings 24 dict dup begin
/zero{636 0 66 -13 570 742 _sc
318 664 _m
267 664 229 639 203 589 _c
177 539 165 464 165 364 _c
165 264 177 189 203 139 _c
229 89 267 64 318 64 _c
369 64 407 89 433 139 _c
458 189 471 264 471 364 _c
471 464 458 539 433 589 _c
407 639 369 664 318 664 _c
318 742 _m
399 742 461 709 505 645 _c
548 580 570 486 570 364 _c
570 241 548 147 505 83 _c
461 19 399 -13 318 -13 _c
236 -13 173 19 130 83 _c
87 147 66 241 66 364 _c
66 486 87 580 130 645 _c
173 709 236 742 318 742 _c
_cl}_d
/one{636 0 110 0 544 729 _sc
124 83 _m
285 83 _l
285 639 _l
110 604 _l
110 694 _l
284 729 _l
383 729 _l
383 83 _l
544 83 _l
544 0 _l
124 0 _l
124 83 _l
_cl}_d
/two{{636 0 73 0 536 742 _sc
192 83 _m
536 83 _l
536 0 _l
73 0 _l
73 83 _l
110 121 161 173 226 239 _c
290 304 331 346 348 365 _c
380 400 402 430 414 455 _c
426 479 433 504 433 528 _c
433 566 419 598 392 622 _c
365 646 330 659 286 659 _c
255 659 222 653 188 643 _c
154 632 117 616 78 594 _c
78 694 _l
118 710 155 722 189 730 _c
223 738 255 742 284 742 _c
}_e{359 742 419 723 464 685 _c
509 647 532 597 532 534 _c
532 504 526 475 515 449 _c
504 422 484 390 454 354 _c
446 344 420 317 376 272 _c
332 227 271 164 192 83 _c
_cl}_e}_d
/three{{636 0 76 -13 556 742 _sc
406 393 _m
453 383 490 362 516 330 _c
542 298 556 258 556 212 _c
556 140 531 84 482 45 _c
432 6 362 -13 271 -13 _c
240 -13 208 -10 176 -4 _c
144 1 110 10 76 22 _c
76 117 _l
103 101 133 89 166 81 _c
198 73 232 69 268 69 _c
330 69 377 81 409 105 _c
441 129 458 165 458 212 _c
458 254 443 288 413 312 _c
383 336 341 349 287 349 _c
}_e{202 349 _l
202 430 _l
291 430 _l
339 430 376 439 402 459 _c
428 478 441 506 441 543 _c
441 580 427 609 401 629 _c
374 649 336 659 287 659 _c
260 659 231 656 200 650 _c
169 644 135 635 98 623 _c
98 711 _l
135 721 170 729 203 734 _c
235 739 266 742 296 742 _c
370 742 429 725 473 691 _c
517 657 539 611 539 553 _c
539 513 527 479 504 451 _c
481 423 448 403 406 393 _c
_cl}_e}_d
/four{636 0 49 0 580 729 _sc
378 643 _m
129 254 _l
378 254 _l
378 643 _l
352 729 _m
476 729 _l
476 254 _l
580 254 _l
580 172 _l
476 172 _l
476 0 _l
378 0 _l
378 172 _l
49 172 _l
49 267 _l
352 729 _l
_cl}_d
/five{{636 0 77 -13 549 729 _sc
108 729 _m
495 729 _l
495 646 _l
198 646 _l
198 467 _l
212 472 227 476 241 478 _c
255 480 270 482 284 482 _c
365 482 429 459 477 415 _c
525 370 549 310 549 234 _c
549 155 524 94 475 51 _c
426 8 357 -13 269 -13 _c
238 -13 207 -10 175 -6 _c
143 -1 111 6 77 17 _c
77 116 _l
106 100 136 88 168 80 _c
199 72 232 69 267 69 _c
}_e{323 69 368 83 401 113 _c
433 143 450 183 450 234 _c
450 284 433 324 401 354 _c
368 384 323 399 267 399 _c
241 399 214 396 188 390 _c
162 384 135 375 108 363 _c
108 729 _l
_cl}_e}_d
/six{{636 0 70 -13 573 742 _sc
330 404 _m
286 404 251 388 225 358 _c
199 328 186 286 186 234 _c
186 181 199 139 225 109 _c
251 79 286 64 330 64 _c
374 64 409 79 435 109 _c
461 139 474 181 474 234 _c
474 286 461 328 435 358 _c
409 388 374 404 330 404 _c
526 713 _m
526 623 _l
501 635 476 644 451 650 _c
425 656 400 659 376 659 _c
310 659 260 637 226 593 _c
}_e{192 549 172 482 168 394 _c
187 422 211 444 240 459 _c
269 474 301 482 336 482 _c
409 482 467 459 509 415 _c
551 371 573 310 573 234 _c
573 159 550 99 506 54 _c
462 9 403 -13 330 -13 _c
246 -13 181 19 137 83 _c
92 147 70 241 70 364 _c
70 479 97 571 152 639 _c
206 707 280 742 372 742 _c
396 742 421 739 447 735 _c
472 730 498 723 526 713 _c
_cl}_e}_d
/seven{636 0 82 0 551 729 _sc
82 729 _m
551 729 _l
551 687 _l
286 0 _l
183 0 _l
432 646 _l
82 646 _l
82 729 _l
_cl}_d
/eight{{636 0 68 -13 568 742 _sc
318 346 _m
271 346 234 333 207 308 _c
180 283 167 249 167 205 _c
167 161 180 126 207 101 _c
234 76 271 64 318 64 _c
364 64 401 76 428 102 _c
455 127 469 161 469 205 _c
469 249 455 283 429 308 _c
402 333 365 346 318 346 _c
219 388 _m
177 398 144 418 120 447 _c
96 476 85 511 85 553 _c
85 611 105 657 147 691 _c
188 725 245 742 318 742 _c
}_e{390 742 447 725 489 691 _c
530 657 551 611 551 553 _c
551 511 539 476 515 447 _c
491 418 459 398 417 388 _c
464 377 501 355 528 323 _c
554 291 568 251 568 205 _c
568 134 546 80 503 43 _c
459 5 398 -13 318 -13 _c
237 -13 175 5 132 43 _c
89 80 68 134 68 205 _c
68 251 81 291 108 323 _c
134 355 171 377 219 388 _c
183 544 _m
183 506 194 476 218 455 _c
}_e{242 434 275 424 318 424 _c
360 424 393 434 417 455 _c
441 476 453 506 453 544 _c
453 582 441 611 417 632 _c
393 653 360 664 318 664 _c
275 664 242 653 218 632 _c
194 611 183 582 183 544 _c
_cl}_e}_d
/F{575 0 98 0 517 729 _sc
98 729 _m
517 729 _l
517 646 _l
197 646 _l
197 431 _l
486 431 _l
486 348 _l
197 348 _l
197 0 _l
98 0 _l
98 729 _l
_cl}_d
/G{{775 0 56 -13 693 742 _sc
595 104 _m
595 300 _l
434 300 _l
434 381 _l
693 381 _l
693 68 _l
655 40 613 20 567 7 _c
521 -6 472 -13 420 -13 _c
306 -13 216 20 152 86 _c
88 152 56 245 56 364 _c
56 482 88 575 152 642 _c
216 708 306 742 420 742 _c
467 742 512 736 555 724 _c
598 712 638 695 674 673 _c
674 568 _l
637 598 598 621 557 637 _c
516 653 473 661 428 661 _c
}_e{338 661 271 636 227 586 _c
182 536 160 462 160 364 _c
160 265 182 191 227 141 _c
271 91 338 67 428 67 _c
462 67 493 70 521 76 _c
549 82 573 91 595 104 _c
_cl}_e}_d
/a{{613 0 60 -13 522 560 _sc
343 275 _m
270 275 220 266 192 250 _c
164 233 150 205 150 165 _c
150 133 160 107 181 89 _c
202 70 231 61 267 61 _c
317 61 357 78 387 114 _c
417 149 432 196 432 255 _c
432 275 _l
343 275 _l
522 312 _m
522 0 _l
432 0 _l
432 83 _l
411 49 385 25 355 10 _c
325 -5 287 -13 243 -13 _c
187 -13 142 2 109 33 _c
76 64 60 106 60 159 _c
}_e{60 220 80 266 122 298 _c
163 329 224 345 306 345 _c
432 345 _l
432 354 _l
432 395 418 427 391 450 _c
364 472 326 484 277 484 _c
245 484 215 480 185 472 _c
155 464 127 453 100 439 _c
100 522 _l
132 534 164 544 195 550 _c
226 556 256 560 286 560 _c
365 560 424 539 463 498 _c
502 457 522 395 522 312 _c
_cl}_e}_d
/e{{615 0 55 -13 562 560 _sc
562 296 _m
562 252 _l
149 252 _l
153 190 171 142 205 110 _c
238 78 284 62 344 62 _c
378 62 412 66 444 74 _c
476 82 509 95 541 113 _c
541 28 _l
509 14 476 3 442 -3 _c
408 -9 373 -13 339 -13 _c
251 -13 182 12 131 62 _c
80 112 55 181 55 268 _c
55 357 79 428 127 481 _c
175 533 241 560 323 560 _c
397 560 455 536 498 489 _c
}_e{540 441 562 377 562 296 _c
472 322 _m
471 371 457 410 431 440 _c
404 469 368 484 324 484 _c
274 484 234 469 204 441 _c
174 413 156 373 152 322 _c
472 322 _l
_cl}_e}_d
/g{{635 0 55 -207 544 560 _sc
454 280 _m
454 344 440 395 414 431 _c
387 467 349 485 301 485 _c
253 485 215 467 188 431 _c
161 395 148 344 148 280 _c
148 215 161 165 188 129 _c
215 93 253 75 301 75 _c
349 75 387 93 414 129 _c
440 165 454 215 454 280 _c
544 68 _m
544 -24 523 -93 482 -139 _c
440 -184 377 -207 292 -207 _c
260 -207 231 -204 203 -200 _c
175 -195 147 -188 121 -178 _c
}_e{121 -91 _l
147 -105 173 -115 199 -122 _c
225 -129 251 -133 278 -133 _c
336 -133 380 -117 410 -87 _c
439 -56 454 -10 454 52 _c
454 96 _l
435 64 411 40 382 24 _c
353 8 319 0 279 0 _c
211 0 157 25 116 76 _c
75 127 55 195 55 280 _c
55 364 75 432 116 483 _c
157 534 211 560 279 560 _c
319 560 353 552 382 536 _c
411 520 435 496 454 464 _c
454 547 _l
544 547 _l
}_e{544 68 _l
_cl}_e}_d
/i{278 0 94 0 184 760 _sc
94 547 _m
184 547 _l
184 0 _l
94 0 _l
94 547 _l
94 760 _m
184 760 _l
184 646 _l
94 646 _l
94 760 _l
_cl}_d
/m{{974 0 91 0 889 560 _sc
520 442 _m
542 482 569 511 600 531 _c
631 550 668 560 711 560 _c
767 560 811 540 842 500 _c
873 460 889 403 889 330 _c
889 0 _l
799 0 _l
799 327 _l
799 379 789 418 771 444 _c
752 469 724 482 686 482 _c
639 482 602 466 575 435 _c
548 404 535 362 535 309 _c
535 0 _l
445 0 _l
445 327 _l
445 379 435 418 417 444 _c
398 469 369 482 331 482 _c
}_e{285 482 248 466 221 435 _c
194 404 181 362 181 309 _c
181 0 _l
91 0 _l
91 547 _l
181 547 _l
181 462 _l
201 495 226 520 255 536 _c
283 552 317 560 357 560 _c
397 560 430 550 458 530 _c
486 510 506 480 520 442 _c
_cl}_e}_d
/n{634 0 91 0 549 560 _sc
549 330 _m
549 0 _l
459 0 _l
459 327 _l
459 379 448 417 428 443 _c
408 469 378 482 338 482 _c
289 482 251 466 223 435 _c
195 404 181 362 181 309 _c
181 0 _l
91 0 _l
91 547 _l
181 547 _l
181 462 _l
202 494 227 519 257 535 _c
286 551 320 560 358 560 _c
420 560 468 540 500 501 _c
532 462 549 405 549 330 _c
_cl}_d
/o{612 0 55 -13 557 560 _sc
306 484 _m
258 484 220 465 192 427 _c
164 389 150 338 150 273 _c
150 207 163 156 191 118 _c
219 80 257 62 306 62 _c
354 62 392 80 420 118 _c
448 156 462 207 462 273 _c
462 337 448 389 420 427 _c
392 465 354 484 306 484 _c
306 560 _m
384 560 445 534 490 484 _c
534 433 557 363 557 273 _c
557 183 534 113 490 63 _c
445 12 384 -13 306 -13 _c
227 -13 165 12 121 63 _c
77 113 55 183 55 273 _c
55 363 77 433 121 484 _c
165 534 227 560 306 560 _c
_cl}_d
/r{411 0 91 0 411 560 _sc
411 463 _m
401 469 390 473 378 476 _c
366 478 353 480 339 480 _c
288 480 249 463 222 430 _c
194 397 181 350 181 288 _c
181 0 _l
91 0 _l
91 547 _l
181 547 _l
181 462 _l
199 495 224 520 254 536 _c
284 552 321 560 365 560 _c
371 560 378 559 386 559 _c
393 558 401 557 411 555 _c
411 463 _l
_cl}_d
/s{{521 0 54 -13 472 560 _sc
443 531 _m
443 446 _l
417 458 391 468 364 475 _c
336 481 308 485 279 485 _c
234 485 200 478 178 464 _c
156 450 145 430 145 403 _c
145 382 153 366 169 354 _c
185 342 217 330 265 320 _c
296 313 _l
360 299 405 279 432 255 _c
458 230 472 195 472 151 _c
472 100 452 60 412 31 _c
372 1 316 -13 246 -13 _c
216 -13 186 -10 154 -5 _c
}_e{122 0 89 8 54 20 _c
54 113 _l
87 95 120 82 152 74 _c
184 65 216 61 248 61 _c
290 61 323 68 346 82 _c
368 96 380 117 380 144 _c
380 168 371 187 355 200 _c
339 213 303 226 247 238 _c
216 245 _l
160 257 119 275 95 299 _c
70 323 58 356 58 399 _c
58 450 76 490 112 518 _c
148 546 200 560 268 560 _c
301 560 332 557 362 552 _c
391 547 418 540 443 531 _c
}_e{_cl}_e}_d
/t{392 0 27 0 368 702 _sc
183 702 _m
183 547 _l
368 547 _l
368 477 _l
183 477 _l
183 180 _l
183 135 189 106 201 94 _c
213 81 238 75 276 75 _c
368 75 _l
368 0 _l
276 0 _l
206 0 158 13 132 39 _c
106 65 93 112 93 180 _c
93 477 _l
27 477 _l
27 547 _l
93 547 _l
93 702 _l
183 702 _l
_cl}_d
/u{634 0 85 -13 543 560 _sc
85 216 _m
85 547 _l
175 547 _l
175 219 _l
175 167 185 129 205 103 _c
225 77 255 64 296 64 _c
344 64 383 79 411 110 _c
439 141 453 183 453 237 _c
453 547 _l
543 547 _l
543 0 _l
453 0 _l
453 84 _l
431 50 405 26 377 10 _c
348 -5 315 -13 277 -13 _c
214 -13 166 6 134 45 _c
101 83 85 140 85 216 _c
311 560 _m
311 560 _l
_cl}_d
/v{592 0 30 0 562 547 _sc
30 547 _m
125 547 _l
296 88 _l
467 547 _l
562 547 _l
357 0 _l
235 0 _l
30 547 _l
_cl}_d
/x{592 0 29 0 559 547 _sc
549 547 _m
351 281 _l
559 0 _l
453 0 _l
294 215 _l
135 0 _l
29 0 _l
241 286 _l
47 547 _l
153 547 _l
298 352 _l
443 547 _l
549 547 _l
_cl}_d
end readonly def

/BuildGlyph
 {exch begin
 CharStrings exch
 2 copy known not{pop /.notdef}if
 true 3 1 roll get exec
 end}_d

/BuildChar {
 1 index /Encoding get exch get
 1 index /BuildGlyph get exec
}_d

FontName currentdict end definefont pop
end
%%EndProlog
mpldict begin
-202.5 31.5 translate
1017 729 0 0 clipbox
gsave
0 0 m
1017 0 l
1017 729 l
0 729 l
cl
1.000 setgray
fill
grestore
gsave
127.125 72.9 m
915.3 72.9 l
915.3 656.1 l
127.125 656.1 l
cl
1.000 setgray
fill
grestore
1.000 setlinewidth
1 setlinejoin
2 setlinecap
[] 0 setdash
0.000 setgray
gsave
788.2 583.2 127.1 72.9 clipbox
127.125 389.2 m
128.11 391.945 l
129.095 400.864 l
130.081 408.412 l
132.051 435.17 l
133.036 438.601 l
134.022 453.695 l
135.007 464.673 l
135.992 468.104 l
136.977 473.593 l
137.962 480.454 l
138.948 494.862 l
139.933 501.724 l
140.918 510.643 l
141.903 514.074 l
142.888 516.132 l
144.859 531.913 l
145.844 533.971 l
146.829 537.402 l
147.815 540.146 l
148.8 544.263 l
149.785 545.635 l
150.77 549.066 l
151.755 549.752 l
152.741 553.182 l
155.696 553.182 l
156.682 555.927 l
157.667 557.985 l
158.652 559.357 l
159.637 562.102 l
160.622 562.102 l
161.608 562.788 l
162.593 565.532 l
163.578 565.532 l
164.563 566.219 l
165.549 566.219 l
166.534 566.905 l
167.519 566.905 l
168.504 568.277 l
170.475 568.277 l
171.46 569.649 l
178.356 569.649 l
180.327 572.394 l
182.297 572.394 l
183.282 573.766 l
193.135 573.766 l
194.12 574.452 l
199.046 574.452 l
201.016 575.824 l
231.558 575.824 l
232.543 576.51 l
236.484 576.51 l
237.47 577.196 l
261.115 577.196 l
262.1 577.883 l
302.494 577.883 l
303.479 579.255 l
304.464 579.255 l
305.45 579.941 l
309.39 579.941 l
310.376 580.627 l
323.184 580.627 l
324.169 363.128 l
325.154 389.886 l
326.139 398.12 l
327.124 402.923 l
328.11 417.331 l
329.095 429.681 l
330.08 437.915 l
331.065 443.404 l
332.051 449.579 l
333.036 461.243 l
334.021 461.929 l
335.006 472.22 l
335.991 473.593 l
336.977 486.629 l
337.962 490.746 l
338.947 499.665 l
339.932 505.84 l
340.917 505.84 l
341.903 506.526 l
342.888 510.643 l
343.873 516.818 l
344.858 518.876 l
346.829 529.854 l
348.799 531.227 l
349.784 534.657 l
350.77 535.343 l
351.755 536.716 l
352.74 538.774 l
353.725 540.146 l
354.711 543.577 l
355.696 544.949 l
357.666 549.066 l
358.651 551.81 l
359.637 551.81 l
360.622 553.868 l
361.607 558.671 l
362.592 562.102 l
364.563 562.102 l
365.548 562.788 l
366.533 566.219 l
370.474 566.219 l
371.459 568.277 l
372.444 569.649 l
373.43 569.649 l
374.415 571.021 l
375.4 571.708 l
376.385 573.08 l
378.356 573.08 l
379.341 574.452 l
380.326 577.196 l
383.282 577.196 l
384.267 577.883 l
387.223 577.883 l
388.208 578.569 l
389.193 578.569 l
390.178 579.941 l
396.09 579.941 l
397.075 581.313 l
402.986 581.313 l
403.971 581.999 l
413.824 581.999 l
414.809 584.058 l
416.779 584.058 l
417.765 584.744 l
418.75 586.116 l
420.72 586.116 l
421.705 588.174 l
441.41 588.174 l
442.395 590.233 l
461.114 590.233 l
462.099 591.605 l
469.981 591.605 l
470.966 592.977 l
520.227 592.977 l
521.213 369.303 l
522.198 386.456 l
524.168 397.434 l
525.153 410.47 l
527.124 427.623 l
528.109 437.915 l
529.094 442.031 l
530.079 445.462 l
531.065 455.068 l
532.05 466.732 l
533.035 473.593 l
534.02 479.082 l
535.006 488.001 l
535.991 492.804 l
536.976 496.921 l
537.961 508.585 l
538.946 514.074 l
539.932 518.876 l
540.917 520.249 l
541.902 528.482 l
542.887 535.343 l
543.873 537.402 l
544.858 538.774 l
545.843 539.46 l
547.813 544.949 l
548.799 544.949 l
549.784 545.635 l
551.754 545.635 l
552.74 546.321 l
553.725 546.321 l
554.71 547.007 l
555.695 549.752 l
556.68 550.438 l
557.666 552.496 l
560.621 552.496 l
561.606 553.182 l
562.592 553.182 l
564.562 554.555 l
565.547 554.555 l
566.533 555.927 l
568.503 555.927 l
569.488 557.985 l
570.473 557.985 l
571.459 559.357 l
572.444 559.357 l
573.429 561.416 l
575.4 561.416 l
576.385 562.788 l
577.37 562.788 l
578.355 564.846 l
579.34 564.846 l
581.311 567.591 l
586.237 567.591 l
587.222 568.277 l
588.207 568.277 l
589.193 569.649 l
598.06 569.649 l
599.045 571.708 l
610.867 571.708 l
612.838 573.08 l
627.616 573.08 l
628.601 575.138 l
644.365 575.138 l
645.35 575.824 l
663.084 575.824 l
664.069 576.51 l
670.966 576.51 l
671.951 577.196 l
690.67 577.196 l
691.655 577.883 l
692.641 579.941 l
700.522 579.941 l
701.508 580.627 l
717.271 580.627 l
718.256 381.653 l
719.241 398.806 l
720.227 406.353 l
721.212 412.528 l
722.197 422.134 l
723.182 434.484 l
724.168 437.915 l
725.153 446.834 l
726.138 453.695 l
727.123 463.987 l
728.108 471.534 l
729.094 481.14 l
730.079 485.257 l
731.064 490.746 l
732.049 501.724 l
733.035 504.468 l
734.02 516.132 l
735.005 520.935 l
735.99 531.913 l
736.975 532.599 l
737.961 536.029 l
738.946 542.891 l
739.931 547.693 l
741.902 550.438 l
742.887 552.496 l
743.872 557.985 l
744.857 557.985 l
745.842 560.044 l
746.828 560.73 l
747.813 560.73 l
748.798 564.16 l
749.783 566.219 l
750.768 567.591 l
751.754 569.649 l
752.739 571.021 l
753.724 571.021 l
754.709 571.708 l
756.68 574.452 l
757.665 574.452 l
758.65 576.51 l
760.621 577.883 l
761.606 577.883 l
762.591 578.569 l
763.576 579.941 l
764.562 582.685 l
765.547 584.744 l
767.517 584.744 l
768.502 586.116 l
772.443 586.116 l
773.429 586.802 l
776.384 586.802 l
777.369 587.488 l
779.34 587.488 l
780.325 590.919 l
792.148 590.919 l
793.133 592.291 l
794.118 592.977 l
798.059 592.977 l
799.044 594.349 l
809.882 594.349 l
810.867 595.036 l
823.675 595.036 l
824.66 597.094 l
836.483 597.094 l
837.468 599.152 l
838.453 599.152 l
839.438 600.524 l
845.349 600.524 l
846.335 601.897 l
847.32 602.583 l
858.157 602.583 l
859.143 604.641 l
864.069 604.641 l
865.054 605.327 l
867.024 605.327 l
868.01 606.7 l
914.315 606.7 l
915.3 341.858 l
916.285 354.894 l
916.285 354.894 l
stroke
grestore
0 setlinecap
[6 6] 0 setdash
gsave
788.2 583.2 127.1 72.9 clipbox
127.125 131.548 m
129.095 137.41 l
132.051 147.362 l
134.022 155.054 l
135.992 163.997 l
137.962 175.333 l
139.933 188.048 l
141.903 202.155 l
143.874 218.358 l
146.829 245.361 l
156.682 340.308 l
160.622 374.436 l
165.549 410.305 l
169.489 434.599 l
170.475 440.171 l
173.43 454.69 l
176.386 466.6 l
178.356 473.513 l
180.327 478.751 l
181.312 481.713 l
183.282 486.075 l
184.268 487.765 l
185.253 489.972 l
187.223 493.695 l
191.164 499.051 l
192.149 500.468 l
193.135 501.066 l
194.12 502.351 l
196.09 504.265 l
197.076 505.71 l
198.061 506.576 l
200.031 507.653 l
201.016 508.083 l
202.002 509.212 l
202.987 509.376 l
205.942 510.916 l
206.928 511.101 l
208.898 512.494 l
210.869 513.114 l
211.854 513.399 l
212.839 513.403 l
213.824 514.001 l
214.809 514.12 l
215.795 513.889 l
218.75 514.874 l
219.736 515.283 l
221.706 515.518 l
222.691 515.153 l
223.676 515.22 l
224.662 515.399 l
225.647 515.777 l
226.632 515.751 l
227.617 516.032 l
229.588 515.64 l
230.573 516.432 l
231.558 516.869 l
232.543 516.013 l
233.529 516.537 l
235.499 516.485 l
236.484 516.899 l
237.47 516.999 l
239.44 516.883 l
240.425 516.435 l
241.41 516.321 l
242.396 516.749 l
246.336 516.806 l
247.322 517.225 l
248.307 517.106 l
249.292 516.841 l
251.263 517.014 l
252.248 517.765 l
253.233 517.228 l
254.218 517.17 l
255.203 517.657 l
256.189 517.515 l
257.174 517.25 l
258.159 517.843 l
260.13 518.286 l
261.115 518.55 l
263.085 519.424 l
265.056 519.569 l
270.967 518.954 l
272.937 519.486 l
273.923 518.879 l
274.908 518.497 l
275.893 519.37 l
276.878 518.946 l
277.863 519.076 l
278.849 518.766 l
279.834 518.796 l
280.819 518.488 l
283.775 518.911 l
284.76 518.281 l
286.73 518.557 l
288.701 519.071 l
289.686 520.144 l
290.671 519.599 l
292.642 519.655 l
293.627 519.914 l
294.612 519.196 l
295.597 519.334 l
296.583 518.667 l
297.568 518.153 l
298.553 518.428 l
299.538 518.914 l
300.524 518.761 l
301.509 519.237 l
303.479 519.462 l
304.464 519.311 l
305.45 519.574 l
306.435 519.485 l
307.42 519.995 l
308.405 520.289 l
309.39 520.168 l
311.361 519.548 l
312.346 519.634 l
313.331 519.848 l
314.317 519.928 l
319.243 519.208 l
320.228 519.17 l
321.213 519.312 l
322.198 519.756 l
323.184 519.948 l
324.169 143.026 l
326.139 146.986 l
328.11 151.557 l
329.095 154.013 l
331.065 159.643 l
333.036 166.364 l
335.006 174.345 l
335.991 179.075 l
337.962 190.138 l
339.932 203.18 l
340.917 210.381 l
343.873 235.754 l
346.829 264.121 l
352.74 321.597 l
354.711 339.049 l
357.666 363.087 l
359.637 377.049 l
361.607 390.234 l
363.578 401.395 l
366.533 417.344 l
367.518 422.019 l
368.504 426.073 l
369.489 431.53 l
371.459 440.69 l
373.43 448.421 l
374.415 451.132 l
376.385 458.445 l
378.356 464.588 l
379.341 467.053 l
381.311 472.556 l
383.282 477.268 l
385.252 480.638 l
386.238 482.225 l
387.223 483.48 l
388.208 485.27 l
389.193 486.32 l
390.178 487.638 l
393.134 492.615 l
395.105 495.15 l
396.09 496.154 l
398.06 499.098 l
399.045 500.653 l
400.031 501.271 l
402.001 504.647 l
402.986 505.628 l
403.971 506.936 l
404.957 507.528 l
406.927 509 l
407.912 510.218 l
408.898 510.691 l
409.883 511.758 l
413.824 514.142 l
414.809 514.507 l
415.794 514.726 l
416.779 515.186 l
417.765 516.094 l
418.75 516.251 l
419.735 516.798 l
420.72 516.743 l
421.705 517.381 l
422.691 517.751 l
423.676 517.983 l
424.661 517.928 l
426.632 518.302 l
427.617 518.822 l
428.602 519 l
429.587 519.486 l
430.572 519.477 l
431.558 519.874 l
432.543 519.972 l
433.528 520.475 l
434.513 520.726 l
435.498 520.794 l
436.484 520.507 l
437.469 520.407 l
439.439 520.654 l
440.425 520.46 l
441.41 521.235 l
442.395 520.947 l
443.38 521.271 l
444.365 521.972 l
446.336 522.096 l
447.321 522.45 l
448.306 523.017 l
449.292 523.437 l
450.277 524.101 l
451.262 524.258 l
453.232 524.313 l
454.218 524.7 l
455.203 525.445 l
456.188 525.188 l
457.173 525.798 l
458.159 525.654 l
459.144 525.074 l
460.129 525.233 l
461.114 525.076 l
462.099 525.097 l
463.085 525.76 l
464.07 526.191 l
465.055 526.153 l
466.04 526.861 l
467.025 526.856 l
468.011 526.501 l
468.996 526.865 l
469.981 527.504 l
470.966 527.606 l
472.937 527.543 l
473.922 527.281 l
474.907 527.69 l
476.878 527.576 l
477.863 528.084 l
478.848 527.483 l
479.833 527.716 l
480.819 527.697 l
481.804 528.38 l
482.789 528.379 l
483.774 528.107 l
484.759 528.611 l
485.745 529.323 l
486.73 529.819 l
487.715 529.41 l
488.7 528.704 l
489.686 528.831 l
490.671 529.284 l
491.656 529.375 l
493.626 529.047 l
494.612 529.23 l
496.582 528.912 l
497.567 529.563 l
498.552 529.577 l
499.538 529.427 l
500.523 529.574 l
501.508 529.412 l
502.493 528.609 l
503.479 528.903 l
504.464 529.043 l
505.449 529.505 l
507.419 529.536 l
508.405 529.121 l
509.39 529.114 l
510.375 529.511 l
512.346 529.773 l
513.331 530.083 l
514.316 530.061 l
515.301 529.898 l
516.286 530.329 l
518.257 530.053 l
519.242 530.537 l
520.227 531.296 l
521.213 138.632 l
524.168 146.419 l
525.153 149.257 l
528.109 159.03 l
530.079 166.451 l
532.05 175.536 l
533.035 180.327 l
534.02 185.7 l
535.991 198.468 l
537.961 212.563 l
539.932 228.512 l
541.902 245.725 l
545.843 282.506 l
548.799 310.369 l
552.74 345.355 l
554.71 361.513 l
557.666 383.87 l
558.651 390.838 l
563.577 420.985 l
568.503 445.147 l
571.459 456.498 l
572.444 459.824 l
573.429 463.545 l
575.4 469.475 l
578.355 477.209 l
582.296 485.075 l
585.252 488.536 l
586.237 489.312 l
587.222 490.9 l
588.207 491.883 l
589.193 492.298 l
590.178 493.235 l
591.163 493.887 l
592.148 494.708 l
593.133 494.83 l
594.119 495.423 l
595.104 496.44 l
596.089 496.745 l
597.074 497.596 l
598.06 497.492 l
600.03 498.548 l
602 500.121 l
602.986 500.245 l
603.971 500.232 l
604.956 500.834 l
606.927 501.639 l
610.867 504.008 l
611.853 505.226 l
612.838 505.944 l
613.823 506.175 l
614.808 506.851 l
615.793 507.177 l
616.779 507.363 l
617.764 507.81 l
622.69 508.953 l
623.675 509.419 l
624.66 509.508 l
625.646 510.115 l
627.616 510.782 l
630.572 511.135 l
632.542 511.127 l
633.527 511.799 l
634.513 512.008 l
635.498 511.582 l
636.483 512.048 l
637.468 512.274 l
638.454 512.626 l
639.439 513.188 l
640.424 512.913 l
641.409 513.405 l
644.365 513.317 l
645.35 513.661 l
646.335 513.654 l
647.321 513.459 l
648.306 513.737 l
651.261 513.637 l
652.247 514.375 l
655.202 515.549 l
657.173 515.716 l
658.158 516.002 l
659.143 515.883 l
660.128 516.151 l
661.114 515.663 l
662.099 515.481 l
663.084 515.95 l
665.054 515.26 l
666.04 515.553 l
667.025 515.439 l
668.01 515.529 l
669.981 516.256 l
671.951 516.395 l
672.936 516.308 l
673.921 516.065 l
674.907 516.533 l
675.892 516.017 l
676.877 515.976 l
677.862 516.278 l
678.848 516.154 l
679.833 516.146 l
680.818 516.83 l
681.803 517.086 l
682.788 517.536 l
683.774 517.433 l
684.759 517.185 l
685.744 517.525 l
686.729 516.926 l
688.7 517.095 l
689.685 517.228 l
690.67 517.59 l
691.655 517.742 l
693.626 517.346 l
694.611 518.181 l
695.596 518.28 l
696.581 518.059 l
697.567 518.249 l
698.552 518.303 l
699.537 518.19 l
700.522 517.876 l
701.508 517.967 l
703.478 517.496 l
704.463 517.832 l
706.434 517.652 l
707.419 517.882 l
708.404 517.964 l
709.389 517.826 l
710.375 517.945 l
712.345 518.728 l
713.33 518.682 l
714.315 518.817 l
715.301 518.688 l
716.286 518.86 l
717.271 518.5 l
718.256 139.117 l
720.227 142.995 l
722.197 147.473 l
723.182 149.88 l
725.153 155.973 l
726.138 159.406 l
727.123 163.249 l
728.108 167.614 l
730.079 178.116 l
731.064 183.988 l
733.035 197.949 l
735.005 214.564 l
737.961 242.351 l
741.902 281.924 l
744.857 311.781 l
747.813 338.981 l
749.783 355.641 l
752.739 378.763 l
754.709 392.494 l
756.68 405.671 l
761.606 432.246 l
763.576 441.32 l
764.562 446.064 l
769.488 466.511 l
770.473 469.433 l
771.458 472.819 l
776.384 487.08 l
777.369 489.323 l
778.355 490.991 l
779.34 493.268 l
780.325 494.98 l
781.31 496.985 l
782.295 498.694 l
784.266 502.469 l
785.251 504.248 l
786.236 505.659 l
787.222 507.279 l
788.207 508.467 l
789.192 509.369 l
790.177 509.984 l
792.148 512.837 l
794.118 515.434 l
795.103 515.893 l
796.089 516.859 l
797.074 517.202 l
798.059 517.81 l
799.044 518.128 l
800.029 518.953 l
802 520.003 l
803.97 521.655 l
805.941 522.304 l
806.926 522.846 l
807.911 523.145 l
808.896 523.806 l
809.882 524.243 l
810.867 524.383 l
811.852 524.649 l
812.837 525.063 l
813.822 525.854 l
814.808 526.092 l
815.793 526.017 l
817.763 526.414 l
818.749 527.095 l
819.734 527.478 l
820.719 528.223 l
821.704 527.939 l
823.675 528.491 l
828.601 529.179 l
829.586 529.607 l
830.571 529.517 l
831.556 530.063 l
832.542 529.924 l
833.527 530.41 l
834.512 530.243 l
835.497 530.817 l
836.483 531.173 l
837.468 531.08 l
838.453 531.263 l
839.438 531.183 l
840.423 531.482 l
841.409 531.308 l
842.394 531.57 l
843.379 531.184 l
844.364 531.137 l
845.349 531.645 l
846.335 531.614 l
847.32 531.944 l
848.305 532.057 l
849.29 531.648 l
850.276 531.546 l
851.261 531.731 l
852.246 532.377 l
853.231 532.134 l
855.202 532.194 l
856.187 532.604 l
857.172 532.612 l
858.157 533.05 l
859.143 533.342 l
860.128 533.436 l
862.098 533.957 l
863.083 533.903 l
864.069 534.132 l
865.054 534.496 l
867.024 534.521 l
868.01 535.058 l
869.98 535.598 l
871.95 536.167 l
872.936 536.069 l
873.921 536.36 l
874.906 536.124 l
875.891 536.062 l
876.876 536.477 l
877.862 536.422 l
879.832 536.593 l
880.817 536.645 l
881.803 537.358 l
882.788 537.859 l
883.773 537.492 l
884.758 537.81 l
885.743 537.559 l
886.729 538.227 l
888.699 538.432 l
889.684 538.963 l
890.67 539.009 l
892.64 539.632 l
894.61 539.769 l
896.581 540.091 l
897.566 540.928 l
898.551 541.083 l
899.537 541.514 l
900.522 541.076 l
901.507 541.082 l
902.492 540.958 l
903.477 540.461 l
904.463 540.539 l
905.448 540.777 l
907.418 540.954 l
908.403 540.908 l
909.389 541.069 l
910.374 541.451 l
911.359 541.096 l
914.315 541.756 l
915.3 126.246 l
916.285 128.189 l
916.285 128.189 l
stroke
grestore
0.500 setlinewidth
[] 0 setdash
gsave
/o {
gsave
newpath
translate
0.5 setlinewidth
1 setlinejoin
0 setlinecap
0 0 m
0 4 l
gsave
0.000 setgray
fill
grestore
stroke
grestore
} bind def
127.125 72.9 o
grestore
gsave
/o {
gsave
newpath
translate
0.5 setlinewidth
1 setlinejoin
0 setlinecap
0 0 m
0 -4 l
gsave
0.000 setgray
fill
grestore
stroke
grestore
} bind def
127.125 656.1 o
grestore
/DejaVuSans findfont
20.000 scalefont
setfont
gsave
122.085938 53.696875 translate
0.000000 rotate
0.000000 0.000000 m /zero glyphshow
grestore
gsave
/o {
gsave
newpath
translate
0.5 setlinewidth
1 setlinejoin
0 setlinecap
0 0 m
0 4 l
gsave
0.000 setgray
fill
grestore
stroke
grestore
} bind def
225.647 72.9 o
grestore
gsave
/o {
gsave
newpath
translate
0.5 setlinewidth
1 setlinejoin
0 setlinecap
0 0 m
0 -4 l
gsave
0.000 setgray
fill
grestore
stroke
grestore
} bind def
225.647 656.1 o
grestore
gsave
208.334375 53.696875 translate
0.000000 rotate
0.000000 0.000000 m /one glyphshow
12.724609 0.000000 m /zero glyphshow
25.449219 0.000000 m /zero glyphshow
grestore
gsave
/o {
gsave
newpath
translate
0.5 setlinewidth
1 setlinejoin
0 setlinecap
0 0 m
0 4 l
gsave
0.000 setgray
fill
grestore
stroke
grestore
} bind def
324.169 72.9 o
grestore
gsave
/o {
gsave
newpath
translate
0.5 setlinewidth
1 setlinejoin
0 setlinecap
0 0 m
0 -4 l
gsave
0.000 setgray
fill
grestore
stroke
grestore
} bind def
324.169 656.1 o
grestore
gsave
306.489063 53.696875 translate
0.000000 rotate
0.000000 0.000000 m /two glyphshow
12.724609 0.000000 m /zero glyphshow
25.449219 0.000000 m /zero glyphshow
grestore
gsave
/o {
gsave
newpath
translate
0.5 setlinewidth
1 setlinejoin
0 setlinecap
0 0 m
0 4 l
gsave
0.000 setgray
fill
grestore
stroke
grestore
} bind def
422.691 72.9 o
grestore
gsave
/o {
gsave
newpath
translate
0.5 setlinewidth
1 setlinejoin
0 setlinecap
0 0 m
0 -4 l
gsave
0.000 setgray
fill
grestore
stroke
grestore
} bind def
422.691 656.1 o
grestore
gsave
405.042188 53.696875 translate
0.000000 rotate
0.000000 0.000000 m /three glyphshow
12.724609 0.000000 m /zero glyphshow
25.449219 0.000000 m /zero glyphshow
grestore
gsave
/o {
gsave
newpath
translate
0.5 setlinewidth
1 setlinejoin
0 setlinecap
0 0 m
0 4 l
gsave
0.000 setgray
fill
grestore
stroke
grestore
} bind def
521.213 72.9 o
grestore
gsave
/o {
gsave
newpath
translate
0.5 setlinewidth
1 setlinejoin
0 setlinecap
0 0 m
0 -4 l
gsave
0.000 setgray
fill
grestore
stroke
grestore
} bind def
521.213 656.1 o
grestore
gsave
503.290625 53.696875 translate
0.000000 rotate
0.000000 0.000000 m /four glyphshow
12.724609 0.000000 m /zero glyphshow
25.449219 0.000000 m /zero glyphshow
grestore
gsave
/o {
gsave
newpath
translate
0.5 setlinewidth
1 setlinejoin
0 setlinecap
0 0 m
0 4 l
gsave
0.000 setgray
fill
grestore
stroke
grestore
} bind def
619.734 72.9 o
grestore
gsave
/o {
gsave
newpath
translate
0.5 setlinewidth
1 setlinejoin
0 setlinecap
0 0 m
0 -4 l
gsave
0.000 setgray
fill
grestore
stroke
grestore
} bind def
619.734 656.1 o
grestore
gsave
602.093750 53.696875 translate
0.000000 rotate
0.000000 0.000000 m /five glyphshow
12.724609 0.000000 m /zero glyphshow
25.449219 0.000000 m /zero glyphshow
grestore
gsave
/o {
gsave
newpath
translate
0.5 setlinewidth
1 setlinejoin
0 setlinecap
0 0 m
0 4 l
gsave
0.000 setgray
fill
grestore
stroke
grestore
} bind def
718.256 72.9 o
grestore
gsave
/o {
gsave
newpath
translate
0.5 setlinewidth
1 setlinejoin
0 setlinecap
0 0 m
0 -4 l
gsave
0.000 setgray
fill
grestore
stroke
grestore
} bind def
718.256 656.1 o
grestore
gsave
700.537500 53.696875 translate
0.000000 rotate
0.000000 0.000000 m /six glyphshow
12.724609 0.000000 m /zero glyphshow
25.449219 0.000000 m /zero glyphshow
grestore
gsave
/o {
gsave
newpath
translate
0.5 setlinewidth
1 setlinejoin
0 setlinecap
0 0 m
0 4 l
gsave
0.000 setgray
fill
grestore
stroke
grestore
} bind def
816.778 72.9 o
grestore
gsave
/o {
gsave
newpath
translate
0.5 setlinewidth
1 setlinejoin
0 setlinecap
0 0 m
0 -4 l
gsave
0.000 setgray
fill
grestore
stroke
grestore
} bind def
816.778 656.1 o
grestore
gsave
799.184375 53.696875 translate
0.000000 rotate
0.000000 0.000000 m /seven glyphshow
12.724609 0.000000 m /zero glyphshow
25.449219 0.000000 m /zero glyphshow
grestore
gsave
/o {
gsave
newpath
translate
0.5 setlinewidth
1 setlinejoin
0 setlinecap
0 0 m
0 4 l
gsave
0.000 setgray
fill
grestore
stroke
grestore
} bind def
915.3 72.9 o
grestore
gsave
/o {
gsave
newpath
translate
0.5 setlinewidth
1 setlinejoin
0 setlinecap
0 0 m
0 -4 l
gsave
0.000 setgray
fill
grestore
stroke
grestore
} bind def
915.3 656.1 o
grestore
gsave
897.565625 53.696875 translate
0.000000 rotate
0.000000 0.000000 m /eight glyphshow
12.724609 0.000000 m /zero glyphshow
25.449219 0.000000 m /zero glyphshow
grestore
gsave
466.829688 29.337500 translate
0.000000 rotate
0.000000 0.000000 m /G glyphshow
15.498047 0.000000 m /e glyphshow
27.802734 0.000000 m /n glyphshow
40.478516 0.000000 m /e glyphshow
52.783203 0.000000 m /r glyphshow
61.005859 0.000000 m /a glyphshow
73.261719 0.000000 m /t glyphshow
81.103516 0.000000 m /i glyphshow
86.660156 0.000000 m /o glyphshow
98.896484 0.000000 m /n glyphshow
grestore
gsave
/o {
gsave
newpath
translate
0.5 setlinewidth
1 setlinejoin
0 setlinecap
0 0 m
4 0 l
gsave
0.000 setgray
fill
grestore
stroke
grestore
} bind def
127.125 72.9 o
grestore
gsave
/o {
gsave
newpath
translate
0.5 setlinewidth
1 setlinejoin
0 setlinecap
0 0 m
-4 0 l
gsave
0.000 setgray
fill
grestore
stroke
grestore
} bind def
915.3 72.9 o
grestore
gsave
113.046875 67.376562 translate
0.000000 rotate
0.000000 0.000000 m /zero glyphshow
grestore
gsave
/o {
gsave
newpath
translate
0.5 setlinewidth
1 setlinejoin
0 setlinecap
0 0 m
4 0 l
gsave
0.000 setgray
fill
grestore
stroke
grestore
} bind def
127.125 141.512 o
grestore
gsave
/o {
gsave
newpath
translate
0.5 setlinewidth
1 setlinejoin
0 setlinecap
0 0 m
-4 0 l
gsave
0.000 setgray
fill
grestore
stroke
grestore
} bind def
915.3 141.512 o
grestore
gsave
114.453125 135.988327 translate
0.000000 rotate
0.000000 0.000000 m /one glyphshow
grestore
gsave
/o {
gsave
newpath
translate
0.5 setlinewidth
1 setlinejoin
0 setlinecap
0 0 m
4 0 l
gsave
0.000 setgray
fill
grestore
stroke
grestore
} bind def
127.125 210.124 o
grestore
gsave
/o {
gsave
newpath
translate
0.5 setlinewidth
1 setlinejoin
0 setlinecap
0 0 m
-4 0 l
gsave
0.000 setgray
fill
grestore
stroke
grestore
} bind def
915.3 210.124 o
grestore
gsave
113.875000 204.600092 translate
0.000000 rotate
0.000000 0.000000 m /two glyphshow
grestore
gsave
/o {
gsave
newpath
translate
0.5 setlinewidth
1 setlinejoin
0 setlinecap
0 0 m
4 0 l
gsave
0.000 setgray
fill
grestore
stroke
grestore
} bind def
127.125 278.735 o
grestore
gsave
/o {
gsave
newpath
translate
0.5 setlinewidth
1 setlinejoin
0 setlinecap
0 0 m
-4 0 l
gsave
0.000 setgray
fill
grestore
stroke
grestore
} bind def
915.3 278.735 o
grestore
gsave
113.531250 273.211857 translate
0.000000 rotate
0.000000 0.000000 m /three glyphshow
grestore
gsave
/o {
gsave
newpath
translate
0.5 setlinewidth
1 setlinejoin
0 setlinecap
0 0 m
4 0 l
gsave
0.000 setgray
fill
grestore
stroke
grestore
} bind def
127.125 347.347 o
grestore
gsave
/o {
gsave
newpath
translate
0.5 setlinewidth
1 setlinejoin
0 setlinecap
0 0 m
-4 0 l
gsave
0.000 setgray
fill
grestore
stroke
grestore
} bind def
915.3 347.347 o
grestore
gsave
112.500000 341.823621 translate
0.000000 rotate
0.000000 0.000000 m /four glyphshow
grestore
gsave
/o {
gsave
newpath
translate
0.5 setlinewidth
1 setlinejoin
0 setlinecap
0 0 m
4 0 l
gsave
0.000 setgray
fill
grestore
stroke
grestore
} bind def
127.125 415.959 o
grestore
gsave
/o {
gsave
newpath
translate
0.5 setlinewidth
1 setlinejoin
0 setlinecap
0 0 m
-4 0 l
gsave
0.000 setgray
fill
grestore
stroke
grestore
} bind def
915.3 415.959 o
grestore
gsave
113.687500 410.435386 translate
0.000000 rotate
0.000000 0.000000 m /five glyphshow
grestore
gsave
/o {
gsave
newpath
translate
0.5 setlinewidth
1 setlinejoin
0 setlinecap
0 0 m
4 0 l
gsave
0.000 setgray
fill
grestore
stroke
grestore
} bind def
127.125 484.571 o
grestore
gsave
/o {
gsave
newpath
translate
0.5 setlinewidth
1 setlinejoin
0 setlinecap
0 0 m
-4 0 l
gsave
0.000 setgray
fill
grestore
stroke
grestore
} bind def
915.3 484.571 o
grestore
gsave
113.046875 479.047151 translate
0.000000 rotate
0.000000 0.000000 m /six glyphshow
grestore
gsave
/o {
gsave
newpath
translate
0.5 setlinewidth
1 setlinejoin
0 setlinecap
0 0 m
4 0 l
gsave
0.000 setgray
fill
grestore
stroke
grestore
} bind def
127.125 553.182 o
grestore
gsave
/o {
gsave
newpath
translate
0.5 setlinewidth
1 setlinejoin
0 setlinecap
0 0 m
-4 0 l
gsave
0.000 setgray
fill
grestore
stroke
grestore
} bind def
915.3 553.182 o
grestore
gsave
113.750000 547.658915 translate
0.000000 rotate
0.000000 0.000000 m /seven glyphshow
grestore
gsave
/o {
gsave
newpath
translate
0.5 setlinewidth
1 setlinejoin
0 setlinecap
0 0 m
4 0 l
gsave
0.000 setgray
fill
grestore
stroke
grestore
} bind def
127.125 621.794 o
grestore
gsave
/o {
gsave
newpath
translate
0.5 setlinewidth
1 setlinejoin
0 setlinecap
0 0 m
-4 0 l
gsave
0.000 setgray
fill
grestore
stroke
grestore
} bind def
915.3 621.794 o
grestore
gsave
113.125000 616.270680 translate
0.000000 rotate
0.000000 0.000000 m /eight glyphshow
grestore
gsave
103.343750 331.359375 translate
90.000000 rotate
0.000000 0.000000 m /F glyphshow
10.003906 0.000000 m /i glyphshow
15.560547 0.000000 m /t glyphshow
23.402344 0.000000 m /n glyphshow
36.078125 0.000000 m /e glyphshow
48.382812 0.000000 m /s glyphshow
58.802734 0.000000 m /s glyphshow
grestore
1.000 setlinewidth
gsave
127.125 656.1 m
915.3 656.1 l
stroke
grestore
gsave
915.3 72.9 m
915.3 656.1 l
stroke
grestore
gsave
127.125 72.9 m
915.3 72.9 l
stroke
grestore
gsave
127.125 72.9 m
127.125 656.1 l
stroke
grestore
gsave
700.197 84.9 m
903.3 84.9 l
903.3 162.569 l
700.197 162.569 l
700.197 84.9 l
cl
gsave
1.000 setgray
fill
grestore
stroke
grestore
2 setlinecap
gsave
716.997 143.134 m
750.597 143.134 l
stroke
grestore
/DejaVuSans findfont
24.000 scalefont
setfont
gsave
776.996875 134.734375 translate
0.000000 rotate
0.000000 0.000000 m /m glyphshow
23.378906 0.000000 m /a glyphshow
38.085938 0.000000 m /x glyphshow
52.289062 0.000000 m /i glyphshow
58.957031 0.000000 m /m glyphshow
82.335938 0.000000 m /u glyphshow
97.546875 0.000000 m /m glyphshow
grestore
0 setlinecap
[6 6] 0 setdash
gsave
716.997 107.9 m
750.597 107.9 l
stroke
grestore
gsave
776.996875 99.500000 translate
0.000000 rotate
0.000000 0.000000 m /a glyphshow
14.707031 0.000000 m /v glyphshow
28.910156 0.000000 m /e glyphshow
43.675781 0.000000 m /r glyphshow
53.542969 0.000000 m /a glyphshow
68.250000 0.000000 m /g glyphshow
83.484375 0.000000 m /e glyphshow
grestore

end
showpage
