%!PS-Adobe-3.0 EPSF-3.0
%%Title: /home/david/Documents/Research_Report/gfx/waypoint_ga_late.eps
%%Creator: matplotlib version 1.3.1, http://matplotlib.org/
%%CreationDate: Thu Aug 13 12:42:31 2015
%%Orientation: portrait
%%BoundingBox: -202 31 814 760
%%EndComments
%%BeginProlog
/mpldict 8 dict def
mpldict begin
/m { moveto } bind def
/l { lineto } bind def
/r { rlineto } bind def
/c { curveto } bind def
/cl { closepath } bind def
/box {
m
1 index 0 r
0 exch r
neg 0 r
cl
} bind def
/clipbox {
box
clip
newpath
} bind def
%!PS-Adobe-3.0 Resource-Font
%%Title: DejaVu Sans
%%Copyright: Copyright (c) 2003 by Bitstream, Inc. All Rights Reserved. Copyright (c) 2006 by Tavmjong Bah. All Rights Reserved. DejaVu changes are in public domain 
%%Creator: Converted from TrueType to type 3 by PPR
25 dict begin
/_d{bind def}bind def
/_m{moveto}_d
/_l{lineto}_d
/_cl{closepath eofill}_d
/_c{curveto}_d
/_sc{7 -1 roll{setcachedevice}{pop pop pop pop pop pop}ifelse}_d
/_e{exec}_d
/FontName /DejaVuSans def
/PaintType 0 def
/FontMatrix[.001 0 0 .001 0 0]def
/FontBBox[-1021 -415 1681 1167]def
/FontType 3 def
/Encoding [ /zero /one /two /three /four /five /six /seven /eight /nine /F /G /a /e /g /i /m /n /o /r /s /t /u /v /x ] def
/FontInfo 10 dict dup begin
/FamilyName (DejaVu Sans) def
/FullName (DejaVu Sans) def
/Notice (Copyright (c) 2003 by Bitstream, Inc. All Rights Reserved. Copyright (c) 2006 by Tavmjong Bah. All Rights Reserved. DejaVu changes are in public domain ) def
/Weight (Book) def
/Version (Version 2.34) def
/ItalicAngle 0.0 def
/isFixedPitch false def
/UnderlinePosition -130 def
/UnderlineThickness 90 def
end readonly def
/CharStrings 25 dict dup begin
/zero{636 0 66 -13 570 742 _sc
318 664 _m
267 664 229 639 203 589 _c
177 539 165 464 165 364 _c
165 264 177 189 203 139 _c
229 89 267 64 318 64 _c
369 64 407 89 433 139 _c
458 189 471 264 471 364 _c
471 464 458 539 433 589 _c
407 639 369 664 318 664 _c
318 742 _m
399 742 461 709 505 645 _c
548 580 570 486 570 364 _c
570 241 548 147 505 83 _c
461 19 399 -13 318 -13 _c
236 -13 173 19 130 83 _c
87 147 66 241 66 364 _c
66 486 87 580 130 645 _c
173 709 236 742 318 742 _c
_cl}_d
/one{636 0 110 0 544 729 _sc
124 83 _m
285 83 _l
285 639 _l
110 604 _l
110 694 _l
284 729 _l
383 729 _l
383 83 _l
544 83 _l
544 0 _l
124 0 _l
124 83 _l
_cl}_d
/two{{636 0 73 0 536 742 _sc
192 83 _m
536 83 _l
536 0 _l
73 0 _l
73 83 _l
110 121 161 173 226 239 _c
290 304 331 346 348 365 _c
380 400 402 430 414 455 _c
426 479 433 504 433 528 _c
433 566 419 598 392 622 _c
365 646 330 659 286 659 _c
255 659 222 653 188 643 _c
154 632 117 616 78 594 _c
78 694 _l
118 710 155 722 189 730 _c
223 738 255 742 284 742 _c
}_e{359 742 419 723 464 685 _c
509 647 532 597 532 534 _c
532 504 526 475 515 449 _c
504 422 484 390 454 354 _c
446 344 420 317 376 272 _c
332 227 271 164 192 83 _c
_cl}_e}_d
/three{{636 0 76 -13 556 742 _sc
406 393 _m
453 383 490 362 516 330 _c
542 298 556 258 556 212 _c
556 140 531 84 482 45 _c
432 6 362 -13 271 -13 _c
240 -13 208 -10 176 -4 _c
144 1 110 10 76 22 _c
76 117 _l
103 101 133 89 166 81 _c
198 73 232 69 268 69 _c
330 69 377 81 409 105 _c
441 129 458 165 458 212 _c
458 254 443 288 413 312 _c
383 336 341 349 287 349 _c
}_e{202 349 _l
202 430 _l
291 430 _l
339 430 376 439 402 459 _c
428 478 441 506 441 543 _c
441 580 427 609 401 629 _c
374 649 336 659 287 659 _c
260 659 231 656 200 650 _c
169 644 135 635 98 623 _c
98 711 _l
135 721 170 729 203 734 _c
235 739 266 742 296 742 _c
370 742 429 725 473 691 _c
517 657 539 611 539 553 _c
539 513 527 479 504 451 _c
481 423 448 403 406 393 _c
_cl}_e}_d
/four{636 0 49 0 580 729 _sc
378 643 _m
129 254 _l
378 254 _l
378 643 _l
352 729 _m
476 729 _l
476 254 _l
580 254 _l
580 172 _l
476 172 _l
476 0 _l
378 0 _l
378 172 _l
49 172 _l
49 267 _l
352 729 _l
_cl}_d
/five{{636 0 77 -13 549 729 _sc
108 729 _m
495 729 _l
495 646 _l
198 646 _l
198 467 _l
212 472 227 476 241 478 _c
255 480 270 482 284 482 _c
365 482 429 459 477 415 _c
525 370 549 310 549 234 _c
549 155 524 94 475 51 _c
426 8 357 -13 269 -13 _c
238 -13 207 -10 175 -6 _c
143 -1 111 6 77 17 _c
77 116 _l
106 100 136 88 168 80 _c
199 72 232 69 267 69 _c
}_e{323 69 368 83 401 113 _c
433 143 450 183 450 234 _c
450 284 433 324 401 354 _c
368 384 323 399 267 399 _c
241 399 214 396 188 390 _c
162 384 135 375 108 363 _c
108 729 _l
_cl}_e}_d
/six{{636 0 70 -13 573 742 _sc
330 404 _m
286 404 251 388 225 358 _c
199 328 186 286 186 234 _c
186 181 199 139 225 109 _c
251 79 286 64 330 64 _c
374 64 409 79 435 109 _c
461 139 474 181 474 234 _c
474 286 461 328 435 358 _c
409 388 374 404 330 404 _c
526 713 _m
526 623 _l
501 635 476 644 451 650 _c
425 656 400 659 376 659 _c
310 659 260 637 226 593 _c
}_e{192 549 172 482 168 394 _c
187 422 211 444 240 459 _c
269 474 301 482 336 482 _c
409 482 467 459 509 415 _c
551 371 573 310 573 234 _c
573 159 550 99 506 54 _c
462 9 403 -13 330 -13 _c
246 -13 181 19 137 83 _c
92 147 70 241 70 364 _c
70 479 97 571 152 639 _c
206 707 280 742 372 742 _c
396 742 421 739 447 735 _c
472 730 498 723 526 713 _c
_cl}_e}_d
/seven{636 0 82 0 551 729 _sc
82 729 _m
551 729 _l
551 687 _l
286 0 _l
183 0 _l
432 646 _l
82 646 _l
82 729 _l
_cl}_d
/eight{{636 0 68 -13 568 742 _sc
318 346 _m
271 346 234 333 207 308 _c
180 283 167 249 167 205 _c
167 161 180 126 207 101 _c
234 76 271 64 318 64 _c
364 64 401 76 428 102 _c
455 127 469 161 469 205 _c
469 249 455 283 429 308 _c
402 333 365 346 318 346 _c
219 388 _m
177 398 144 418 120 447 _c
96 476 85 511 85 553 _c
85 611 105 657 147 691 _c
188 725 245 742 318 742 _c
}_e{390 742 447 725 489 691 _c
530 657 551 611 551 553 _c
551 511 539 476 515 447 _c
491 418 459 398 417 388 _c
464 377 501 355 528 323 _c
554 291 568 251 568 205 _c
568 134 546 80 503 43 _c
459 5 398 -13 318 -13 _c
237 -13 175 5 132 43 _c
89 80 68 134 68 205 _c
68 251 81 291 108 323 _c
134 355 171 377 219 388 _c
183 544 _m
183 506 194 476 218 455 _c
}_e{242 434 275 424 318 424 _c
360 424 393 434 417 455 _c
441 476 453 506 453 544 _c
453 582 441 611 417 632 _c
393 653 360 664 318 664 _c
275 664 242 653 218 632 _c
194 611 183 582 183 544 _c
_cl}_e}_d
/nine{{636 0 63 -13 566 742 _sc
110 15 _m
110 105 _l
134 93 159 84 185 78 _c
210 72 235 69 260 69 _c
324 69 374 90 408 134 _c
442 178 462 244 468 334 _c
448 306 424 284 396 269 _c
367 254 335 247 300 247 _c
226 247 168 269 126 313 _c
84 357 63 417 63 494 _c
63 568 85 628 129 674 _c
173 719 232 742 306 742 _c
390 742 455 709 499 645 _c
543 580 566 486 566 364 _c
}_e{566 248 538 157 484 89 _c
429 21 356 -13 264 -13 _c
239 -13 214 -10 189 -6 _c
163 -2 137 5 110 15 _c
306 324 _m
350 324 385 339 411 369 _c
437 399 450 441 450 494 _c
450 546 437 588 411 618 _c
385 648 350 664 306 664 _c
262 664 227 648 201 618 _c
175 588 162 546 162 494 _c
162 441 175 399 201 369 _c
227 339 262 324 306 324 _c
_cl}_e}_d
/F{575 0 98 0 517 729 _sc
98 729 _m
517 729 _l
517 646 _l
197 646 _l
197 431 _l
486 431 _l
486 348 _l
197 348 _l
197 0 _l
98 0 _l
98 729 _l
_cl}_d
/G{{775 0 56 -13 693 742 _sc
595 104 _m
595 300 _l
434 300 _l
434 381 _l
693 381 _l
693 68 _l
655 40 613 20 567 7 _c
521 -6 472 -13 420 -13 _c
306 -13 216 20 152 86 _c
88 152 56 245 56 364 _c
56 482 88 575 152 642 _c
216 708 306 742 420 742 _c
467 742 512 736 555 724 _c
598 712 638 695 674 673 _c
674 568 _l
637 598 598 621 557 637 _c
516 653 473 661 428 661 _c
}_e{338 661 271 636 227 586 _c
182 536 160 462 160 364 _c
160 265 182 191 227 141 _c
271 91 338 67 428 67 _c
462 67 493 70 521 76 _c
549 82 573 91 595 104 _c
_cl}_e}_d
/a{{613 0 60 -13 522 560 _sc
343 275 _m
270 275 220 266 192 250 _c
164 233 150 205 150 165 _c
150 133 160 107 181 89 _c
202 70 231 61 267 61 _c
317 61 357 78 387 114 _c
417 149 432 196 432 255 _c
432 275 _l
343 275 _l
522 312 _m
522 0 _l
432 0 _l
432 83 _l
411 49 385 25 355 10 _c
325 -5 287 -13 243 -13 _c
187 -13 142 2 109 33 _c
76 64 60 106 60 159 _c
}_e{60 220 80 266 122 298 _c
163 329 224 345 306 345 _c
432 345 _l
432 354 _l
432 395 418 427 391 450 _c
364 472 326 484 277 484 _c
245 484 215 480 185 472 _c
155 464 127 453 100 439 _c
100 522 _l
132 534 164 544 195 550 _c
226 556 256 560 286 560 _c
365 560 424 539 463 498 _c
502 457 522 395 522 312 _c
_cl}_e}_d
/e{{615 0 55 -13 562 560 _sc
562 296 _m
562 252 _l
149 252 _l
153 190 171 142 205 110 _c
238 78 284 62 344 62 _c
378 62 412 66 444 74 _c
476 82 509 95 541 113 _c
541 28 _l
509 14 476 3 442 -3 _c
408 -9 373 -13 339 -13 _c
251 -13 182 12 131 62 _c
80 112 55 181 55 268 _c
55 357 79 428 127 481 _c
175 533 241 560 323 560 _c
397 560 455 536 498 489 _c
}_e{540 441 562 377 562 296 _c
472 322 _m
471 371 457 410 431 440 _c
404 469 368 484 324 484 _c
274 484 234 469 204 441 _c
174 413 156 373 152 322 _c
472 322 _l
_cl}_e}_d
/g{{635 0 55 -207 544 560 _sc
454 280 _m
454 344 440 395 414 431 _c
387 467 349 485 301 485 _c
253 485 215 467 188 431 _c
161 395 148 344 148 280 _c
148 215 161 165 188 129 _c
215 93 253 75 301 75 _c
349 75 387 93 414 129 _c
440 165 454 215 454 280 _c
544 68 _m
544 -24 523 -93 482 -139 _c
440 -184 377 -207 292 -207 _c
260 -207 231 -204 203 -200 _c
175 -195 147 -188 121 -178 _c
}_e{121 -91 _l
147 -105 173 -115 199 -122 _c
225 -129 251 -133 278 -133 _c
336 -133 380 -117 410 -87 _c
439 -56 454 -10 454 52 _c
454 96 _l
435 64 411 40 382 24 _c
353 8 319 0 279 0 _c
211 0 157 25 116 76 _c
75 127 55 195 55 280 _c
55 364 75 432 116 483 _c
157 534 211 560 279 560 _c
319 560 353 552 382 536 _c
411 520 435 496 454 464 _c
454 547 _l
544 547 _l
}_e{544 68 _l
_cl}_e}_d
/i{278 0 94 0 184 760 _sc
94 547 _m
184 547 _l
184 0 _l
94 0 _l
94 547 _l
94 760 _m
184 760 _l
184 646 _l
94 646 _l
94 760 _l
_cl}_d
/m{{974 0 91 0 889 560 _sc
520 442 _m
542 482 569 511 600 531 _c
631 550 668 560 711 560 _c
767 560 811 540 842 500 _c
873 460 889 403 889 330 _c
889 0 _l
799 0 _l
799 327 _l
799 379 789 418 771 444 _c
752 469 724 482 686 482 _c
639 482 602 466 575 435 _c
548 404 535 362 535 309 _c
535 0 _l
445 0 _l
445 327 _l
445 379 435 418 417 444 _c
398 469 369 482 331 482 _c
}_e{285 482 248 466 221 435 _c
194 404 181 362 181 309 _c
181 0 _l
91 0 _l
91 547 _l
181 547 _l
181 462 _l
201 495 226 520 255 536 _c
283 552 317 560 357 560 _c
397 560 430 550 458 530 _c
486 510 506 480 520 442 _c
_cl}_e}_d
/n{634 0 91 0 549 560 _sc
549 330 _m
549 0 _l
459 0 _l
459 327 _l
459 379 448 417 428 443 _c
408 469 378 482 338 482 _c
289 482 251 466 223 435 _c
195 404 181 362 181 309 _c
181 0 _l
91 0 _l
91 547 _l
181 547 _l
181 462 _l
202 494 227 519 257 535 _c
286 551 320 560 358 560 _c
420 560 468 540 500 501 _c
532 462 549 405 549 330 _c
_cl}_d
/o{612 0 55 -13 557 560 _sc
306 484 _m
258 484 220 465 192 427 _c
164 389 150 338 150 273 _c
150 207 163 156 191 118 _c
219 80 257 62 306 62 _c
354 62 392 80 420 118 _c
448 156 462 207 462 273 _c
462 337 448 389 420 427 _c
392 465 354 484 306 484 _c
306 560 _m
384 560 445 534 490 484 _c
534 433 557 363 557 273 _c
557 183 534 113 490 63 _c
445 12 384 -13 306 -13 _c
227 -13 165 12 121 63 _c
77 113 55 183 55 273 _c
55 363 77 433 121 484 _c
165 534 227 560 306 560 _c
_cl}_d
/r{411 0 91 0 411 560 _sc
411 463 _m
401 469 390 473 378 476 _c
366 478 353 480 339 480 _c
288 480 249 463 222 430 _c
194 397 181 350 181 288 _c
181 0 _l
91 0 _l
91 547 _l
181 547 _l
181 462 _l
199 495 224 520 254 536 _c
284 552 321 560 365 560 _c
371 560 378 559 386 559 _c
393 558 401 557 411 555 _c
411 463 _l
_cl}_d
/s{{521 0 54 -13 472 560 _sc
443 531 _m
443 446 _l
417 458 391 468 364 475 _c
336 481 308 485 279 485 _c
234 485 200 478 178 464 _c
156 450 145 430 145 403 _c
145 382 153 366 169 354 _c
185 342 217 330 265 320 _c
296 313 _l
360 299 405 279 432 255 _c
458 230 472 195 472 151 _c
472 100 452 60 412 31 _c
372 1 316 -13 246 -13 _c
216 -13 186 -10 154 -5 _c
}_e{122 0 89 8 54 20 _c
54 113 _l
87 95 120 82 152 74 _c
184 65 216 61 248 61 _c
290 61 323 68 346 82 _c
368 96 380 117 380 144 _c
380 168 371 187 355 200 _c
339 213 303 226 247 238 _c
216 245 _l
160 257 119 275 95 299 _c
70 323 58 356 58 399 _c
58 450 76 490 112 518 _c
148 546 200 560 268 560 _c
301 560 332 557 362 552 _c
391 547 418 540 443 531 _c
}_e{_cl}_e}_d
/t{392 0 27 0 368 702 _sc
183 702 _m
183 547 _l
368 547 _l
368 477 _l
183 477 _l
183 180 _l
183 135 189 106 201 94 _c
213 81 238 75 276 75 _c
368 75 _l
368 0 _l
276 0 _l
206 0 158 13 132 39 _c
106 65 93 112 93 180 _c
93 477 _l
27 477 _l
27 547 _l
93 547 _l
93 702 _l
183 702 _l
_cl}_d
/u{634 0 85 -13 543 560 _sc
85 216 _m
85 547 _l
175 547 _l
175 219 _l
175 167 185 129 205 103 _c
225 77 255 64 296 64 _c
344 64 383 79 411 110 _c
439 141 453 183 453 237 _c
453 547 _l
543 547 _l
543 0 _l
453 0 _l
453 84 _l
431 50 405 26 377 10 _c
348 -5 315 -13 277 -13 _c
214 -13 166 6 134 45 _c
101 83 85 140 85 216 _c
311 560 _m
311 560 _l
_cl}_d
/v{592 0 30 0 562 547 _sc
30 547 _m
125 547 _l
296 88 _l
467 547 _l
562 547 _l
357 0 _l
235 0 _l
30 547 _l
_cl}_d
/x{592 0 29 0 559 547 _sc
549 547 _m
351 281 _l
559 0 _l
453 0 _l
294 215 _l
135 0 _l
29 0 _l
241 286 _l
47 547 _l
153 547 _l
298 352 _l
443 547 _l
549 547 _l
_cl}_d
end readonly def

/BuildGlyph
 {exch begin
 CharStrings exch
 2 copy known not{pop /.notdef}if
 true 3 1 roll get exec
 end}_d

/BuildChar {
 1 index /Encoding get exch get
 1 index /BuildGlyph get exec
}_d

FontName currentdict end definefont pop
end
%%EndProlog
mpldict begin
-202.5 31.5 translate
1017 729 0 0 clipbox
gsave
0 0 m
1017 0 l
1017 729 l
0 729 l
cl
1.000 setgray
fill
grestore
gsave
127.125 72.9 m
915.3 72.9 l
915.3 656.1 l
127.125 656.1 l
cl
1.000 setgray
fill
grestore
1.000 setlinewidth
1 setlinejoin
2 setlinecap
[] 0 setdash
0.000 setgray
gsave
788.2 583.2 127.1 72.9 clipbox
126.14 592.291 m
127.125 367.244 l
128.11 389.2 l
129.095 405.667 l
130.081 418.017 l
131.066 419.389 l
132.051 431.053 l
133.036 437.228 l
134.022 446.148 l
135.007 453.009 l
135.992 455.754 l
136.977 464.673 l
137.962 467.418 l
139.933 478.396 l
140.918 489.373 l
141.903 495.548 l
143.874 509.957 l
144.859 515.446 l
145.844 524.365 l
146.829 529.168 l
148.8 533.285 l
149.785 534.657 l
150.77 537.402 l
151.755 540.832 l
152.741 542.891 l
153.726 546.321 l
154.711 547.693 l
155.696 548.38 l
156.682 549.752 l
157.667 550.438 l
158.652 550.438 l
159.637 555.241 l
161.608 555.241 l
162.593 555.927 l
163.578 558.671 l
164.563 559.357 l
165.549 560.73 l
166.534 562.788 l
168.504 562.788 l
169.489 563.474 l
173.43 563.474 l
175.401 567.591 l
178.356 567.591 l
179.342 568.277 l
191.164 568.277 l
192.149 568.963 l
197.076 568.963 l
198.061 569.649 l
209.883 569.649 l
210.869 570.335 l
215.795 570.335 l
216.78 571.021 l
217.765 571.021 l
218.75 571.708 l
224.662 571.708 l
225.647 572.394 l
232.543 572.394 l
233.529 573.08 l
248.307 573.08 l
249.292 573.766 l
251.263 573.766 l
252.248 574.452 l
253.233 574.452 l
254.218 575.138 l
257.174 575.138 l
258.159 575.824 l
268.997 575.824 l
269.982 577.196 l
275.893 577.196 l
276.878 577.883 l
278.849 577.883 l
279.834 578.569 l
306.435 578.569 l
307.42 579.255 l
312.346 579.255 l
313.331 579.941 l
320.228 579.941 l
321.213 580.627 l
323.184 580.627 l
324.169 379.595 l
325.154 405.667 l
326.139 416.645 l
327.124 421.448 l
328.11 425.564 l
329.095 431.053 l
330.08 443.404 l
331.065 452.323 l
332.051 463.301 l
333.036 465.359 l
334.021 469.476 l
335.006 475.651 l
335.991 480.454 l
336.977 483.884 l
338.947 494.862 l
339.932 497.607 l
340.917 508.585 l
342.888 518.19 l
343.873 520.935 l
344.858 532.599 l
345.844 537.402 l
346.829 539.46 l
347.814 542.204 l
348.799 543.577 l
351.755 545.635 l
352.74 547.693 l
353.725 551.81 l
354.711 553.182 l
356.681 554.555 l
358.651 554.555 l
359.637 555.241 l
360.622 559.357 l
361.607 559.357 l
362.592 560.73 l
364.563 560.73 l
366.533 562.102 l
367.518 562.102 l
368.504 563.474 l
372.444 563.474 l
373.43 566.905 l
374.415 566.905 l
375.4 568.963 l
376.385 570.335 l
379.341 570.335 l
380.326 571.021 l
381.311 572.394 l
387.223 572.394 l
388.208 573.08 l
393.134 573.08 l
394.119 573.766 l
396.09 573.766 l
397.075 575.824 l
419.735 575.824 l
420.72 577.196 l
421.705 577.196 l
422.691 577.883 l
431.558 577.883 l
432.543 579.255 l
437.469 579.255 l
438.454 581.313 l
439.439 582.685 l
446.336 582.685 l
447.321 584.058 l
455.203 584.058 l
456.188 584.744 l
520.227 584.744 l
521.213 391.259 l
522.198 403.609 l
523.183 407.039 l
524.168 421.448 l
525.153 425.564 l
527.124 446.148 l
528.109 459.87 l
529.094 461.243 l
530.079 468.79 l
531.065 472.22 l
532.05 478.396 l
533.035 481.14 l
534.02 484.571 l
535.006 490.746 l
535.991 503.096 l
536.976 505.154 l
537.961 509.957 l
539.932 516.818 l
540.917 522.307 l
541.902 526.424 l
542.887 529.854 l
543.873 533.971 l
544.858 536.716 l
545.843 541.518 l
546.828 545.635 l
547.813 549.066 l
548.799 549.066 l
549.784 551.124 l
555.695 551.124 l
556.68 553.182 l
557.666 553.868 l
558.651 555.241 l
559.636 555.241 l
560.621 556.613 l
561.606 559.357 l
562.592 559.357 l
563.577 560.73 l
568.503 560.73 l
569.488 561.416 l
571.459 561.416 l
572.444 562.102 l
574.414 562.102 l
575.4 562.788 l
576.385 564.16 l
577.37 564.16 l
578.355 564.846 l
581.311 564.846 l
582.296 565.532 l
602.986 565.532 l
603.971 566.219 l
617.764 566.219 l
618.749 566.905 l
624.66 566.905 l
625.646 568.963 l
636.483 568.963 l
637.468 569.649 l
650.276 569.649 l
651.261 570.335 l
653.232 570.335 l
654.217 571.021 l
666.04 571.021 l
667.025 573.08 l
685.744 573.08 l
686.729 573.766 l
701.508 573.766 l
702.493 574.452 l
708.404 574.452 l
709.389 575.138 l
717.271 575.138 l
718.256 389.2 l
720.227 422.134 l
721.212 428.309 l
722.197 431.74 l
723.182 439.287 l
724.168 444.776 l
725.153 453.695 l
726.138 466.045 l
727.123 475.651 l
728.108 479.082 l
729.094 483.884 l
730.079 496.921 l
731.064 498.979 l
732.049 503.096 l
733.035 507.899 l
734.02 513.388 l
735.005 515.446 l
735.99 520.249 l
736.975 525.738 l
737.961 527.796 l
738.946 533.285 l
739.931 536.716 l
740.916 542.204 l
741.901 542.891 l
742.887 546.321 l
743.872 547.693 l
744.857 549.752 l
745.842 551.124 l
746.828 551.81 l
747.813 551.81 l
749.783 558.671 l
750.768 561.416 l
751.754 564.846 l
754.709 564.846 l
755.695 565.532 l
757.665 568.277 l
758.65 568.963 l
759.635 571.021 l
760.621 571.021 l
761.606 573.766 l
764.562 573.766 l
765.547 574.452 l
768.502 574.452 l
769.488 575.138 l
773.428 575.138 l
774.414 576.51 l
777.369 576.51 l
778.355 577.196 l
782.295 577.196 l
783.281 578.569 l
784.266 578.569 l
785.251 579.941 l
793.133 579.941 l
794.118 580.627 l
795.103 581.999 l
796.089 581.999 l
797.074 584.058 l
809.882 584.058 l
810.867 584.744 l
814.808 584.744 l
815.793 586.802 l
853.231 586.802 l
854.216 587.488 l
855.202 587.488 l
856.187 588.86 l
868.995 588.86 l
869.98 590.919 l
880.817 590.919 l
881.803 591.605 l
883.773 591.605 l
884.758 592.291 l
887.714 592.291 l
888.699 593.663 l
914.315 593.663 l
914.315 593.663 l
stroke
grestore
0 setlinecap
[6 6] 0 setdash
gsave
788.2 583.2 127.1 72.9 clipbox
126.14 530.514 m
127.125 134.949 l
129.095 139.367 l
131.066 144.388 l
133.036 150.076 l
135.007 156.858 l
136.977 165.011 l
138.948 174.815 l
140.918 186.544 l
142.889 200.049 l
145.844 224.022 l
148.8 251.65 l
156.682 328.954 l
159.637 355.389 l
161.608 371.332 l
163.578 385.606 l
166.534 404.634 l
169.489 421.487 l
171.46 430.835 l
172.445 435.888 l
174.416 444.447 l
178.356 460.436 l
180.327 466.855 l
181.312 470.544 l
182.297 473.612 l
183.282 476.103 l
184.268 479.089 l
186.238 483.9 l
187.223 485.843 l
188.209 487.368 l
190.179 490.957 l
192.149 493.503 l
193.135 495.52 l
196.09 499.027 l
197.076 499.434 l
200.031 501.97 l
201.016 502.867 l
202.002 503.224 l
202.987 504.029 l
203.972 504.424 l
204.957 505.087 l
207.913 507.873 l
208.898 508.487 l
210.869 508.9 l
211.854 509.309 l
212.839 509.383 l
214.809 510.404 l
215.795 510.114 l
219.736 510.657 l
220.721 511.027 l
221.706 510.716 l
222.691 510.685 l
223.676 511.456 l
225.647 510.808 l
228.603 510.62 l
229.588 511.002 l
230.573 510.991 l
231.558 511.255 l
232.543 511.724 l
233.529 511.57 l
234.514 511.667 l
235.499 512.004 l
237.47 512.023 l
238.455 511.543 l
239.44 511.326 l
240.425 511.501 l
241.41 511.792 l
242.396 511.678 l
244.366 511.854 l
245.351 512.032 l
246.336 512.46 l
248.307 512.862 l
249.292 513.162 l
250.277 512.812 l
251.263 512.726 l
252.248 513.453 l
254.218 513.027 l
255.203 512.648 l
259.144 513.662 l
260.13 514.003 l
261.115 513.878 l
264.07 514.474 l
265.056 514.212 l
266.041 514.649 l
268.011 514.297 l
268.997 514.209 l
269.982 515.002 l
270.967 515.2 l
271.952 515.541 l
272.937 515.045 l
273.923 515.182 l
274.908 515.039 l
275.893 515.219 l
276.878 515.644 l
277.863 515.025 l
278.849 515.722 l
280.819 515.629 l
281.804 516.155 l
282.79 516.273 l
283.775 516.736 l
284.76 516.553 l
285.745 516.584 l
286.73 516.313 l
287.716 516.34 l
288.701 516.94 l
289.686 517.245 l
290.671 517.19 l
291.657 517.377 l
292.642 517.045 l
293.627 516.999 l
294.612 517.651 l
295.597 517.662 l
296.583 518.015 l
297.568 517.505 l
298.553 517.626 l
299.538 517.306 l
300.524 517.521 l
301.509 517.265 l
303.479 518.115 l
304.464 518.024 l
305.45 518.324 l
306.435 518.369 l
307.42 518.89 l
308.405 518.782 l
309.39 518.851 l
310.376 519.332 l
311.361 519.205 l
312.346 518.71 l
313.331 518.764 l
314.317 518.491 l
315.302 518.838 l
316.287 519.005 l
318.257 518.684 l
320.228 519.471 l
321.213 519.128 l
322.198 519.799 l
323.184 519.919 l
324.169 132.031 l
327.124 139.804 l
330.08 149.257 l
332.051 156.543 l
334.021 165.684 l
335.991 176.631 l
337.962 189.472 l
339.932 204.134 l
341.903 221.069 l
343.873 239.601 l
347.814 278.839 l
352.74 327.206 l
355.696 352.726 l
358.651 375.835 l
359.637 383.064 l
362.592 401.618 l
365.548 418.142 l
369.489 436.864 l
370.474 440.666 l
372.444 448.982 l
374.415 455.879 l
375.4 459.046 l
377.371 464.556 l
379.341 470.792 l
380.326 472.958 l
381.311 475.843 l
384.267 482.319 l
385.252 484.243 l
386.238 486.573 l
387.223 488.479 l
388.208 489.894 l
389.193 491.983 l
391.164 494.366 l
392.149 495.308 l
393.134 496.569 l
396.09 499.635 l
397.075 500.862 l
398.06 501.396 l
399.045 502.115 l
401.016 504.183 l
402.986 505.004 l
409.883 510.043 l
410.868 510.345 l
411.853 511.066 l
412.838 511.05 l
413.824 511.328 l
414.809 512.163 l
415.794 512.494 l
416.779 512.207 l
419.735 512.981 l
420.72 513.346 l
421.705 513.435 l
423.676 513.409 l
425.646 513.881 l
426.632 513.674 l
427.617 513.632 l
428.602 514.226 l
429.587 514.384 l
430.572 515.03 l
431.558 515.055 l
432.543 515.484 l
433.528 515.398 l
435.498 515.709 l
436.484 516.03 l
437.469 516.059 l
438.454 515.864 l
439.439 516.43 l
440.425 516.242 l
442.395 516.237 l
443.38 516.487 l
445.351 516.389 l
448.306 517.213 l
449.292 517.406 l
450.277 517.438 l
451.262 517.262 l
452.247 517.707 l
453.232 517.125 l
454.218 517.11 l
457.173 517.936 l
458.159 517.687 l
460.129 517.578 l
461.114 517.985 l
462.099 518.677 l
463.085 518.895 l
465.055 518.562 l
466.04 517.993 l
468.011 518.273 l
468.996 518.868 l
469.981 518.529 l
470.966 518.44 l
472.937 518.796 l
473.922 518.846 l
474.907 519.429 l
475.892 519.386 l
476.878 520.003 l
477.863 520.177 l
478.848 520.487 l
480.819 521.513 l
481.804 521.799 l
482.789 521.747 l
483.774 521.844 l
484.759 522.425 l
485.745 522.037 l
486.73 522.024 l
487.715 522.675 l
488.7 522.501 l
489.686 523.214 l
490.671 523.454 l
491.656 523.002 l
492.641 522.936 l
493.626 523.037 l
494.612 522.943 l
495.597 523.393 l
496.582 523.084 l
498.552 523.26 l
499.538 523.097 l
500.523 523.332 l
501.508 523.739 l
503.479 523.255 l
505.449 523.664 l
506.434 524.221 l
507.419 523.783 l
508.405 523.893 l
509.39 523.875 l
512.346 524.48 l
513.331 524.265 l
514.316 524.256 l
515.301 524.068 l
516.286 523.756 l
517.272 523.782 l
518.257 524.145 l
520.227 523.988 l
521.213 141.592 l
523.183 146.652 l
525.153 152.319 l
528.109 161.968 l
529.094 165.639 l
531.065 174.157 l
533.035 183.985 l
535.006 195.664 l
537.961 217.143 l
540.917 241.308 l
542.887 259.027 l
545.843 288.056 l
548.799 317.218 l
552.74 354.017 l
555.695 378.288 l
557.666 392.426 l
559.636 405.465 l
561.606 416.545 l
564.562 432.023 l
568.503 450.22 l
570.473 457.933 l
573.429 467.943 l
575.4 472.988 l
577.37 478.569 l
578.355 481.025 l
579.34 482.805 l
581.311 487.18 l
582.296 488.448 l
584.267 491.718 l
586.237 494.263 l
588.207 495.959 l
589.193 496.887 l
590.178 496.778 l
591.163 496.974 l
592.148 497.687 l
593.133 498.255 l
594.119 499.352 l
595.104 499.435 l
596.089 500.513 l
597.074 500.935 l
599.045 502.401 l
600.03 503.042 l
601.015 503.192 l
602 503.073 l
603.971 503.721 l
604.956 503.335 l
605.941 504.01 l
606.927 504.253 l
607.912 504.155 l
608.897 504.842 l
609.882 504.989 l
611.853 505.835 l
612.838 505.829 l
613.823 506.294 l
614.808 507.255 l
615.793 506.93 l
617.764 507.123 l
618.749 507.451 l
619.734 506.784 l
621.705 507.326 l
622.69 506.88 l
623.675 507.197 l
624.66 506.967 l
625.646 506.892 l
626.631 507.346 l
627.616 507.42 l
628.601 507.781 l
630.572 507.943 l
631.557 507.698 l
632.542 508.196 l
634.513 508.266 l
636.483 508.379 l
637.468 508.755 l
638.454 508.363 l
639.439 508.598 l
640.424 509.223 l
641.409 509.42 l
642.394 509.445 l
643.38 509.295 l
644.365 508.777 l
645.35 508.708 l
647.32 509.083 l
648.306 509.113 l
649.291 508.35 l
650.276 508.078 l
651.261 508.721 l
652.247 508.705 l
654.217 509.715 l
657.173 509.913 l
658.158 510.372 l
659.143 510.204 l
662.099 511.13 l
663.084 511.11 l
664.069 511.477 l
666.04 511.634 l
667.025 511.331 l
668.01 511.817 l
668.995 511.997 l
670.966 511.982 l
671.951 511.689 l
672.936 511.663 l
673.921 512.061 l
674.907 511.893 l
675.892 512.04 l
676.877 511.684 l
677.862 511.767 l
678.847 512.067 l
679.833 511.65 l
680.818 511.569 l
681.803 511.608 l
682.788 512.614 l
683.774 513.053 l
684.759 512.37 l
685.744 512.961 l
686.729 512.588 l
687.714 513.047 l
688.7 512.889 l
689.685 513.114 l
691.655 514.81 l
692.641 514.217 l
694.611 513.818 l
695.596 513.812 l
696.581 514.436 l
697.567 513.785 l
698.552 513.993 l
699.537 514.688 l
701.508 514.495 l
702.493 513.989 l
703.478 513.871 l
704.463 514.242 l
705.448 514.336 l
706.434 514.19 l
707.419 514.33 l
708.404 514.282 l
709.389 515.346 l
710.374 516.111 l
712.345 515.31 l
713.33 515.541 l
714.315 515.567 l
715.301 515.71 l
716.286 515.344 l
717.271 515.541 l
718.256 147.834 l
720.227 152.173 l
723.182 159.876 l
724.168 162.679 l
727.123 173.457 l
729.094 182.181 l
731.064 192.929 l
733.035 205.015 l
735.005 219.364 l
736.975 235.199 l
738.946 252.558 l
741.901 280.449 l
748.798 346.345 l
751.754 372.479 l
753.724 388.392 l
755.695 403.012 l
757.665 415.818 l
759.635 427.1 l
761.606 437.074 l
764.562 450.117 l
769.488 467.189 l
770.473 469.845 l
771.458 473.097 l
772.443 475.308 l
775.399 483.156 l
777.369 486.657 l
778.355 488.071 l
779.34 489.808 l
780.325 492.132 l
783.281 496.971 l
784.266 498.783 l
785.251 500.047 l
786.236 501.505 l
789.192 504.258 l
790.177 505.461 l
791.162 506.913 l
793.133 508.485 l
794.118 509.926 l
795.103 510.438 l
798.059 511.355 l
799.044 512.158 l
800.029 512.718 l
801.015 512.874 l
802 513.601 l
802.985 514.096 l
803.97 514.452 l
804.956 514.054 l
806.926 514.279 l
807.911 514.898 l
808.896 515.012 l
810.867 515.775 l
811.852 515.832 l
812.837 516.081 l
813.822 516.623 l
814.808 516.083 l
815.793 516.361 l
817.763 516.331 l
819.734 516.73 l
820.719 516.763 l
821.704 517.422 l
823.675 517.679 l
824.66 518.695 l
827.616 518.375 l
828.601 518.693 l
829.586 519.647 l
830.571 519.869 l
831.556 520.339 l
832.542 520.367 l
833.527 520.907 l
834.512 520.984 l
835.497 520.707 l
836.483 520.848 l
837.468 521.342 l
838.453 521.534 l
839.438 522.168 l
840.423 522.66 l
841.409 522.923 l
842.394 522.614 l
843.379 522.691 l
844.364 523.119 l
845.349 523.231 l
847.32 523.888 l
848.305 524.044 l
849.29 524.013 l
850.276 524.482 l
852.246 525.2 l
853.231 525.181 l
854.216 525.353 l
855.202 526.064 l
856.187 526.455 l
857.172 526.508 l
858.157 526.276 l
859.143 525.452 l
860.128 525.88 l
861.113 525.67 l
862.098 525.124 l
863.083 525.513 l
864.069 525.41 l
865.054 525.71 l
866.039 526.309 l
867.024 525.904 l
868.01 525.726 l
868.995 525.817 l
869.98 525.317 l
870.965 525.797 l
871.95 526.114 l
872.936 526.191 l
874.906 525.625 l
875.891 525.984 l
876.876 525.873 l
879.832 526.973 l
880.817 526.97 l
882.788 526.643 l
883.773 526.768 l
884.758 527.148 l
885.743 527.246 l
887.714 527.292 l
888.699 526.551 l
889.684 526.149 l
890.67 526.684 l
892.64 526.779 l
893.625 527.09 l
894.61 527.244 l
895.596 526.712 l
896.581 526.49 l
897.566 526.446 l
898.551 526.733 l
899.537 526.836 l
902.492 527.763 l
903.477 528.517 l
904.463 528.398 l
905.448 528.109 l
906.433 528.215 l
907.418 528.729 l
908.403 528.84 l
909.389 528.684 l
910.374 528.791 l
911.359 529.406 l
912.344 529.378 l
913.33 529.736 l
914.315 529.775 l
914.315 529.775 l
stroke
grestore
0.500 setlinewidth
[] 0 setdash
gsave
/o {
gsave
newpath
translate
0.5 setlinewidth
1 setlinejoin
0 setlinecap
0 0 m
0 4 l
gsave
0.000 setgray
fill
grestore
stroke
grestore
} bind def
127.125 72.9 o
grestore
gsave
/o {
gsave
newpath
translate
0.5 setlinewidth
1 setlinejoin
0 setlinecap
0 0 m
0 -4 l
gsave
0.000 setgray
fill
grestore
stroke
grestore
} bind def
127.125 656.1 o
grestore
/DejaVuSans findfont
20.000 scalefont
setfont
gsave
102.984375 53.696875 translate
0.000000 rotate
0.000000 0.000000 m /nine glyphshow
12.724609 0.000000 m /two glyphshow
25.449219 0.000000 m /zero glyphshow
38.173828 0.000000 m /zero glyphshow
grestore
gsave
/o {
gsave
newpath
translate
0.5 setlinewidth
1 setlinejoin
0 setlinecap
0 0 m
0 4 l
gsave
0.000 setgray
fill
grestore
stroke
grestore
} bind def
225.647 72.9 o
grestore
gsave
/o {
gsave
newpath
translate
0.5 setlinewidth
1 setlinejoin
0 setlinecap
0 0 m
0 -4 l
gsave
0.000 setgray
fill
grestore
stroke
grestore
} bind def
225.647 656.1 o
grestore
gsave
201.506250 53.696875 translate
0.000000 rotate
0.000000 0.000000 m /nine glyphshow
12.724609 0.000000 m /three glyphshow
25.449219 0.000000 m /zero glyphshow
38.173828 0.000000 m /zero glyphshow
grestore
gsave
/o {
gsave
newpath
translate
0.5 setlinewidth
1 setlinejoin
0 setlinecap
0 0 m
0 4 l
gsave
0.000 setgray
fill
grestore
stroke
grestore
} bind def
324.169 72.9 o
grestore
gsave
/o {
gsave
newpath
translate
0.5 setlinewidth
1 setlinejoin
0 setlinecap
0 0 m
0 -4 l
gsave
0.000 setgray
fill
grestore
stroke
grestore
} bind def
324.169 656.1 o
grestore
gsave
300.028125 53.696875 translate
0.000000 rotate
0.000000 0.000000 m /nine glyphshow
12.724609 0.000000 m /four glyphshow
25.449219 0.000000 m /zero glyphshow
38.173828 0.000000 m /zero glyphshow
grestore
gsave
/o {
gsave
newpath
translate
0.5 setlinewidth
1 setlinejoin
0 setlinecap
0 0 m
0 4 l
gsave
0.000 setgray
fill
grestore
stroke
grestore
} bind def
422.691 72.9 o
grestore
gsave
/o {
gsave
newpath
translate
0.5 setlinewidth
1 setlinejoin
0 setlinecap
0 0 m
0 -4 l
gsave
0.000 setgray
fill
grestore
stroke
grestore
} bind def
422.691 656.1 o
grestore
gsave
398.550000 53.696875 translate
0.000000 rotate
0.000000 0.000000 m /nine glyphshow
12.724609 0.000000 m /five glyphshow
25.449219 0.000000 m /zero glyphshow
38.173828 0.000000 m /zero glyphshow
grestore
gsave
/o {
gsave
newpath
translate
0.5 setlinewidth
1 setlinejoin
0 setlinecap
0 0 m
0 4 l
gsave
0.000 setgray
fill
grestore
stroke
grestore
} bind def
521.213 72.9 o
grestore
gsave
/o {
gsave
newpath
translate
0.5 setlinewidth
1 setlinejoin
0 setlinecap
0 0 m
0 -4 l
gsave
0.000 setgray
fill
grestore
stroke
grestore
} bind def
521.213 656.1 o
grestore
gsave
497.071875 53.696875 translate
0.000000 rotate
0.000000 0.000000 m /nine glyphshow
12.724609 0.000000 m /six glyphshow
25.449219 0.000000 m /zero glyphshow
38.173828 0.000000 m /zero glyphshow
grestore
gsave
/o {
gsave
newpath
translate
0.5 setlinewidth
1 setlinejoin
0 setlinecap
0 0 m
0 4 l
gsave
0.000 setgray
fill
grestore
stroke
grestore
} bind def
619.734 72.9 o
grestore
gsave
/o {
gsave
newpath
translate
0.5 setlinewidth
1 setlinejoin
0 setlinecap
0 0 m
0 -4 l
gsave
0.000 setgray
fill
grestore
stroke
grestore
} bind def
619.734 656.1 o
grestore
gsave
595.593750 53.696875 translate
0.000000 rotate
0.000000 0.000000 m /nine glyphshow
12.724609 0.000000 m /seven glyphshow
25.449219 0.000000 m /zero glyphshow
38.173828 0.000000 m /zero glyphshow
grestore
gsave
/o {
gsave
newpath
translate
0.5 setlinewidth
1 setlinejoin
0 setlinecap
0 0 m
0 4 l
gsave
0.000 setgray
fill
grestore
stroke
grestore
} bind def
718.256 72.9 o
grestore
gsave
/o {
gsave
newpath
translate
0.5 setlinewidth
1 setlinejoin
0 setlinecap
0 0 m
0 -4 l
gsave
0.000 setgray
fill
grestore
stroke
grestore
} bind def
718.256 656.1 o
grestore
gsave
694.115625 53.696875 translate
0.000000 rotate
0.000000 0.000000 m /nine glyphshow
12.724609 0.000000 m /eight glyphshow
25.449219 0.000000 m /zero glyphshow
38.173828 0.000000 m /zero glyphshow
grestore
gsave
/o {
gsave
newpath
translate
0.5 setlinewidth
1 setlinejoin
0 setlinecap
0 0 m
0 4 l
gsave
0.000 setgray
fill
grestore
stroke
grestore
} bind def
816.778 72.9 o
grestore
gsave
/o {
gsave
newpath
translate
0.5 setlinewidth
1 setlinejoin
0 setlinecap
0 0 m
0 -4 l
gsave
0.000 setgray
fill
grestore
stroke
grestore
} bind def
816.778 656.1 o
grestore
gsave
792.637500 53.696875 translate
0.000000 rotate
0.000000 0.000000 m /nine glyphshow
12.724609 0.000000 m /nine glyphshow
25.449219 0.000000 m /zero glyphshow
38.173828 0.000000 m /zero glyphshow
grestore
gsave
/o {
gsave
newpath
translate
0.5 setlinewidth
1 setlinejoin
0 setlinecap
0 0 m
0 4 l
gsave
0.000 setgray
fill
grestore
stroke
grestore
} bind def
915.3 72.9 o
grestore
gsave
/o {
gsave
newpath
translate
0.5 setlinewidth
1 setlinejoin
0 setlinecap
0 0 m
0 -4 l
gsave
0.000 setgray
fill
grestore
stroke
grestore
} bind def
915.3 656.1 o
grestore
gsave
885.268750 53.696875 translate
0.000000 rotate
0.000000 0.000000 m /one glyphshow
12.724609 0.000000 m /zero glyphshow
25.449219 0.000000 m /zero glyphshow
38.173828 0.000000 m /zero glyphshow
50.898438 0.000000 m /zero glyphshow
grestore
gsave
466.829688 29.337500 translate
0.000000 rotate
0.000000 0.000000 m /G glyphshow
15.498047 0.000000 m /e glyphshow
27.802734 0.000000 m /n glyphshow
40.478516 0.000000 m /e glyphshow
52.783203 0.000000 m /r glyphshow
61.005859 0.000000 m /a glyphshow
73.261719 0.000000 m /t glyphshow
81.103516 0.000000 m /i glyphshow
86.660156 0.000000 m /o glyphshow
98.896484 0.000000 m /n glyphshow
grestore
gsave
/o {
gsave
newpath
translate
0.5 setlinewidth
1 setlinejoin
0 setlinecap
0 0 m
4 0 l
gsave
0.000 setgray
fill
grestore
stroke
grestore
} bind def
127.125 72.9 o
grestore
gsave
/o {
gsave
newpath
translate
0.5 setlinewidth
1 setlinejoin
0 setlinecap
0 0 m
-4 0 l
gsave
0.000 setgray
fill
grestore
stroke
grestore
} bind def
915.3 72.9 o
grestore
gsave
113.046875 67.376562 translate
0.000000 rotate
0.000000 0.000000 m /zero glyphshow
grestore
gsave
/o {
gsave
newpath
translate
0.5 setlinewidth
1 setlinejoin
0 setlinecap
0 0 m
4 0 l
gsave
0.000 setgray
fill
grestore
stroke
grestore
} bind def
127.125 141.512 o
grestore
gsave
/o {
gsave
newpath
translate
0.5 setlinewidth
1 setlinejoin
0 setlinecap
0 0 m
-4 0 l
gsave
0.000 setgray
fill
grestore
stroke
grestore
} bind def
915.3 141.512 o
grestore
gsave
114.453125 135.988327 translate
0.000000 rotate
0.000000 0.000000 m /one glyphshow
grestore
gsave
/o {
gsave
newpath
translate
0.5 setlinewidth
1 setlinejoin
0 setlinecap
0 0 m
4 0 l
gsave
0.000 setgray
fill
grestore
stroke
grestore
} bind def
127.125 210.124 o
grestore
gsave
/o {
gsave
newpath
translate
0.5 setlinewidth
1 setlinejoin
0 setlinecap
0 0 m
-4 0 l
gsave
0.000 setgray
fill
grestore
stroke
grestore
} bind def
915.3 210.124 o
grestore
gsave
113.875000 204.600092 translate
0.000000 rotate
0.000000 0.000000 m /two glyphshow
grestore
gsave
/o {
gsave
newpath
translate
0.5 setlinewidth
1 setlinejoin
0 setlinecap
0 0 m
4 0 l
gsave
0.000 setgray
fill
grestore
stroke
grestore
} bind def
127.125 278.735 o
grestore
gsave
/o {
gsave
newpath
translate
0.5 setlinewidth
1 setlinejoin
0 setlinecap
0 0 m
-4 0 l
gsave
0.000 setgray
fill
grestore
stroke
grestore
} bind def
915.3 278.735 o
grestore
gsave
113.531250 273.211857 translate
0.000000 rotate
0.000000 0.000000 m /three glyphshow
grestore
gsave
/o {
gsave
newpath
translate
0.5 setlinewidth
1 setlinejoin
0 setlinecap
0 0 m
4 0 l
gsave
0.000 setgray
fill
grestore
stroke
grestore
} bind def
127.125 347.347 o
grestore
gsave
/o {
gsave
newpath
translate
0.5 setlinewidth
1 setlinejoin
0 setlinecap
0 0 m
-4 0 l
gsave
0.000 setgray
fill
grestore
stroke
grestore
} bind def
915.3 347.347 o
grestore
gsave
112.500000 341.823621 translate
0.000000 rotate
0.000000 0.000000 m /four glyphshow
grestore
gsave
/o {
gsave
newpath
translate
0.5 setlinewidth
1 setlinejoin
0 setlinecap
0 0 m
4 0 l
gsave
0.000 setgray
fill
grestore
stroke
grestore
} bind def
127.125 415.959 o
grestore
gsave
/o {
gsave
newpath
translate
0.5 setlinewidth
1 setlinejoin
0 setlinecap
0 0 m
-4 0 l
gsave
0.000 setgray
fill
grestore
stroke
grestore
} bind def
915.3 415.959 o
grestore
gsave
113.687500 410.435386 translate
0.000000 rotate
0.000000 0.000000 m /five glyphshow
grestore
gsave
/o {
gsave
newpath
translate
0.5 setlinewidth
1 setlinejoin
0 setlinecap
0 0 m
4 0 l
gsave
0.000 setgray
fill
grestore
stroke
grestore
} bind def
127.125 484.571 o
grestore
gsave
/o {
gsave
newpath
translate
0.5 setlinewidth
1 setlinejoin
0 setlinecap
0 0 m
-4 0 l
gsave
0.000 setgray
fill
grestore
stroke
grestore
} bind def
915.3 484.571 o
grestore
gsave
113.046875 479.047151 translate
0.000000 rotate
0.000000 0.000000 m /six glyphshow
grestore
gsave
/o {
gsave
newpath
translate
0.5 setlinewidth
1 setlinejoin
0 setlinecap
0 0 m
4 0 l
gsave
0.000 setgray
fill
grestore
stroke
grestore
} bind def
127.125 553.182 o
grestore
gsave
/o {
gsave
newpath
translate
0.5 setlinewidth
1 setlinejoin
0 setlinecap
0 0 m
-4 0 l
gsave
0.000 setgray
fill
grestore
stroke
grestore
} bind def
915.3 553.182 o
grestore
gsave
113.750000 547.658915 translate
0.000000 rotate
0.000000 0.000000 m /seven glyphshow
grestore
gsave
/o {
gsave
newpath
translate
0.5 setlinewidth
1 setlinejoin
0 setlinecap
0 0 m
4 0 l
gsave
0.000 setgray
fill
grestore
stroke
grestore
} bind def
127.125 621.794 o
grestore
gsave
/o {
gsave
newpath
translate
0.5 setlinewidth
1 setlinejoin
0 setlinecap
0 0 m
-4 0 l
gsave
0.000 setgray
fill
grestore
stroke
grestore
} bind def
915.3 621.794 o
grestore
gsave
113.125000 616.270680 translate
0.000000 rotate
0.000000 0.000000 m /eight glyphshow
grestore
gsave
103.343750 331.359375 translate
90.000000 rotate
0.000000 0.000000 m /F glyphshow
10.003906 0.000000 m /i glyphshow
15.560547 0.000000 m /t glyphshow
23.402344 0.000000 m /n glyphshow
36.078125 0.000000 m /e glyphshow
48.382812 0.000000 m /s glyphshow
58.802734 0.000000 m /s glyphshow
grestore
1.000 setlinewidth
gsave
127.125 656.1 m
915.3 656.1 l
stroke
grestore
gsave
915.3 72.9 m
915.3 656.1 l
stroke
grestore
gsave
127.125 72.9 m
915.3 72.9 l
stroke
grestore
gsave
127.125 72.9 m
127.125 656.1 l
stroke
grestore
gsave
700.197 84.9 m
903.3 84.9 l
903.3 162.569 l
700.197 162.569 l
700.197 84.9 l
cl
gsave
1.000 setgray
fill
grestore
stroke
grestore
2 setlinecap
gsave
716.997 143.134 m
750.597 143.134 l
stroke
grestore
/DejaVuSans findfont
24.000 scalefont
setfont
gsave
776.996875 134.734375 translate
0.000000 rotate
0.000000 0.000000 m /m glyphshow
23.378906 0.000000 m /a glyphshow
38.085938 0.000000 m /x glyphshow
52.289062 0.000000 m /i glyphshow
58.957031 0.000000 m /m glyphshow
82.335938 0.000000 m /u glyphshow
97.546875 0.000000 m /m glyphshow
grestore
0 setlinecap
[6 6] 0 setdash
gsave
716.997 107.9 m
750.597 107.9 l
stroke
grestore
gsave
776.996875 99.500000 translate
0.000000 rotate
0.000000 0.000000 m /a glyphshow
14.707031 0.000000 m /v glyphshow
28.910156 0.000000 m /e glyphshow
43.675781 0.000000 m /r glyphshow
53.542969 0.000000 m /a glyphshow
68.250000 0.000000 m /g glyphshow
83.484375 0.000000 m /e glyphshow
grestore

end
showpage
